Place,Name,Division,BirthYear,BodyweightKg,Bench1Kg,Bench2Kg,Bench3Kg,Best3BenchKg,Bench4Kg,WeightClassKg,Sex,CyrillicName,Tested,Equipment,Squat1Kg,Squat2Kg,Squat3Kg,Best3SquatKg,Deadlift1Kg,Deadlift2Kg,Deadlift3Kg,Best3DeadliftKg,Deadlift4Kg,TotalKg,Event
1,Yana Timonina,Amateur Juniors 20-23,1993,47.2,45,50,-52.5,50,,48,F,Яна Тимонина,Yes,Raw,,,,,,,,,,50,B
2,Anastasiya Drobysheva,Amateur Juniors 20-23,1994,47.7,-45,-45,45,45,,48,F,Анастасия Дробышева,Yes,Raw,,,,,,,,,,45,B
DQ,Mariam Kharazishvili,Amateur Juniors 20-23,1994,47.6,-40,-40,-40,,,48,F,Мариам Харазишвили,Yes,Raw,,,,,,,,,,,B
DQ,Irina Bryukhanova,Amateur Open,1984,47.2,-60,-60,-60,,,48,F,Ирина Брюханова,Yes,Raw,,,,,,,,,,,B
1,Viktoriya Yultsova,Amateur Teen 13-15,2002,51.9,70,75,-77.5,75,,52,F,Виктория Юльцова,Yes,Raw,,,,,,,,,,75,B
1,Viktoriya Yultsova,Amateur Open,2002,51.9,70,75,-77.5,75,,52,F,Виктория Юльцова,Yes,Raw,,,,,,,,,,75,B
2,Tatyana Primak,Amateur Open,1983,51.6,57.5,60,-62.5,60,,52,F,Татьяна Примак,Yes,Raw,,,,,,,,,,60,B
3,Kamila Mishakova,Amateur Open,1990,51,52.5,57.5,-60,57.5,,52,F,Камила Мишакова,Yes,Raw,,,,,,,,,,57.5,B
4,Irina Rymar,Amateur Open,1983,50.9,45,50,-55,50,,52,F,Ирина Рымарь,Yes,Raw,,,,,,,,,,50,B
5,Anastasiya Batyukhova,Amateur Open,1991,51,-45,50,-52.5,50,,52,F,Анастасия Батюхова,Yes,Raw,,,,,,,,,,50,B
6,Antonina Ptitsyna,Amateur Open,1982,51.5,45,50,-55,50,,52,F,Антонина Птицына,Yes,Raw,,,,,,,,,,50,B
1,Irina Trefilova,Amateur Masters 50-54,1962,52,47.5,-50,50,50,,52,F,Ирина Трефилова,Yes,Raw,,,,,,,,,,50,B
1,Margarita Mishlova,Amateur Juniors 20-23,1994,55.4,67.5,70.5,72.5,72.5,74,56,F,Маргарита Мишлова,Yes,Raw,,,,,,,,,,72.5,B
2,Olesya Shishkina,Amateur Juniors 20-23,1994,55.8,65,70,-72.5,70,,56,F,Олеся Шишкина,Yes,Raw,,,,,,,,,,70,B
3,Tatyana Pantyukhova,Amateur Juniors 20-23,1992,54.6,-50,-50,50,50,,56,F,Татьяна Пантюхова,Yes,Raw,,,,,,,,,,50,B
1,Mariya Yultsova,Amateur Open,1982,56,65,70,-72.5,70,,56,F,Мария Юльцова,Yes,Raw,,,,,,,,,,70,B
2,Ekaterina Ilinskaya,Amateur Open,1988,54.8,67.5,-70,-70,67.5,,56,F,Екатерина Ильинская,Yes,Raw,,,,,,,,,,67.5,B
3,Natalya Levenkova,Amateur Open,1988,53.9,50,55,-57.5,55,,56,F,Наталья Левенкова,Yes,Raw,,,,,,,,,,55,B
4,Elena Burova,Amateur Open,1982,54.3,50,55,-57.5,55,,56,F,Елена Бурова,Yes,Raw,,,,,,,,,,55,B
5,Irina Ryazanova,Amateur Open,1982,54.7,42.5,45,-47.5,45,,56,F,Ирина Рязанова,Yes,Raw,,,,,,,,,,45,B
1,Lyudmila Dubinina,Amateur Masters 40-44,1971,54.2,52.5,55,-57.5,55,,56,F,Людмила Дубинина,Yes,Raw,,,,,,,,,,55,B
2,Olga Zakharycheva,Amateur Masters 40-44,1975,54.7,55,-57.5,-57.5,55,,56,F,Ольга Захарычева,Yes,Raw,,,,,,,,,,55,B
DQ,Polina Sidorina,Amateur Teen 18-19,1996,59.8,-27.5,-27.5,-30,,,60,F,Полина Сидорина,Yes,Raw,,,,,,,,,,,B
1,Darya Khokhlova,Amateur Juniors 20-23,1994,59.4,-45,45,-47.5,45,,60,F,Дарья Хохлова,Yes,Raw,,,,,,,,,,45,B
1,Raisa Sharueva,Amateur Open,1983,59.7,65,70,-72.5,70,,60,F,Раиса Шаруева,Yes,Raw,,,,,,,,,,70,B
2,Olga Krichmar,Amateur Open,1982,58.9,62.5,-65,65,65,,60,F,Ольга Кричмар,Yes,Raw,,,,,,,,,,65,B
3,Darya Gavrilova,Amateur Open,1987,59.5,55,57.5,60,60,,60,F,Дарья Гаврилова,Yes,Raw,,,,,,,,,,60,B
4,Anna Frolova,Amateur Open,1991,56.7,-55,-55,55,55,,60,F,Анна Фролова,Yes,Raw,,,,,,,,,,55,B
5,Olga Timokhina,Amateur Open,1984,59.1,52.5,55,-57.5,55,,60,F,Ольга Тимохина,Yes,Raw,,,,,,,,,,55,B
1,Natalya Chumanova,Amateur Masters 40-44,1972,58.6,40,-42.5,-42.5,40,,60,F,Наталья Чуманова,Yes,Raw,,,,,,,,,,40,B
1,Kseniya Schekina,Amateur Teen 18-19,1995,66.8,65,70,-75,70,,67.5,F,Ксения Щекина,Yes,Raw,,,,,,,,,,70,B
1,Svetlana Sotnikova,Amateur Open,1983,65.1,70,72.5,-75,72.5,,67.5,F,Светлана Сотникова,Yes,Raw,,,,,,,,,,72.5,B
1,Irina Moshnenko,Amateur Masters 45-49,1970,64.8,-45,45,47.5,47.5,,67.5,F,Ирина Мошненко,Yes,Raw,,,,,,,,,,47.5,B
1,Mariya Savkina,Amateur Open,1989,68,75,-77.5,-77.5,75,,75,F,Мария Савкина,Yes,Raw,,,,,,,,,,75,B
2,Varvara Pafnutyeva,Amateur Open,1980,73,65,70,-72.5,70,,75,F,Варвара Пафнутьева,Yes,Raw,,,,,,,,,,70,B
1,Irina Dorofeeva,Amateur Masters 50-54,1963,72.8,60,-62.5,-62.5,60,,75,F,Ирина Дорофеева,Yes,Raw,,,,,,,,,,60,B
1,Tatyana Sivkovich,Amateur Masters 45-49,1965,106.2,85,87.5,-90,87.5,,90+,F,Татьяна Сивкович,Yes,Raw,,,,,,,,,,87.5,B
1,Aleksey Monakhov,Amateur Juniors 20-23,1993,58.2,-92.5,92.5,97.5,97.5,,60,M,Алексей Монахов,Yes,Raw,,,,,,,,,,97.5,B
1,Vazgen Baloyan,Amateur Teen 13-15,2000,66.7,90,95,-100,95,,67.5,M,Вазген Балоян,Yes,Raw,,,,,,,,,,95,B
2,Yaroslav Arguchintsev,Amateur Teen 13-15,2002,65.9,47.5,52.5,55,55,,67.5,M,Ярослав Аргучинцев,Yes,Raw,,,,,,,,,,55,B
1,Aleksandr Zyukin,Amateur Teen 18-19,1996,66.4,125,130,-135,130,,67.5,M,Александр Зюкин,Yes,Raw,,,,,,,,,,130,B
2,Aleksandr Bubnov,Amateur Teen 18-19,1996,65.3,102.5,107.5,-110,107.5,,67.5,M,Александр Бубнов,Yes,Raw,,,,,,,,,,107.5,B
1,Dmitriy Polyakov,Amateur Juniors 20-23,1993,64.8,-95,107.5,-125,107.5,,67.5,M,Дмитрий Поляков,Yes,Raw,,,,,,,,,,107.5,B
1,Nikita Samokhvalov,Amateur Open,1988,65.1,130,137.5,142.5,142.5,,67.5,M,Никита Самохвалов,Yes,Raw,,,,,,,,,,142.5,B
2,Vladimir Alekseev,Amateur Open,1992,66.6,-107.5,107.5,125,125,,67.5,M,,Yes,Raw,,,,,,,,,,125,B
3,Pavel Khokhryakov,Amateur Open,1982,65.1,110,-115,115,115,,67.5,M,Павел Хохряков,Yes,Raw,,,,,,,,,,115,B
4,Magomedsalikh Usmanov,Amateur Open,1989,66.9,107.5,112.5,-115,112.5,,67.5,M,Магомедсалих Усманов,Yes,Raw,,,,,,,,,,112.5,B
DQ,Andrey Molchanov,Amateur Open,1989,63.9,-125,-125,-125,,,67.5,M,Андрей Молчанов,Yes,Raw,,,,,,,,,,,B
1,Vlad Baranov,Amateur Teen 13-15,2000,68.8,95,100,105,105,,75,M,Влад Баранов,Yes,Raw,,,,,,,,,,105,B
1,Artemiy Podobed,Amateur Teen 16-17,1998,71.1,-110,110,-117.5,110,,75,M,Артемий Подобед,Yes,Raw,,,,,,,,,,110,B
DQ,Nikita Mizonov,Amateur Teen 16-17,1999,71,-80,-80,-80,,,75,M,Никита Мизонов,Yes,Raw,,,,,,,,,,,B
1,Erik Egoyan,Amateur Teen 18-19,1996,72.6,-117.5,117.5,-125,117.5,,75,M,Эрик Егоян,Yes,Raw,,,,,,,,,,117.5,B
2,Dmitriy Kovalenko,Amateur Teen 18-19,1996,70.8,100,105,-107.5,105,,75,M,Дмитрий Коваленко,Yes,Raw,,,,,,,,,,105,B
1,Aleksey Zuzulya,Amateur Juniors 20-23,1991,74.9,130,135,-140,135,,75,M,Алексей Зузуля,Yes,Raw,,,,,,,,,,135,B
2,Vladislav Shurygin,Amateur Juniors 20-23,1993,73.7,117.5,120,-122.5,120,,75,M,Владислав Шурыгин,Yes,Raw,,,,,,,,,,120,B
3,Dmitriy Troshin,Amateur Juniors 20-23,1993,73.2,112.5,-117.5,117.5,117.5,,75,M,Дмитрий Трошин,Yes,Raw,,,,,,,,,,117.5,B
4,Sergey Zotov,Amateur Juniors 20-23,1993,73.6,-105,105,-117.5,105,,75,M,Сергей Зотов,Yes,Raw,,,,,,,,,,105,B
1,Artem Larionov,Amateur Open,1978,74.1,160,170,172.5,172.5,,75,M,Артем Ларионов,Yes,Raw,,,,,,,,,,172.5,B
2,Denis Titarev,Amateur Open,1980,73.3,135,140,145,145,,75,M,Денис Титарев,Yes,Raw,,,,,,,,,,145,B
3,Dmitriy Kapitulskiy,Amateur Open,1989,73.8,130,140,-145,140,,75,M,Дмитрий Капитульский,Yes,Raw,,,,,,,,,,140,B
4,Vadim Nazarov,Amateur Open,1988,74.2,127.5,-135,135,135,,75,M,Вадим Назаров,Yes,Raw,,,,,,,,,,135,B
5,Aleksey Minaev,Amateur Open,1976,74.7,125,135,-140,135,,75,M,Алексей Минаев,Yes,Raw,,,,,,,,,,135,B
6,Petr Klots,Amateur Open,1982,74.3,125,130,-135,130,,75,M,Петр Клоц,Yes,Raw,,,,,,,,,,130,B
7,Sergey Malgin,Amateur Open,1989,73.6,-125,125,-127.5,125,,75,M,Сергей Мальгин,Yes,Raw,,,,,,,,,,125,B
8,Dmitriy Titov,Amateur Open,1997,73.7,117.5,125,-130,125,,75,M,Дмитрий Титов,Yes,Raw,,,,,,,,,,125,B
9,Vadim Tutynin,Amateur Open,1983,74.1,110,117.5,125,125,,75,M,Вадим Тутынин,Yes,Raw,,,,,,,,,,125,B
10,Roman Lobov,Amateur Open,1988,70.2,120,-135,-135,120,,75,M,Роман Лобов,Yes,Raw,,,,,,,,,,120,B
11,Maksim Klementyev,Amateur Open,1990,73.6,95,100,105,105,,75,M,Максим Клементьев,Yes,Raw,,,,,,,,,,105,B
DQ,Viktor Burkovskiy,Amateur Open,1990,68.9,-117.5,-117.5,-117.5,,,75,M,Виктор Бурковский,Yes,Raw,,,,,,,,,,,B
DQ,Ivan Vasilyev,Amateur Open,1991,72.6,-117.5,-117.5,-117.5,,,75,M,Иван Васильев,Yes,Raw,,,,,,,,,,,B
DQ,Mikhail Tkalenko,Amateur Open,1986,73.9,-127.5,-127.5,-127.5,,,75,M,Михаил Ткаленко,Yes,Raw,,,,,,,,,,,B
DQ,Alexandr Morozov,Amateur Open,1987,73.9,-117.5,-117.5,-117.5,,,75,M,Александр Морозов,Yes,Raw,,,,,,,,,,,B
DQ,Aleksey Makarov,Amateur Open,1988,74.2,-125,,,,,75,M,Алексей Макаров,Yes,Raw,,,,,,,,,,,B
1,Daniil Buslakov,Amateur Teen 18-19,1997,81.3,120,-127.5,-127.5,120,,82.5,M,Даниил Буслаков,Yes,Raw,,,,,,,,,,120,B
1,Dmitriy Ukolov,Amateur Juniors 20-23,1992,82.5,130,135,-140,135,,82.5,M,Дмитрий Уколов,Yes,Raw,,,,,,,,,,135,B
2,Konstantin Kozak,Amateur Juniors 20-23,1993,80.1,125,132.5,-137.5,132.5,,82.5,M,Константин Козак,Yes,Raw,,,,,,,,,,132.5,B
1,Gennadiy Beglaryan,Amateur Open,1988,79.1,130,145,155,155,,82.5,M,Геннадий Бегларян,Yes,Raw,,,,,,,,,,155,B
2,Maksim Pyslar,Amateur Open,1991,80.8,140,145,152.5,152.5,,82.5,M,Максим Пысларь,Yes,Raw,,,,,,,,,,152.5,B
3,Vitaliy Petrenko,Amateur Open,1986,80.9,145,147.5,-150,147.5,,82.5,M,Виталий Петренко,Yes,Raw,,,,,,,,,,147.5,B
4,Albert Denisov,Amateur Open,1978,80.5,137.5,145,-150,145,,82.5,M,Альберт Денисов,Yes,Raw,,,,,,,,,,145,B
5,Nikita Shkurikhin,Amateur Open,1987,80.9,-145,145,-147.5,145,,82.5,M,Никита Шкурихин,Yes,Raw,,,,,,,,,,145,B
6,Kirill Kharlamov,Amateur Open,1993,81.4,127.5,135,142.5,142.5,,82.5,M,Кирилл Харламов,Yes,Raw,,,,,,,,,,142.5,B
7,Roman Dubinkin,Amateur Open,1987,80.4,-130,140,-150,140,,82.5,M,Роман Дубинкин,Yes,Raw,,,,,,,,,,140,B
8,Anzor Abataev,Amateur Open,1985,80.2,127.5,-135,135,135,,82.5,M,Анзор Абатаев,Yes,Raw,,,,,,,,,,135,B
9,Grigoriy Nizovets,Amateur Open,1989,80.4,135,-145,-155,135,,82.5,M,Григорий Низовец,Yes,Raw,,,,,,,,,,135,B
10,Dmitriy Popov,Amateur Open,1989,81.8,135,-145,-145,135,,82.5,M,Дмитрий Попов,Yes,Raw,,,,,,,,,,135,B
11,Aleksandr Bogachkin,Amateur Open,1986,81.2,115,127.5,132.5,132.5,,82.5,M,Александр Богачкин,Yes,Raw,,,,,,,,,,132.5,B
12,Dmitriy Chesnokov,Amateur Open,1988,80.6,-130,130,-140,130,,82.5,M,Дмитрий Чесноков,Yes,Raw,,,,,,,,,,130,B
13,Arvidas Satsevichyus,Amateur Open,1992,80.2,-125,125,127.5,127.5,,82.5,M,Арвидас Сацевичюс,Yes,Raw,,,,,,,,,,127.5,B
14,Anton Kim,Amateur Open,1987,80.3,120,127.5,-132.5,127.5,,82.5,M,Антон Ким,Yes,Raw,,,,,,,,,,127.5,B
15,Petr Kolesnikov,Amateur Open,1980,81.8,120,125,127.5,127.5,,82.5,M,Петр Колесников,Yes,Raw,,,,,,,,,,127.5,B
16,Vladislav Plachkovskiy,Amateur Open,1988,80.2,-115,115,120,120,,82.5,M,Владислав Плачковский,Yes,Raw,,,,,,,,,,120,B
17,Vyacheslav Buzin,Amateur Open,1990,82.5,115,120,-127.5,120,,82.5,M,Вячеслав Бузин,Yes,Raw,,,,,,,,,,120,B
18,Aleksandr Popov #15,Amateur Open,1979,80.3,92.5,102.5,-112.5,102.5,,82.5,M,Александр Попов,Yes,Raw,,,,,,,,,,102.5,B
DQ,Ilya Rozenkrants,Amateur Open,1984,80.9,-127.5,-127.5,-127.5,,,82.5,M,Илья Розенкранц,Yes,Raw,,,,,,,,,,,B
DQ,Artem Drozhachenko,Amateur Open,1986,81.8,-127.5,-127.5,-127.5,,,82.5,M,Артем Дрожаченко,Yes,Raw,,,,,,,,,,,B
DQ,Sergey Dzyuba,Amateur Open,1987,82.2,-135,-140,-140,,,82.5,M,Сергей Дзюба,Yes,Raw,,,,,,,,,,,B
1,Sergey Konarev,Amateur Masters 40-44,1973,81.3,145,155,157.5,157.5,,82.5,M,Сергей Конарев,Yes,Raw,,,,,,,,,,157.5,B
2,Shalva Dumbadze,Amateur Masters 40-44,1972,81.6,145,152.5,-157.5,152.5,,82.5,M,Шалва Думбадзе,Yes,Raw,,,,,,,,,,152.5,B
3,Sergey Taranin,Amateur Masters 40-44,1973,77.5,90,-92.5,92.5,92.5,,82.5,M,Сергей Таранин,Yes,Raw,,,,,,,,,,92.5,B
1,Sergey Zuykov,Amateur Masters 45-49,1970,77.9,140,145,155,155,,82.5,M,Сергей Зуйков,Yes,Raw,,,,,,,,,,155,B
1,David Matevosyan,Amateur Teen 18-19,1996,87.6,185,-192.5,-192.5,185,,90,M,Давид Матевосян,Yes,Raw,,,,,,,,,,185,B
2,Daniil Kevorkov,Amateur Teen 18-19,1995,89,135,-145,-145,135,,90,M,Даниил Кеворков,Yes,Raw,,,,,,,,,,135,B
1,Maksim Yudin,Amateur Juniors 20-23,1993,87,152.5,157.5,,157.5,,90,M,Максим Юдин,Yes,Raw,,,,,,,,,,157.5,B
2,Ivan Filatov,Amateur Juniors 20-23,1994,87.5,-132.5,140,-145,140,,90,M,Иван Филатов,Yes,Raw,,,,,,,,,,140,B
3,Artem Reznikov,Amateur Juniors 20-23,1993,88,-135,140,-152.5,140,,90,M,Артем Резников,Yes,Raw,,,,,,,,,,140,B
4,Marsel Minnakhmedov,Amateur Juniors 20-23,1991,88.6,140,-152.5,-152.5,140,,90,M,Марсель Миннахмедов,Yes,Raw,,,,,,,,,,140,B
5,Ilya Kovalchuk,Amateur Juniors 20-23,1992,86.8,-135,135,-145,135,,90,M,Илья Ковальчук,Yes,Raw,,,,,,,,,,135,B
6,Aleksandr Belkin,Amateur Juniors 20-23,1992,87.8,132.5,-140,-140,132.5,,90,M,Александр Белкин,Yes,Raw,,,,,,,,,,132.5,B
7,Artem Marchenko,Amateur Juniors 20-23,1991,88.6,132.5,-135,-135,132.5,,90,M,Артем Марченко,Yes,Raw,,,,,,,,,,132.5,B
8,Oleg Gabidulin,Amateur Juniors 20-23,1994,88.7,-127.5,132.5,-137.5,132.5,,90,M,Олег Габидулин,Yes,Raw,,,,,,,,,,132.5,B
9,Fedor Filatov,Amateur Juniors 20-23,1993,87.3,125,-132.5,-132.5,125,,90,M,Федор Филатов,Yes,Raw,,,,,,,,,,125,B
10,Igor Rogachev,Amateur Juniors 20-23,1994,88.8,-110,110,-120,110,,90,M,Игорь Рогачев,Yes,Raw,,,,,,,,,,110,B
11,Ilya Lisitskiy,Amateur Juniors 20-23,1993,89.9,-107.5,107.5,-115,107.5,,90,M,Илья Лисицкий,Yes,Raw,,,,,,,,,,107.5,B
DQ,Andrey Vasilevskiy,Amateur Juniors 20-23,1993,83.6,-110,-110,-132.5,,,90,M,Андрей Василевский,Yes,Raw,,,,,,,,,,,B
DQ,Georgiy Solod,Amateur Juniors 20-23,1994,87.3,-107.5,-107.5,-107.5,,,90,M,Георгий Солод,Yes,Raw,,,,,,,,,,,B
1,Timofey Yurtaev,Amateur Open,1988,86.5,-170,170,-172.5,170,,90,M,Тимофей Юртаев,Yes,Raw,,,,,,,,,,170,B
2,Anton Yakovlev,Amateur Open,1987,89.5,162.5,165,167.5,167.5,,90,M,Антон Яковлев,Yes,Raw,,,,,,,,,,167.5,B
3,Pavel Petrov,Amateur Open,1983,87.6,150,155,162.5,162.5,,90,M,Павел Петров,Yes,Raw,,,,,,,,,,162.5,B
4,Denis Dobryanskiy,Amateur Open,1977,86.1,152.5,-160,160,160,,90,M,Денис Добрянский,Yes,Raw,,,,,,,,,,160,B
5,Aleksey Pustovoytov,Amateur Open,1984,89.5,150,157.5,-162.5,157.5,,90,M,Алексей Пустовойтов,Yes,Raw,,,,,,,,,,157.5,B
6,Sergey Plistov,Amateur Open,1985,82.9,145,152.5,155,155,,90,M,Сергей Плистов,Yes,Raw,,,,,,,,,,155,B
7,Vladislav Girko,Amateur Open,1987,88.1,155,-160,-160,155,,90,M,Владислав Гирко,Yes,Raw,,,,,,,,,,155,B
8,Evgeniy Moiseev,Amateur Open,1989,87.6,135,145,152.5,152.5,,90,M,Евгений Моисеев,Yes,Raw,,,,,,,,,,152.5,B
9,Igor Konovalov,Amateur Open,1989,90,152.5,-160,-160,152.5,,90,M,Ігор Коновалов,Yes,Raw,,,,,,,,,,152.5,B
10,Aleksey Borisov,Amateur Open,1987,89.6,145,-152.5,-152.5,145,,90,M,Алексей Борисов,Yes,Raw,,,,,,,,,,145,B
11,Pavel Gubin,Amateur Open,1978,89,142.5,-147.5,-152.5,142.5,,90,M,Павел Губин,Yes,Raw,,,,,,,,,,142.5,B
12,Maksim Barkan,Amateur Open,1990,85.5,132.5,140,-145,140,,90,M,Максим Баркан,Yes,Raw,,,,,,,,,,140,B
13,Yuriy Panfilov,Amateur Open,1987,87.1,132.5,140,-150,140,,90,M,Юрий Панфилов,Yes,Raw,,,,,,,,,,140,B
14,Vladimir Ilyukhin,Amateur Open,1979,88.1,132.5,-140,140,140,,90,M,Владимир Илюхин,Yes,Raw,,,,,,,,,,140,B
15,Aleksandr Kasaurov,Amateur Open,1980,88.9,140,-145,-145,140,,90,M,Александр Касауров,Yes,Raw,,,,,,,,,,140,B
16,Aleksandr Obedientov,Amateur Open,1986,88.9,140,-152.5,-152.5,140,,90,M,Александр Обедиентов,Yes,Raw,,,,,,,,,,140,B
17,Dmitriy Kondratyev,Amateur Open,1986,88,132.5,-137.5,137.5,137.5,,90,M,Дмитрий Кондратьев,Yes,Raw,,,,,,,,,,137.5,B
18,Aleksey Chernyakov,Amateur Open,1978,90,135,-145,-145,135,,90,M,Алексей Черняков,Yes,Raw,,,,,,,,,,135,B
19,Nikolay Soldatenkov,Amateur Open,1983,83.6,122.5,132.5,-140,132.5,,90,M,Николай Солдатенков,Yes,Raw,,,,,,,,,,132.5,B
20,Artem Gaydukov,Amateur Open,1985,84.7,120,127.5,132.5,132.5,,90,M,Артем Гайдуков,Yes,Raw,,,,,,,,,,132.5,B
21,Mikhail Potkin,Amateur Open,1988,85.6,132.5,-142.5,-152.5,132.5,,90,M,Михаил Поткин,Yes,Raw,,,,,,,,,,132.5,B
22,Nikolay Bobrov,Amateur Open,1978,89.1,122.5,127.5,-132.5,127.5,,90,M,Николай Бобров,Yes,Raw,,,,,,,,,,127.5,B
23,Vladimir Kuzin,Amateur Open,1986,88.7,-120,120,125,125,,90,M,Владимир Кузин,Yes,Raw,,,,,,,,,,125,B
24,Dmitriy Todorchuk,Amateur Open,1989,87.3,120,-127.5,-127.5,120,,90,M,Дмитрий Тодорчук,Yes,Raw,,,,,,,,,,120,B
25,Aleksandr Dormidontov,Amateur Open,1989,87.9,-120,120,-132.5,120,,90,M,Александр Дормидонтов,Yes,Raw,,,,,,,,,,120,B
26,Dmitriy Prisyagin,Amateur Open,1979,86.4,105,112.5,117.5,117.5,,90,M,Дмитрий Присягин,Yes,Raw,,,,,,,,,,117.5,B
27,Vasiliy Markin,Amateur Open,1984,88.2,100,112.5,117.5,117.5,,90,M,Василий Маркин,Yes,Raw,,,,,,,,,,117.5,B
DQ,Vladimir Sevastyanov,Amateur Open,1986,86.1,-142.5,-150,-150,,,90,M,Владимир Севастьянов,Yes,Raw,,,,,,,,,,,B
DQ,Marat Zhamaletdinov,Amateur Open,1986,87.2,-125,-132.5,-132.5,,,90,M,Марат Жамалетдинов,Yes,Raw,,,,,,,,,,,B
DQ,Dmitriy Kamshilin,Amateur Open,1984,87.2,-145,-145,,,,90,M,Дмитрий Камшилин,Yes,Raw,,,,,,,,,,,B
DQ,Dmitriy Volobuev,Amateur Open,1989,87.4,-147.5,-147.5,-147.5,,,90,M,Дмитрий Волобуев,Yes,Raw,,,,,,,,,,,B
DQ,Kirill Andreev,Amateur Open,1984,89.9,-120,,,,,90,M,Кирилл Андреев,Yes,Raw,,,,,,,,,,,B
DQ,Aleksandr Gapchich,Amateur Open,1987,90,-142.5,,,,,90,M,Александр Гапчич,Yes,Raw,,,,,,,,,,,B
1,Dmitriy Tolstov,Amateur Masters 40-44,1973,88.1,125,-132.5,-132.5,125,,90,M,Дмитрий Толстов,Yes,Raw,,,,,,,,,,125,B
1,Aleksey Kondakov,Amateur Masters 45-49,1970,88.7,145,150,-155,150,,90,M,Алексей Кондаков,Yes,Raw,,,,,,,,,,150,B
2,Igor Polunin,Amateur Masters 45-49,1966,89.2,145,-152.5,-152.5,145,,90,M,Игорь Полунин,Yes,Raw,,,,,,,,,,145,B
3,Aleksandr Sapachev,Amateur Masters 45-49,1965,89.2,107.5,110,112.5,112.5,,90,M,Александр Сапачев,Yes,Raw,,,,,,,,,,112.5,B
1,Sergey Gnatyuk,Amateur Masters 50-54,1960,85,120,-125,125,125,,90,M,Сергей Гнатюк,Yes,Raw,,,,,,,,,,125,B
2,Mikhail Kozachuk,Amateur Masters 50-54,1963,88.9,90,-95,-95,90,,90,M,Михаил Козачук,Yes,Raw,,,,,,,,,,90,B
1,Andrey Salov,Amateur Masters 55-59,1959,87.9,145,-150,150,150,,90,M,Андрей Салов,Yes,Raw,,,,,,,,,,150,B
1,Vyacheslav Chevordaev,Amateur Masters 65-69,1948,88.1,92.5,-97.5,97.5,97.5,,90,M,Вячеслав Чевордаев,Yes,Raw,,,,,,,,,,97.5,B
1,Anton Gevorkyan,Amateur Juniors 20-23,1992,97.9,155,-160,-160,155,,100,M,Антон Геворкян,Yes,Raw,,,,,,,,,,155,B
2,Igor Pronin,Amateur Juniors 20-23,1991,96.5,140,147.5,150,150,,100,M,Игорь Пронин,Yes,Raw,,,,,,,,,,150,B
3,Aleksandr Makhatkov,Amateur Juniors 20-23,1993,96.6,135,140,-145,140,,100,M,Александр Махатков,Yes,Raw,,,,,,,,,,140,B
4,Yuriy Kozlovskiy,Amateur Juniors 20-23,1993,100,140,-145,-145,140,,100,M,Юрий Козловский,Yes,Raw,,,,,,,,,,140,B
1,Ilya Orlov,Amateur Open,1982,98.5,215,225,-227.5,225,,100,M,Илья Орлов,Yes,Raw,,,,,,,,,,225,B
2,Andrey Filippin,Amateur Open,1982,97.6,-162.5,-165,175,175,,100,M,Андрей Филиппин,Yes,Raw,,,,,,,,,,175,B
3,Rinat Ilyasov,Amateur Open,1979,94.5,160,165,-170,165,,100,M,Ринат Ильясов,Yes,Raw,,,,,,,,,,165,B
4,Igor Martoshenko,Amateur Open,1986,95.9,-145,155,162.5,162.5,,100,M,Игорь Мартошенко,Yes,Raw,,,,,,,,,,162.5,B
5,Ivan Olishevets,Amateur Open,1981,98,-150,162.5,-170,162.5,,100,M,Иван Олишевец,Yes,Raw,,,,,,,,,,162.5,B
6,Dmitriy Drozdov,Amateur Open,1983,94.4,150,155,160,160,,100,M,Дмитрий Дроздов,Yes,Raw,,,,,,,,,,160,B
7,Evgeniy Smirnov,Amateur Open,1983,95.6,150,-157.5,160,160,,100,M,Евгений Смирнов,Yes,Raw,,,,,,,,,,160,B
8,Yan Zhurkin,Amateur Open,1985,97.8,155,160,-162.5,160,,100,M,Ян Журкин,Yes,Raw,,,,,,,,,,160,B
9,Vladimir Sapega,Amateur Open,1982,98.3,140,150,-160,150,,100,M,Владимир Сапега,Yes,Raw,,,,,,,,,,150,B
10,Aleksandr Makarov,Amateur Open,1989,95.9,140,145,-150,145,,100,M,Александр Макаров,Yes,Raw,,,,,,,,,,145,B
11,Vladislav Polenok,Amateur Open,1987,92.5,125,140,-162.5,140,,100,M,Владислав Поленок,Yes,Raw,,,,,,,,,,140,B
12,Ivan Lakhanov,Amateur Open,1987,93.4,140,-145,,140,,100,M,Иван Лаханов,Yes,Raw,,,,,,,,,,140,B
13,Pavel Abramov,Amateur Open,1988,98.2,130,137.5,140,140,,100,M,Павел Абрамов,Yes,Raw,,,,,,,,,,140,B
14,Maksim Kozlov,Amateur Open,1988,95.6,97.5,112.5,-117.5,112.5,,100,M,Максим Козлов,Yes,Raw,,,,,,,,,,112.5,B
DQ,Mikhail Melkov,Amateur Open,1983,98.5,-140,-140,-140,,,100,M,Михаил Мелков,Yes,Raw,,,,,,,,,,,B
DQ,Evgeniy Pronin,Amateur Open,1982,99.5,-162.5,-162.5,-162.5,,,100,M,Евгений Пронин,Yes,Raw,,,,,,,,,,,B
1,Aleksey Lileev,Amateur Masters 40-44,1972,100,155,165,170,170,,100,M,Алексей Лилеев,Yes,Raw,,,,,,,,,,170,B
2,Maksim Kiselgof,Amateur Masters 40-44,1974,96.2,145,152.5,-157.5,152.5,,100,M,Максим Кисельгоф,Yes,Raw,,,,,,,,,,152.5,B
3,Andrey Yakovlev,Amateur Masters 40-44,1974,98.2,145,-155,-160,145,,100,M,Андрей Яковлев,Yes,Raw,,,,,,,,,,145,B
1,Yuriy Lyubach,Amateur Masters 45-49,1968,94.6,125,130,132.5,132.5,,100,M,Юрий Любач,Yes,Raw,,,,,,,,,,132.5,B
1,Aleksandr Bukharin,Amateur Teen 16-17,1999,100.5,160,-167.5,-167.5,160,,110,M,Александр Бухарин,Yes,Raw,,,,,,,,,,160,B
1,Aleksey Fedorenko,Amateur Teen 18-19,1996,108,120,127.5,132.5,132.5,,110,M,Алексей Федоренко,Yes,Raw,,,,,,,,,,132.5,B
DQ,Maksim Chistyakov,Amateur Juniors 20-23,1992,107.3,-165,-167.5,-167.5,,,110,M,Максим Чистяков,Yes,Raw,,,,,,,,,,,B
1,Pavel Milovanov,Amateur Open,1977,101.6,220,227.5,231,231,,110,M,Павел Милованов,Yes,Raw,,,,,,,,,,231,B
2,Vadim Pronin,Amateur Open,1979,107.8,180,190,195,195,,110,M,Вадим Пронин,Yes,Raw,,,,,,,,,,195,B
3,Vitaliy Parmut,Amateur Open,1987,103,180,-190,190,190,,110,M,Виталий Пармут,Yes,Raw,,,,,,,,,,190,B
4,Semen Borkin,Amateur Open,1981,105.8,175,185,190,190,,110,M,Семен Борькин,Yes,Raw,,,,,,,,,,190,B
5,Aleksey Gnevyshev,Amateur Open,1985,108.6,160,167.5,175,175,,110,M,Алексей Гневышев,Yes,Raw,,,,,,,,,,175,B
6,Efim Panyukov,Amateur Open,1985,110,167.5,-170,170,170,,110,M,Ефим Панюков,Yes,Raw,,,,,,,,,,170,B
7,Mikhail Stenin,Amateur Open,1982,108.1,160,-167.5,-167.5,160,,110,M,Михаил Стенин,Yes,Raw,,,,,,,,,,160,B
8,Roman Razumovskiy,Amateur Open,1988,102.2,-155,-155,155,155,,110,M,Роман Разумовский,Yes,Raw,,,,,,,,,,155,B
9,Andrey Prokofyev,Amateur Open,1981,107.2,150,-160,-160,150,,110,M,Андрей Прокофьев,Yes,Raw,,,,,,,,,,150,B
10,Roman Arsenov,Amateur Open,1988,106.7,140,147.5,-152.5,147.5,,110,M,Роман Арсенов,Yes,Raw,,,,,,,,,,147.5,B
DQ,Maksim Ivanov,Amateur Open,1976,104.4,-150,-150,-150,,,110,M,Максим Иванов,Yes,Raw,,,,,,,,,,,B
DQ,Vladimir Nikitin,Amateur Open,1987,106.4,-155,-155,-155,,,110,M,Владимир Никитин,Yes,Raw,,,,,,,,,,,B
DQ,Aleksey Gerasimov,Amateur Open,1980,107.9,-167.5,-167.5,-167.5,,,110,M,Алексей Герасимов,Yes,Raw,,,,,,,,,,,B
1,Mikhail Sergeev,Amateur Masters 40-44,1973,105.4,-160,167.5,170,170,,110,M,Михаил Сергеев,Yes,Raw,,,,,,,,,,170,B
2,Kirill Kharabadze,Amateur Masters 40-44,1972,107.9,160,167.5,170,170,,110,M,Кирилл Харабадзе,Yes,Raw,,,,,,,,,,170,B
3,Denis Favorskiy,Amateur Masters 40-44,1971,109.4,145,152.5,155,155,,110,M,Денис Фаворский,Yes,Raw,,,,,,,,,,155,B
4,Denis Plenkin,Amateur Masters 40-44,1974,109.1,150,-160,-160,150,,110,M,Денис Пленкин,Yes,Raw,,,,,,,,,,150,B
1,Dmitriy Kalinovskiy,Amateur Masters 45-49,1967,107,140,-142.5,-142.5,140,,110,M,Дмитрий Калиновский,Yes,Raw,,,,,,,,,,140,B
1,Maksim Mantorov,Amateur Open,1984,120.2,170,-177.5,-177.5,170,,125,M,Максим Манторов,Yes,Raw,,,,,,,,,,170,B
2,Vladimir Seleznev,Amateur Open,1977,121,-162.5,162.5,-167.5,162.5,,125,M,Владимир Селезнев,Yes,Raw,,,,,,,,,,162.5,B
3,Andrey Troshin,Amateur Open,1984,119.4,145,152.5,-157.5,152.5,,125,M,Андрей Трошин,Yes,Raw,,,,,,,,,,152.5,B
4,Ruslan Pakhomov,Amateur Open,1991,123.3,152.5,-165,-165,152.5,,125,M,Руслан Пахомов,Yes,Raw,,,,,,,,,,152.5,B
5,Dmitriy Ledenev,Amateur Open,1978,121.5,-130,130,137.5,137.5,,125,M,Дмитрий Леденев,Yes,Raw,,,,,,,,,,137.5,B
6,Vyacheslav Khodakovskiy,Amateur Open,1986,114.5,122.5,-130,130,130,,125,M,Вячеслав Ходаковский,Yes,Raw,,,,,,,,,,130,B
DQ,Andrey Chernyshev,Amateur Open,1981,115.5,-152.5,-152.5,-160,,,125,M,Андрей Чернышев,Yes,Raw,,,,,,,,,,,B
DQ,Sergey Svetov,Amateur Open,1990,120.1,-150,-160,-160,,,125,M,Сергей Светов,Yes,Raw,,,,,,,,,,,B
1,Arseniy Niazashvili,Amateur Masters 40-44,1970,122.7,157.5,-167.5,-167.5,157.5,,125,M,Арсений Ниазашвили,Yes,Raw,,,,,,,,,,157.5,B
1,Vladimir Chubarov,Amateur Masters 50-54,1964,118.2,155,160,-165,160,,125,M,Владимир Чубаров,Yes,Raw,,,,,,,,,,160,B
1,Daniil Kaymak,Amateur Juniors 20-23,1995,135.7,177.5,185,-190,185,,140,M,Даниил Каймак,Yes,Raw,,,,,,,,,,185,B
DQ,Sergey Kozlovskiy,Amateur Masters 50-54,1963,134,-185,-185,-185,,,140,M,Сергей Козловский,Yes,Raw,,,,,,,,,,,B
1,Roman Mishurenkov,Amateur Open,1982,143,200,210,215,215,221,140+,M,Роман Мишуренков,Yes,Raw,,,,,,,,,,215,B
1,Marina Belyak,Pro Masters 45-49,1967,54.9,30,-35,-37.5,30,,56,F,Марина Беляк,No,Raw,,,,,,,,,,30,B
1,Elena Lutsenko,Pro Masters 50-54,1963,57.2,75,77.5,-80,77.5,,60,F,Елена Луценко,No,Raw,,,,,,,,,,77.5,B
1,Anzhela Kulagina,Pro Open,1988,67.2,120,125,130,130,,67.5,F,Анжела Кулагина,No,Raw,,,,,,,,,,130,B
2,Nadezhda Vlasova,Pro Open,1982,65.3,100,110,-112.5,110,,67.5,F,Надежда Власова,No,Raw,,,,,,,,,,110,B
1,Tatyana Dalnikova,Pro Open,1982,75,65,70,-75,70,,75,F,Татьяна Дальникова,No,Raw,,,,,,,,,,70,B
1,Denis Shvedov,Pro Open,1990,62.1,70,77.5,82.5,82.5,,67.5,M,Денис Шведов,No,Raw,,,,,,,,,,82.5,B
1,Kirill Garkavyy,Pro Teen 13-15,2001,70.3,82.5,-85,85,85,,75,M,Кирилл Гарькавый,No,Raw,,,,,,,,,,85,B
1,Maksim Rudakov,Pro Open,1991,75,145,152.5,160,160,,75,M,Максим Рудаков,No,Raw,,,,,,,,,,160,B
2,Eduard Kazmin,Pro Open,1985,74.3,150,-155,-155,150,,75,M,Эдуард Казьмин,No,Raw,,,,,,,,,,150,B
3,Vladimir Kulakov,Pro Open,1955,74.5,62.5,67.5,,67.5,,75,M,Владимир Кулаков,No,Raw,,,,,,,,,,67.5,B
DQ,Nikolay Masnukha,Pro Open,1982,72.8,-145,-145,-145,,,75,M,Николай Маснуха,No,Raw,,,,,,,,,,,B
1,Vladimir Kulakov,Pro Masters 55-59,1955,74.5,62.5,67.5,,67.5,,75,M,Владимир Кулаков,No,Raw,,,,,,,,,,67.5,B
1,Nikolay Ionov,Pro Masters 65-69,1949,73.6,105,112.5,115,115,,75,M,Николай Ионов,No,Raw,,,,,,,,,,115,B
1,Aleksandr Kaplya,Pro Open,1978,82.5,160,170,177.5,177.5,,82.5,M,Александр Капля,No,Raw,,,,,,,,,,177.5,B
2,Aleksandr Rabinovich,Pro Open,1967,80.4,165,175,-182.5,175,,82.5,M,,No,Raw,,,,,,,,,,175,B
3,Khachatur Voskanyan,Pro Open,1989,77.9,147.5,170,-175,170,,82.5,M,Хачатур Восканян,No,Raw,,,,,,,,,,170,B
4,Maksim Kalenkin,Pro Open,1989,81.8,170,-180,-180,170,,82.5,M,Максим Каленкин,No,Raw,,,,,,,,,,170,B
5,Pavel Sleptsov,Pro Open,1991,80.8,-155,155,-170,155,,82.5,M,Павел Слепцов,No,Raw,,,,,,,,,,155,B
6,Aleksey Trofimov,Pro Open,1984,81.7,120,-132.5,-132.5,120,,82.5,M,Алексей Трофимов,No,Raw,,,,,,,,,,120,B
DQ,Aleksey Syuta,Pro Open,1979,79.3,-170,-170,-170,,,82.5,M,Алексей Сюта,No,Raw,,,,,,,,,,,B
1,Aleksandr Rabinovich,Pro Masters 45-49,1967,80.4,165,175,-182.5,175,,82.5,M,,No,Raw,,,,,,,,,,175,B
DQ,Vadim Kolodyazhnyy,Pro Masters 45-49,1969,81.5,-160,-160,-160,,,82.5,M,Вадим Колодяжный,No,Raw,,,,,,,,,,,B
1,Salavat Yakupov,Pro Masters 55-59,1959,82.5,-75,75,80,80,,82.5,M,Салават Якупов,No,Raw,,,,,,,,,,80,B
1,Sergey Goncharov,Pro Masters 60-64,1952,81.8,90,100,110,110,,82.5,M,Сергей Гончаров,No,Raw,,,,,,,,,,110,B
1,Amir Khusnutdinov,Pro Masters 65-69,1948,78.1,110,120,,120,,82.5,M,Амир Хуснутдинов,No,Raw,,,,,,,,,,120,B
1,Aleksandr Sidelnikov,Pro Teen 18-19,1997,87.7,115,-130,130,130,,90,M,Александр Сидельников,No,Raw,,,,,,,,,,130,B
1,Aleksey Nikolaenko,Pro Open,1989,89,185,192.5,195,195,,90,M,Алексей Николаенко,No,Raw,,,,,,,,,,195,B
2,Roman Egorov,Pro Open,1988,87.5,-160,165,-170,165,,90,M,Роман Егоров,No,Raw,,,,,,,,,,165,B
3,Viktor Knyazev,Pro Open,1990,89.9,160,-180,-180,160,,90,M,Виктор Князев,No,Raw,,,,,,,,,,160,B
4,Andrey Egorochkin,Pro Open,1976,84.5,-140,140,-145,140,,90,M,Андрей Егорочкин,No,Raw,,,,,,,,,,140,B
DQ,Roman Dagaev,Pro Open,1980,88,-157.5,-157.5,,,,90,M,Роман Дагаев,No,Raw,,,,,,,,,,,B
1,Andrey Latyshev,Pro Masters 40-44,1973,89.5,185,-190.5,-190.5,185,,90,M,Андрей Латышев,No,Raw,,,,,,,,,,185,B
2,Vyacheslav Nechpal,Pro Masters 40-44,1973,88.3,160,170,-180,170,,90,M,Вячеслав Нечпал,No,Raw,,,,,,,,,,170,B
1,Anton Chekulaev,Pro Teen 18-19,1997,92.8,130,-140,-140,130,,100,M,Антон Чекулаев,No,Raw,,,,,,,,,,130,B
DQ,Gevorg Gevorkyan,Pro Juniors 20-23,1993,94.8,-170,-200,,,,100,M,Геворг Геворкян,No,Raw,,,,,,,,,,,B
1,Roman Fedorenko,Pro Open,1988,98.8,185,197.5,202.5,202.5,,100,M,Роман Федоренко,No,Raw,,,,,,,,,,202.5,B
2,Valeriy Andreev,Pro Open,1987,98,190,200,,200,,100,M,Валерий Андреев,No,Raw,,,,,,,,,,200,B
3,Aleksey Melnikov,Pro Open,1987,93,192.5,-195,-195,192.5,,100,M,Алексей Мельников,No,Raw,,,,,,,,,,192.5,B
4,Kirill Filippov,Pro Open,1989,96.1,-165,165,190,190,,100,M,Кирилл Филиппов,No,Raw,,,,,,,,,,190,B
5,Ivan Lobov,Pro Open,1985,96.5,170,190,-200,190,,100,M,Иван Лобов,No,Raw,,,,,,,,,,190,B
6,Maksim Galichenkov,Pro Open,1988,97.2,190,-200,-205,190,,100,M,Максим Галиченков,No,Raw,,,,,,,,,,190,B
DQ,Andrey Berezko,Pro Open,1983,96.9,-165,-175,-175,,,100,M,Андрей Березко,No,Raw,,,,,,,,,,,B
1,Igor Zenin,Pro Masters 45-49,1969,95,150,155,157.5,157.5,,100,M,Игорь Зенин,No,Raw,,,,,,,,,,157.5,B
2,Aleksey Pichugin,Pro Masters 45-49,1969,95.5,135,147.5,150,150,,100,M,Алексей Пичугин,No,Raw,,,,,,,,,,150,B
1,Alexander Petrov,Pro Masters 55-59,1960,92.9,185,195,200,200,,100,M,Александр Петров,No,Raw,,,,,,,,,,200,B
1,Mikhail Kalmykov,Pro Teen 16-17,1998,106.9,150,160,172.5,172.5,,110,M,Михаил Калмыков,No,Raw,,,,,,,,,,172.5,B
1,Dmitriy Frank,Pro Juniors 20-23,1994,106.2,200,207.5,210,210,,110,M,Дмитрий Франк,No,Raw,,,,,,,,,,210,B
2,Kirill Saulenko,Pro Juniors 20-23,1992,104.3,190,-197.5,-197.5,190,,110,M,Кирилл Сауленко,No,Raw,,,,,,,,,,190,B
1,Evgeniy Single-plyirkin,Pro Open,1987,107.8,215,225,-230,225,,110,M,Евгений Спиркин,No,Raw,,,,,,,,,,225,B
2,Sergey Lalakin,Pro Open,1985,103.1,210,-217.5,-217.5,210,,110,M,Сергей Лалакин,No,Raw,,,,,,,,,,210,B
3,Vladimir Rybakov,Pro Open,1976,104.3,170,180,-185,180,,110,M,Владимир Рыбаков,No,Raw,,,,,,,,,,180,B
4,Aleksandr Savitskiy,Pro Open,1986,107.4,150,-160,,150,,110,M,Александр Савицкий,No,Raw,,,,,,,,,,150,B
1,Sergey Maksimov,Pro Masters 40-44,1975,102.1,165,172.5,180,180,,110,M,Сергей Максимов,No,Raw,,,,,,,,,,180,B
DQ,Dmitriy Samsonov,Pro Juniors 20-23,1993,121.4,-180,-190,-190,,,125,M,Дмитрий Самсонов,No,Raw,,,,,,,,,,,B
1,Maksim Lisyutin,Pro Open,1985,120.1,235,250,-260,250,,125,M,Максим Лисютин,No,Raw,,,,,,,,,,250,B
2,Aleksandr Kuznetsov #1,Pro Open,1979,116.9,215,225,232.5,232.5,,125,M,Александр Кузнецов,No,Raw,,,,,,,,,,232.5,B
3,Dmitriy Kostin,Pro Open,1985,120,227.5,232.5,-235,232.5,,125,M,Дмитрий Костин,No,Raw,,,,,,,,,,232.5,B
4,Dmitriy Zubarev,Pro Open,1987,116.5,207.5,210,-212.5,210,,125,M,Дмитрий Зубарев,No,Raw,,,,,,,,,,210,B
5,Sergey Zimin,Pro Open,1972,124.9,180,195,210,210,,125,M,Сергей Зимин,No,Raw,,,,,,,,,,210,B
1,Dmitriy Belov,Pro Masters 40-44,1972,124.8,195,205,-210,205,,125,M,Дмитрий Белов,No,Raw,,,,,,,,,,205,B
1,Sergey Rykov,Pro Masters 50-54,1965,112.8,-182.5,-182.5,182.5,182.5,,125,M,Сергей Рыков,No,Raw,,,,,,,,,,182.5,B
1,Viktor Tsygankov,Pro Open,1975,135.7,205,-215,215,215,,140,M,Виктор Цыганков,No,Raw,,,,,,,,,,215,B
1,Sergey Druzin,Pro Masters 40-44,1971,137.1,225,235,240,240,,140,M,Сергей Друзин,No,Raw,,,,,,,,,,240,B
1,Yuriy Mishta,Pro Masters 55-59,1958,130.6,165,-172.5,172.5,172.5,,140,M,Юрий Мишта,No,Raw,,,,,,,,,,172.5,B
1,Alena Sotnikova,Amateur Open,1989,57.4,80,90,-95,90,,60,F,Алена Сотникова,Yes,Multi-ply,,,,,,,,,,90,B
1,Yuri Solovyev,Amateur Open,1974,99.4,230,235,240,240,,100,M,Юрий Соловьев,Yes,Multi-ply,,,,,,,,,,240,B
2,Nikolai Arguchintsev,Amateur Open,1968,97.4,215,230,235,235,,100,M,Николай Аргучинцев,Yes,Multi-ply,,,,,,,,,,235,B
1,Yuri Solovyev,Amateur Masters 40-44,1974,99.4,230,235,240,240,,100,M,Юрий Соловьев,Yes,Multi-ply,,,,,,,,,,240,B
1,Nikolai Arguchintsev,Amateur Masters 45-49,1968,97.4,215,230,235,235,,100,M,Николай Аргучинцев,Yes,Multi-ply,,,,,,,,,,235,B
DQ,Maksim Kirilin,Amateur Open,1983,106.1,-170,-170,-170,,,110,M,Максим Кирилин,Yes,Multi-ply,,,,,,,,,,,B
1,Evgeniy Baranov,Amateur Open,1982,125.5,-265,265,-280,265,,140,M,Евгений Баранов,Yes,Multi-ply,,,,,,,,,,265,B
DQ,Elena Pugach,Amateur Masters 40-44,1975,47.3,-57.5,-57.5,-57.5,,,48,F,Елена Пугач,Yes,Single-ply,,,,,,,,,,,B
1,Nadezhda Komarova,Amateur Open,1980,54.1,70,-75,-75,70,,56,F,Надежда Комарова,Yes,Single-ply,,,,,,,,,,70,B
1,Tatyana Lazukova,Amateur Masters 50-54,1963,54.7,60,-67.5,-67.5,60,,56,F,Татьяна Лазукова,Yes,Single-ply,,,,,,,,,,60,B
1,Yuliya Kuznetsova,Amateur Open,1973,63.7,120,-125,125,125,130,67.5,F,Юлия Кузнецова,Yes,Single-ply,,,,,,,,,,125,B
2,Natalya Soroko,Amateur Open,1990,64,77.5,-85,-90,77.5,,67.5,F,Наталья Сороко,Yes,Single-ply,,,,,,,,,,77.5,B
1,Dmitriy Korneev,Amateur Open,1987,82.1,165,170,177.5,177.5,,82.5,M,Дмитрий Корнеев,Yes,Single-ply,,,,,,,,,,177.5,B
2,Sergey Ulmer,Amateur Open,1977,81.9,115,122.5,-127.5,122.5,,82.5,M,Сергей Ульмер,Yes,Single-ply,,,,,,,,,,122.5,B
1,Sergey Vorm,Amateur Open,1984,89.9,160,165,170,170,,90,M,Сергей Ворм,Yes,Single-ply,,,,,,,,,,170,B
2,Aleksey Selischev,Amateur Open,1978,87.6,115,122.5,-127.5,122.5,,90,M,Алексей Селищев,Yes,Single-ply,,,,,,,,,,122.5,B
DQ,Denis Dobryanskiy,Amateur Open,1977,86.1,-190,-190,-192.5,,,90,M,Денис Добрянский,Yes,Single-ply,,,,,,,,,,,B
1,Igor Sirotkin,Amateur Masters 45-49,1970,88.6,-185,190,-195,190,,90,M,Игорь Сироткин,Yes,Single-ply,,,,,,,,,,190,B
1,Aleksandr Makarov,Amateur Masters 55-59,1957,88.9,175,180,-185,180,,90,M,Александр Макаров,Yes,Single-ply,,,,,,,,,,180,B
1,Yuriy Lavrich,Amateur Teen 16-17,1998,98,150,160,170,170,,100,M,Юрий Лаврич,Yes,Single-ply,,,,,,,,,,170,B
1,Aleksandr Dorofeev,Amateur Open,1981,99.8,195,-210,210,210,,100,M,Александр Дорофеев,Yes,Single-ply,,,,,,,,,,210,B
2,Denis Karpov,Amateur Open,1981,98.9,-200,200,-210,200,,100,M,Денис Карпов,Yes,Single-ply,,,,,,,,,,200,B
3,Yuriy Golubkov,Amateur Open,1985,97.5,162.5,177.5,-187.5,177.5,,100,M,Юрий Голубков,Yes,Single-ply,,,,,,,,,,177.5,B
1,Konstantin Kryzhanovskiy,Amateur Open,1975,107.5,240,-247.5,-247.5,240,,110,M,Константин Крыжановский,Yes,Single-ply,,,,,,,,,,240,B
1,Konstantin Kryzhanovskiy,Amateur Masters 40-44,1975,107.5,240,-247.5,-247.5,240,,110,M,Константин Крыжановский,Yes,Single-ply,,,,,,,,,,240,B
1,Vladimir Popov,Amateur Masters 55-59,1956,123,175,182.5,187.5,187.5,,125,M,Владимир Попов,Yes,Single-ply,,,,,,,,,,187.5,B
1,Irina Smolentseva,Pro Open,1988,67.5,75,80,-85,80,,67.5,F,Ирина Смоленцева,No,Multi-ply,,,,,,,,,,80,B
1,Viktoriya Lavrischeva,Pro Open,1989,70.9,85,92.5,97.5,97.5,,75,F,Виктория Лаврищева,No,Multi-ply,,,,,,,,,,97.5,B
1,Alla Pugovkina,Pro Open,1975,81.5,-135,135,,135,,82.5,F,Алла Пуговкина,No,Multi-ply,,,,,,,,,,135,B
1,Igor Gorshenin,Pro Juniors 20-23,1995,79.6,-70,75,-85,75,,82.5,M,Игорь Горшенин,No,Multi-ply,,,,,,,,,,75,B
DQ,Valeriy Kovalev,Pro Open,1981,78.5,-145,-150,-150,,,82.5,M,Валерий Ковалев,No,Multi-ply,,,,,,,,,,,B
1,Alexander Petrov,Pro Open,1960,92.9,240,250,-260,250,,100,M,Александр Петров,No,Multi-ply,,,,,,,,,,250,B
1,Grigoriy Lysov,Pro Open,1976,105.5,225,-232.5,-232.5,225,,110,M,Григорий Лысов,No,Multi-ply,,,,,,,,,,225,B
1,Viktor Naydenov,Pro Open,1987,129.8,405,-420,,405,,140,M,Виктор Найденов,No,Multi-ply,,,,,,,,,,405,B
1,Alla Pugovkina,Pro Open,1975,81.5,135,142.5,,142.5,,82.5,F,Алла Пуговкина,No,Single-ply,,,,,,,,,,142.5,B
1,Vladimir Kulakov,Pro Open,1955,74.5,65,,,65,,75,M,Владимир Кулаков,No,Single-ply,,,,,,,,,,65,B
1,Vladimir Kulakov,Pro Masters 55-59,1955,74.5,65,,,65,,75,M,Владимир Кулаков,No,Single-ply,,,,,,,,,,65,B
1,Sergey Goncharov,Pro Masters 60-64,1952,81.8,100,110,-120,110,,82.5,M,Сергей Гончаров,No,Single-ply,,,,,,,,,,110,B
1,Denis Piklyaev,Pro Open,1981,90,225,235,240.5,240.5,,90,M,Денис Пикляев,No,Single-ply,,,,,,,,,,240.5,B
2,Ilya Uglichin,Pro Open,1987,89.2,-207.5,-207.5,210,210,,90,M,Илья Угличин,No,Single-ply,,,,,,,,,,210,B
3,Sergey Tesaruk,Pro Open,1984,89.6,-200,-200,200,200,,90,M,Сергей Тесарук,No,Single-ply,,,,,,,,,,200,B
1,Oleg Loktionov,Pro Open,1977,98.3,222.5,235,-242.5,235,,100,M,Олег Локтионов,No,Single-ply,,,,,,,,,,235,B
1,Aleksandr Zhiltsov,Pro Open,1985,107.9,202.5,-207.5,-210,202.5,,110,M,Александр Жильцов,No,Single-ply,,,,,,,,,,202.5,B
2,Viktor Polosukhin,Pro Open,1988,105,-185,195,-205,195,,110,M,Виктор Полосухин,No,Single-ply,,,,,,,,,,195,B
3,Mikhail Royanov,Pro Open,1977,103,170,180,190,190,,110,M,Михаил Роянов,No,Single-ply,,,,,,,,,,190,B
1,Vasiliy Filatov,Pro Open,1986,134.5,310,322.5,-335,322.5,,140,M,Василий Филатов,No,Single-ply,,,,,,,,,,322.5,B
1,Dmitriy Shabalin #1,Pro Open,1969,140.5,300,317.5,320,320,,140+,M,Дмитрий Шабалин,No,Single-ply,,,,,,,,,,320,B
1,Liliya Kinzhagulova,Amateur Open,1973,46.5,57.5,-62.5,-62.5,57.5,,48,F,Лилия Кинжагулова,Yes,Raw,90,-100,-100,90,-115,125,-132.5,125,,272.5,SBD
2,Mariya Penyaz,Amateur Open,1986,45,35,-37.5,-37.5,35,,48,F,Мария Пенязь,Yes,Raw,-65,65,-70,65,-95,95,100,100,,200,SBD
3,Ekaterina Tikhonova,Amateur Open,1987,46.9,25,-30,-30,25,,48,F,Екатерина Тихонова,Yes,Raw,30,-42.5,42.5,42.5,45,50,55,55,,122.5,SBD
DQ,Anna Morozova,Amateur Open,1984,47.7,27.5,30,-32.5,30,,48,F,Анна Морозова,Yes,Raw,62.5,67.5,-70,67.5,-62.5,-70,-70,,,,SBD
1,Liliya Kinzhagulova,Amateur Masters 40-44,1973,46.5,57.5,-62.5,-62.5,57.5,,48,F,Лилия Кинжагулова,Yes,Raw,90,-100,-100,90,-115,125,-132.5,125,,272.5,SBD
1,Regina Kozhina,Amateur Teen 18-19,1995,50,-52.5,52.5,-57.5,52.5,,52,F,Регина Кожина,Yes,Raw,77.5,85,-90,85,90,100,-105,100,,237.5,SBD
1,Anna Ratnikova,Amateur Open,1982,51.4,52.5,55,-57.5,55,,52,F,Анна Ратникова,Yes,Raw,85,87.5,90,90,110,115,120,120,,265,SBD
2,Olga Koltsova,Amateur Open,1983,50,55,60,62.5,62.5,,52,F,Ольга Кольцова,Yes,Raw,75,80,85,85,-100,-105,105,105,,252.5,SBD
3,Evgeniya Astafyeva,Amateur Open,1982,50,50,52.5,55,55,,52,F,Евгения Астафьева,Yes,Raw,80,-85,85,85,95,102.5,-105,102.5,,242.5,SBD
DQ,Anastasiya Gudenko,Amateur Open,1988,52,,,,,,52,F,Анастасия Гуденко,Yes,Raw,,,,,,,,,,,SBD
1,Lyudmila Sinchina,Amateur Open,1976,55,50,55,-57.5,55,,56,F,Людмила Синчина,Yes,Raw,90,92.5,97.5,97.5,117.5,125,,125,,277.5,SBD
2,Lidiya Soldatova,Amateur Open,1985,56,50,-52.5,-52.5,50,,56,F,Лидия Солдатова,Yes,Raw,-80,82.5,87.5,87.5,120,130,-142.5,130,,267.5,SBD
3,Irina Kolmogorova,Amateur Open,1979,54.3,50,52.5,55,55,,56,F,Ирина Колмогорова,Yes,Raw,85,90,92.5,92.5,105,112.5,115,115,,262.5,SBD
4,Anna Shutova,Amateur Open,1989,53.6,40,-45,-45,40,,56,F,Анна Шутова,Yes,Raw,65,70,75,75,-75,80,85,85,,200,SBD
5,Anna Smirnova,Amateur Open,1983,55.5,40,42.5,45,45,,56,F,Анна Смирнова,Yes,Raw,-70,70,75,75,-70,70,75,75,,195,SBD
DQ,Ekaterina Sokolova,Amateur Open,1984,53.6,-40,,,,,56,F,Екатерина Соколова,Yes,Raw,-75,-75,-75,,-85,,,,,,SBD
DQ,Elena Produbnova,Amateur Open,1983,55.4,-55,,,,,56,F,Елена Продубнова,Yes,Raw,-110,-110,-110,,-120,,,,,,SBD
DQ,Natalya Sidorkina,Amateur Open,1987,54.3,-47.5,,,,,56,F,Наталья Сидоркина,Yes,Raw,-77.5,-77.5,-77.5,,-102.5,,,,,,SBD
1,Irina Karpova,Amateur Open,1989,59.2,65,67.5,70,70,,60,F,Ирина Карпова,Yes,Raw,110,117.5,-122.5,117.5,125,135,140,140,,327.5,SBD
2,Yuliya Voinova,Amateur Open,1986,59.8,-57.5,-57.5,57.5,57.5,,60,F,Юлия Воинова,Yes,Raw,105,110,112.5,112.5,-127.5,127.5,132.5,132.5,,302.5,SBD
3,Vera Tumanova,Amateur Open,1981,59.4,57.5,60,62.5,62.5,,60,F,Вера Туманова,Yes,Raw,90,95,100,100,120,130,135,135,,297.5,SBD
4,Natalya Mironova,Amateur Open,1974,59,52.5,-57.5,57.5,57.5,,60,F,Наталья Миронова,Yes,Raw,-95,97.5,-102.5,97.5,120,-130,-130,120,,275,SBD
5,Darya Frolkina,Amateur Open,1987,59.1,50,-57.5,57.5,57.5,,60,F,Дарья Фролкина,Yes,Raw,80,87.5,92.5,92.5,100,110,115,115,,265,SBD
6,Ekaterina Chernykh,Amateur Open,1987,58.8,45,47.5,-50,47.5,,60,F,Екатерина Черных,Yes,Raw,90,-100,-100,90,-105,105,110,110,,247.5,SBD
1,Kseniya Donskaya,Amateur Teen 18-19,1996,64.3,47.5,-50,-50,47.5,,67.5,F,Ксения Донская,Yes,Raw,65,70,72.5,72.5,72.5,-77.5,-77.5,72.5,,192.5,SBD
1,Svetlana Tekhan,Amateur Juniors 20-23,1993,63.3,50,52.5,-55,52.5,,67.5,F,Светлана Техан,Yes,Raw,90,-97.5,-97.5,90,100,110,115,115,,257.5,SBD
1,Oksana Fomenko,Amateur Open,1988,67.5,65,67.5,70,70,,67.5,F,Оксана Фоменко,Yes,Raw,110,117.5,122.5,122.5,140,150,160,160,,352.5,SBD
2,Anastasiya Marchenko,Amateur Open,1988,64.7,57.5,60,-65,60,,67.5,F,Анастасія Марченко,Yes,Raw,-100,105,-110,105,125,-135,135,135,,300,SBD
3,Agata Serebrennikova,Amateur Open,1986,66.7,65,67.5,-70,67.5,,67.5,F,Агата Серебренникова,Yes,Raw,90,-100,-102.5,90,120,-130,-130,120,,277.5,SBD
4,Anna Morozova,Amateur Open,1984,65.7,50,55,-60,55,,67.5,F,Анна Морозова,Yes,Raw,-100,100,-105,100,105,-112.5,112.5,112.5,,267.5,SBD
5,Mariya Bondarenko,Amateur Open,1988,66.3,52.5,-55,-55,52.5,,67.5,F,Мария Бондаренко,Yes,Raw,85,92.5,-100,92.5,90,95,100,100,,245,SBD
6,Marianna Vydrevich,Amateur Open,1989,66.4,50,-55,-55,50,,67.5,F,Марианна Выдревич,Yes,Raw,65,72.5,77.5,77.5,80,87.5,-92.5,87.5,,215,SBD
1,Anastasiya Zamashnyuk,Amateur Teen 18-19,1996,73.5,45,50,52.5,52.5,,75,F,Анастасия Замашнюк,Yes,Raw,-90,90,-100,90,-100,110,117.5,117.5,,260,SBD
1,Elena Davydova,Amateur Open,1973,74.2,70,72.5,-75,72.5,,75,F,Елена Давыдова,Yes,Raw,110,115,-120,115,135,140,-145,140,,327.5,SBD
2,Anna Grigoryeva,Amateur Open,1981,73.5,50,-55,-55,50,,75,F,Анна Григорьева,Yes,Raw,90,-100,105,105,110,117.5,125,125,,280,SBD
DQ,Lyudmila Gil,Amateur Open,1976,68,-50,,,,,75,F,Людмила Гиль,Yes,Raw,-90,-100,-100,,-100,,,,,,SBD
1,Ekaterina Mamicheva,Amateur Open,1979,79.8,55,-65,-65,55,,82.5,F,Екатерина Мамичева,Yes,Raw,100,-110,-110,100,120,135,150,150,,305,SBD
1,Boris Belousov,Amateur Juniors 20-23,1992,63.5,100,110,112.5,112.5,,67.5,M,Борис Белоусов,Yes,Raw,-140,140,-157.5,140,150,165,167.5,167.5,,420,SBD
DQ,Pavel Ilin,Amateur Juniors 20-23,1992,66.2,-120,,,,,67.5,M,Павел Ильин,Yes,Raw,-170,,,,-170,,,,,,SBD
1,Shirur Ragimov,Amateur Open,1985,66.6,110,120,122.5,122.5,,67.5,M,,Yes,Raw,150,170,-180,170,190,200,210,210,,502.5,SBD
2,Mikhail Vorozhtsov,Amateur Open,1979,66.9,130,-135,-140,130,,67.5,M,Михаил Ворожцов,Yes,Raw,160,165,170,170,180,-195,-195,180,,480,SBD
3,Maksim Popov #1,Amateur Open,1984,65,95,-100,-100,95,,67.5,M,Максим Попов,Yes,Raw,95,142.5,150,150,185,195,-205,195,,440,SBD
4,Anton Tolubaev,Amateur Open,1991,66.3,82.5,87.5,90,90,,67.5,M,Антон Толубаев,Yes,Raw,82.5,127.5,135,135,180,190,-200,190,,415,SBD
5,Suren Mkrtumyan,Amateur Open,1989,65.3,82.5,92.5,97.5,97.5,,67.5,M,Сурен Мкртумян,Yes,Raw,112.5,-122.5,122.5,122.5,160,175,190,190,,410,SBD
6,Sergey Shakhnazaryan,Amateur Open,1987,65.3,-90,90,95,95,,67.5,M,Сергей Шахназарян,Yes,Raw,90,105,112.5,112.5,150,155,160,160,,367.5,SBD
7,Anton Salin,Amateur Open,1987,62,-80,80,-82.5,80,,67.5,M,Антон Салин,Yes,Raw,90,97.5,102.5,102.5,145,152.5,157.5,157.5,,340,SBD
1,Georgiy Kovalevskiy,Amateur Teen 16-17,1997,72.4,-120,120,127.5,127.5,,75,M,Георгий Ковалевский,Yes,Raw,180,192.5,-195,192.5,200,212.5,-220,212.5,,532.5,SBD
2,Saveliy Fadin,Amateur Teen 16-17,1998,71.9,-90,-100,100,100,,75,M,Савелий Фадин,Yes,Raw,145,-160,-160,145,150,165,-180,165,,410,SBD
1,Roman Khomenko,Amateur Teen 18-19,1996,74.1,105,112.5,117.5,117.5,,75,M,Роман Хоменко,Yes,Raw,-170,170,-180,170,220,235,-245,235,,522.5,SBD
2,Denis Dmitriev,Amateur Teen 18-19,1996,71.3,120,130,-135,130,,75,M,Денис Дмитриев,Yes,Raw,150,-160,160,160,160,170,180,180,,470,SBD
3,Vladislav Borovikov,Amateur Teen 18-19,1996,70.3,85,95,-102.5,95,,75,M,Владислав Боровиков,Yes,Raw,-135,140,150,150,160,170,180,180,,425,SBD
1,Aleksandr Vasilyev,Amateur Juniors 20-23,1992,72.4,120,125,-127.5,125,,75,M,Александр Васильев,Yes,Raw,190,-197.5,-197.5,190,200,220,232.5,232.5,,547.5,SBD
2,Aleksandr Smelyy,Amateur Juniors 20-23,1993,73.9,100,-107.5,107.5,107.5,,75,M,Александр Смелый,Yes,Raw,142.5,155,165,165,180,192.5,200,200,,472.5,SBD
3,Yuriy Kokarev,Amateur Juniors 20-23,1994,72.7,-120,120,-125,120,,75,M,Юрий Кокарев,Yes,Raw,142.5,152.5,157.5,157.5,192.5,-202.5,-202.5,192.5,,470,SBD
4,Aleksandr Volkov,Amateur Juniors 20-23,1995,74.6,80,90,95,95,,75,M,Александр Волков,Yes,Raw,120,135,140,140,120,140,-145,140,,375,SBD
1,Ivan Rodionov,Amateur Open,1991,74.9,115,122.5,-127.5,122.5,,75,M,Иван Родионов,Yes,Raw,115,162.5,170,170,150,165,175,175,,467.5,SBD
2,Ilya Razuvaev,Amateur Open,1982,73.7,100,110,-120,110,,75,M,Илья Разуваев,Yes,Raw,100,165,-180,165,150,165,-180,165,,440,SBD
3,Konstantin Apatenko,Amateur Open,1990,75,115,-125,125,125,,75,M,Константин Апатенко,Yes,Raw,140,150,152.5,152.5,160,-170,-170,160,,437.5,SBD
4,Denis Karpenya,Amateur Open,1982,72.8,100,-105,-105,100,,75,M,Денис Карпеня,Yes,Raw,100,140,-150,140,-170,180,185,185,,425,SBD
5,Mikhail Kostikov,Amateur Open,1975,73.7,95,-100,-100,95,,75,M,Михаил Костиков,Yes,Raw,95,140,-145,140,165,170,177.5,177.5,,412.5,SBD
DQ,Vitaliy Titarenko #2,Amateur Open,1990,71.2,-110,,,,,75,M,Виталий Титаренко,Yes,Raw,-120,-120,,,-160,,,,,,SBD
1,Daniil Nasyrov,Amateur Teen 16-17,1999,80.9,97.5,107.5,112.5,112.5,,82.5,M,Даниил Насыров,Yes,Raw,-120,135,145,145,142.5,155,170,170,,427.5,SBD
2,Maksim Mironov,Amateur Teen 16-17,1998,79.4,92.5,97.5,100,100,,82.5,M,Максим Миронов,Yes,Raw,-135,135,140,140,-130,140,150,150,,390,SBD
3,Ilya Trishkin,Amateur Teen 18-19,1996,81.2,100,110,-115,110,,82.5,M,Илья Тришкин,Yes,Raw,160,170,-175,170,-210,220,230,230,,510,SBD
DQ,Aleksandr Meshik,Amateur Teen 18-19,1996,81.8,-120,,,,,82.5,M,Александр Мешик,Yes,Raw,-160,-160,-160,,-200,,,,,,SBD
1,Vladimir Pechenkov,Amateur Juniors 20-23,1994,79.9,110,-120,120,120,,82.5,M,Владимир Печенков,Yes,Raw,155,165,-170,165,200,210,-215,210,,495,SBD
2,Andrey Bolshov,Amateur Juniors 20-23,1991,80.6,-125,-125,125,125,,82.5,M,Андрей Большов,Yes,Raw,-150,150,165,165,180,190,205,205,,495,SBD
DQ,Evgeniy Kovalenko,Amateur Juniors 20-23,1992,80.6,-160,,,,,82.5,M,Евгений Коваленко,Yes,Raw,-170,,,,-230,,,,,,SBD
1,Vasiliy Perov,Amateur Open,1979,82,145,155,160,160,,82.5,M,Василий Перов,Yes,Raw,205,220,230,230,250,265,-275,265,,655,SBD
2,Andrey Popov,Amateur Open,1990,82.4,-145,152.5,-157.5,152.5,,82.5,M,Андрей Попов,Yes,Raw,210,220,225,225,245,255,260,260,,637.5,SBD
3,Aleksey Vorotnikov,Amateur Open,1980,81.7,127.5,132.5,,132.5,,82.5,M,Алексей Воротников,Yes,Raw,-192.5,192.5,-200,192.5,215,222.5,-227.5,222.5,,547.5,SBD
4,Dmitriy Karpeev,Amateur Open,1984,80.4,130,135,-140,135,,82.5,M,Дмитрий Карпеев,Yes,Raw,185,-195,-195,185,205,215,220,220,,540,SBD
5,Andrey Zharov,Amateur Open,1983,82.3,125,130,135,135,,82.5,M,Андрей Жаров,Yes,Raw,160,170,175,175,195,205,215,215,,525,SBD
6,Ivan Fartuna,Amateur Open,1991,80.5,120,125,-130,125,,82.5,M,Иван Фартуна,Yes,Raw,170,180,187.5,187.5,200,210,-217.5,210,,522.5,SBD
7,Vasiliy Valov,Amateur Open,1988,80.7,-125,125,130,130,,82.5,M,Василий Валов,Yes,Raw,175,180,-185,180,-200,200,210,210,,520,SBD
8,Mikhail Emelin,Amateur Open,1984,81.2,125,-132.5,-132.5,125,,82.5,M,Михаил Емелин,Yes,Raw,-170,170,177.5,177.5,-190,200,207.5,207.5,,510,SBD
9,Vusal Aliev,Amateur Open,1985,80,110,120,-125,120,,82.5,M,Вусал Алиев,Yes,Raw,140,-150,150,150,170,190,-200,190,,460,SBD
10,Denis Shilkov,Amateur Open,1982,82,70,-75,-75,70,,82.5,M,Денис Шилков,Yes,Raw,110,117.5,125,125,130,145,150,150,,345,SBD
11,Maksim Dyba,Amateur Open,1989,77.4,82.5,85,-87.5,85,,82.5,M,Максим Дыба,Yes,Raw,105,-107.5,107.5,107.5,-147.5,147.5,150,150,,342.5,SBD
12,Timur Turdiev,Amateur Open,1990,78.8,70,-75,75,75,,82.5,M,Тимур Турдиев,Yes,Raw,100,110,120,120,100,110,120,120,,315,SBD
DQ,Aleksey Kozachek,Amateur Open,1988,81.6,130,-135,-135,130,,82.5,M,Алексей Козачек,Yes,Raw,-170,170,-175,170,-200,-210,-210,,,,SBD
DQ,Aleksey Kaytaz,Amateur Open,1983,78.3,-135,-140,,,,82.5,M,Алексей Кайтаз,Yes,Raw,-175,-175,-175,,-205,,,,,,SBD
1,Georgiy Chumanov,Amateur Masters 40-44,1974,76.4,90,100,-110,100,,82.5,M,Георгий Чуманов,Yes,Raw,120,-125,130,130,-150,150,167.5,167.5,,397.5,SBD
1,Egor Kalyakin,Amateur Teen 16-17,1999,83.4,127.5,135,-142.5,135,,90,M,Егор Калякин,Yes,Raw,190,-200,200,200,200,215,230,230,,565,SBD
DQ,Aleksandr Sabadysh,Amateur Teen 16-17,1997,88,80,90,-100,90,,90,M,Александр Сабадыш,Yes,Raw,120,130,-140,130,-160,-160,-160,,,,SBD
1,Aleksandr Bakin,Amateur Teen 18-19,1997,86.4,115,120,125,125,,90,M,Александр Бакин,Yes,Raw,-180,180,-190,180,180,190,-200,190,,495,SBD
1,Aleksey Svirin,Amateur Juniors 20-23,1994,88,125,132.5,137.5,137.5,,90,M,Алексей Свирин,Yes,Raw,170,177.5,-182.5,177.5,215,222.5,232.5,232.5,,547.5,SBD
1,Aleksey Kuznetsov,Amateur Open,1980,85.1,165,172.5,175,175,,90,M,Алексей Кузнецов,Yes,Raw,205,215,217.5,217.5,275,285,-292.5,285,,677.5,SBD
2,Mikhail Fedorets,Amateur Open,1989,89.1,140,147.5,152.5,152.5,,90,M,Михаил Федорец,Yes,Raw,195,205,210,210,235,245,-250,245,,607.5,SBD
3,Evgeniy Vladimirov,Amateur Open,1964,88.6,130,135,-137.5,135,,90,M,Евгений Владимиров,Yes,Raw,210,-215,215,215,215,220,-222.5,220,,570,SBD
4,Aleksandr Kozlov,Amateur Open,1982,88.7,147.5,155,160,160,,90,M,Александр Козлов,Yes,Raw,175,-185,185,185,185,195,-200,195,,540,SBD
5,Sergey Vorm,Amateur Open,1984,87.5,130,-135,-137.5,130,,90,M,Сергей Ворм,Yes,Raw,150,160,170,170,190,200,210,210,,510,SBD
6,Yuriy Bubentsov,Amateur Open,1988,86.7,107.5,115,-117.5,115,,90,M,Юрий Бубенцов,Yes,Raw,140,150,-157.5,150,190,-200,-200,190,,455,SBD
7,Nikolay Salenkov,Amateur Open,1989,88.5,110,115,-120,115,,90,M,Николай Саленков,Yes,Raw,150,-160,-160,150,180,190,-200,190,,455,SBD
8,Sergey Skvortsov,Amateur Open,1990,88.6,120,-130,-130,120,,90,M,Сергей Скворцов,Yes,Raw,-130,130,-150,130,175,190,200,200,,450,SBD
9,Aleksandr Bogdashkin,Amateur Open,1980,87.1,110,115,-120,115,,90,M,Александр Богдашкин,Yes,Raw,130,135,,135,170,180,185,185,,435,SBD
10,Igor Steshov,Amateur Open,1986,89.7,-90,90,95,95,,90,M,Игорь Стешов,Yes,Raw,140,-145,-145,140,140,150,160,160,,395,SBD
11,Ivan Korochkin,Amateur Open,1992,85.4,85,-95,-95,85,,90,M,Иван Корочкин,Yes,Raw,-110,110,120,120,-140,-155,155,155,,360,SBD
DQ,Sergey Zhilin,Amateur Open,1987,86.7,-110,,,,,90,M,Сергей Жилин,Yes,Raw,-75,,,,-135,,,,,,SBD
DQ,Dmitriy Demyanov,Amateur Open,1988,88,120,125,-132.5,125,,90,M,Дмитрий Демьянов,Yes,Raw,180,190,-195,190,-210,-220,-220,,,,SBD
DQ,Andrey Solovyev,Amateur Open,1978,88.4,-135,,,,,90,M,Андрей Соловьев,Yes,Raw,-170,-170,-170,,-200,,,,,,SBD
1,Evgeniy Vladimirov,Amateur Masters 50-54,1964,88.6,130,135,-137.5,135,,90,M,Евгений Владимиров,Yes,Raw,210,-215,215,215,215,220,-222.5,220,,570,SBD
DQ,Aleksey Tushin,Amateur Masters 50-54,1964,89.9,-120,,,,,90,M,Алексей Тушин,Yes,Raw,-150,-150,-150,,-160,,,,,,SBD
1,Kirill Kovalenko,Amateur Juniors 20-23,1992,98.1,160,170,180,180,,100,M,Кирилл Коваленко,Yes,Raw,220,230,245,245,235,250,260,260,,685,SBD
2,Pavel Fokin,Amateur Juniors 20-23,1992,96.3,130,142.5,-150,142.5,,100,M,Павел Фокин,Yes,Raw,210,220,-225,220,200,215,-225,215,,577.5,SBD
DQ,Nikita Kukushkin,Amateur Juniors 20-23,1992,92.2,-130,,,,,100,M,Никита Кукушкин,Yes,Raw,-180,-180,-180,,-200,,,,,,SBD
1,Anton Ilyasov,Amateur Open,1988,98.4,150,160,165,165,,100,M,Антон Илясов,Yes,Raw,240,250,260,260,335,350,360,360,,785,SBD
2,Nikolay Kotov,Amateur Open,1975,98.1,145,152.5,157.5,157.5,,100,M,Николай Котов,Yes,Raw,200,207.5,212.5,212.5,245,250,-255,250,,620,SBD
3,Ivan Mechishev,Amateur Open,1983,96.2,150,157.5,-162.5,157.5,,100,M,Иван Мечишев,Yes,Raw,210,-220,220,220,-230,230,237.5,237.5,,615,SBD
4,Yuriy Mitrofanov,Amateur Open,1985,97.1,145,152.5,-157.5,152.5,,100,M,Юрий Митрофанов,Yes,Raw,-190,200,210,210,235,245,250,250,,612.5,SBD
5,Sergey Pereskokov,Amateur Open,1987,97.8,145,152.5,-157.5,152.5,,100,M,Сергей Перескоков,Yes,Raw,205,-215,-215,205,210,220,-227.5,220,,577.5,SBD
6,Aleksey Trofimov,Amateur Open,1981,94.3,135,142.5,147.5,147.5,,100,M,Алексей Трофимов,Yes,Raw,160,172.5,-182.5,172.5,190,210,-220,210,,530,SBD
7,Pavel Podoba,Amateur Open,1980,97.7,100,105,110,110,,100,M,Павел Подоба,Yes,Raw,160,-170,170,170,165,175,185,185,,465,SBD
1,Aleksey Averyanov,Amateur Juniors 20-23,1993,106.3,135,145,-155,145,,110,M,Алексей Аверьянов,Yes,Raw,195,210,,210,200,,,200,,555,SBD
2,Aleksandr Lokotkov,Amateur Juniors 20-23,1995,105,125,135,140,140,,110,M,Александр Локотков,Yes,Raw,130,145,155,155,160,175,185,185,,480,SBD
1,Igor Sharapov,Amateur Open,1971,108.3,165,180,185,185,,110,M,Игорь Шарапов,Yes,Raw,230,245,-255,245,260,275,-280,275,,705,SBD
2,Boris Apanasevich,Amateur Open,1982,101.7,-180,180,187.5,187.5,,110,M,Борис Апанасевич,Yes,Raw,215,225,-235,225,-205,205,217.5,217.5,,630,SBD
3,Anton Gavrilenko,Amateur Open,1984,105.3,130,140,150,150,,110,M,Антон Гавриленко,Yes,Raw,210,220,-225,220,200,-210,220,220,,590,SBD
4,Dmitriy Osminin,Amateur Open,1988,107.5,135,140,145,145,,110,M,Дмитрий Осьминин,Yes,Raw,190,200,210,210,200,210,230,230,,585,SBD
5,Dmitriy Andreev,Amateur Open,1981,108.6,95,-100,-105,95,,110,M,Дмитрий Андреев,Yes,Raw,130,-137.5,145,145,135,155,170,170,,410,SBD
1,Igor Sharapov,Amateur Masters 40-44,1971,108.3,165,180,185,185,,110,M,Игорь Шарапов,Yes,Raw,230,245,-255,245,260,275,-280,275,,705,SBD
1,Igor Sereda,Amateur Masters 50-54,1964,102,135,140,142.5,142.5,,110,M,Игорь Середа,Yes,Raw,165,170,172.5,172.5,210,220,-230,220,,535,SBD
1,Nikolay Dergachev,Amateur Masters 55-59,1960,102,145,150,-155,150,,110,M,Николай Дергачев,Yes,Raw,-190,190,200,200,225,235,-240,235,,585,SBD
1,Konstantin Agureev,Amateur Open,1975,122.6,150,-160,-160,150,,125,M,Константин Агуреев,Yes,Raw,220,-230,240,240,250,262.5,-275,262.5,,652.5,SBD
2,Nikolay Markin,Amateur Open,1981,121.6,160,167.5,-172.5,167.5,,125,M,Николай Маркин,Yes,Raw,220,230,,230,227.5,242.5,-255,242.5,,640,SBD
3,Aleksey Serik,Amateur Open,1987,122,-130,130,-135,130,,125,M,Алексей Серик,Yes,Raw,230,240,-245,240,230,247.5,,247.5,,617.5,SBD
1,Sergey Sventitskiy,Amateur Juniors 20-23,1994,128.4,180,190,-200,190,,140,M,Сергей Свентицкий,Yes,Raw,210,220,230,230,250,270,,270,,690,SBD
1,Igor Alferov,Amateur Open,1976,133.5,150,-155,155,155,,140,M,Игорь Алферов,Yes,Raw,200,-210,-220,200,210,230,-240,230,,585,SBD
1,Mikhail Kondratenko,Amateur Open,1987,153.2,160,165,-170,165,,140+,M,Михаил Кондратенко,Yes,Raw,-260,260,,260,-275,275,285,285,,710,SBD
1,Oksana Lomova,Pro Open,1983,77.8,87.5,95,97.5,97.5,,82.5,F,Оксана Ломова,No,Raw,150,155,160,160,170,175,-180,175,,432.5,SBD
1,Ivan Eginov,Pro Teen 16-17,1999,65.7,95,100,-105,100,,67.5,M,Иван Егинов,No,Raw,130,-142.5,-142.5,130,170,180.5,-190,180.5,,410.5,SBD
DQ,Pavel Ilin,Pro Juniors 20-23,1992,66.2,120,125,127.5,127.5,,67.5,M,Павел Ильин,No,Raw,150,165,175,175,-170,-170,-175,,,,SBD
1,Evgeniy Kashentsev,Pro Juniors 20-23,1994,73.9,125,-130,130,130,,75,M,Евгений Кашенцев,No,Raw,150,160,165,165,160,172.5,182.5,182.5,,477.5,SBD
1,Pavel Zubkov,Pro Open,1985,74.4,120,130,135,135,,75,M,Павел Зубков,No,Raw,190,200,202.5,202.5,250,265,272.5,272.5,,610,SBD
2,Fedor Kabanov,Pro Open,1990,73.7,120,125,-130,125,,75,M,Федор Кабанов,No,Raw,-170,170,-180,170,210,-222.5,222.5,222.5,,517.5,SBD
1,Evgeniy Kovalenko,Pro Juniors 20-23,1992,80.6,160,-170,-175,160,,82.5,M,Евгений Коваленко,No,Raw,-180,180,195,195,200,220,235,235,,590,SBD
1,Aleksey Nikulin,Pro Open,1982,81.7,170,177.5,-182.5,177.5,,82.5,M,Алексей Никулин,No,Raw,302.5,-315,-315,302.5,-305,305,-310,305,,785,SBD
2,Maksim Luzin,Pro Open,1987,79.7,137.5,145,150,150,,82.5,M,Максим Лузин,No,Raw,182.5,197.5,-205,197.5,242.5,255,-267.5,255,,602.5,SBD
3,Aleksandr Kulish,Pro Open,1990,81.5,130,135,-140,135,,82.5,M,Александр Кулиш,No,Raw,187.5,195,-200,195,222.5,232.5,240,240,,570,SBD
4,Sergey Kozyev,Pro Open,1986,80.6,135,-140,140,140,,82.5,M,Сергей Козьев,No,Raw,185,195,-205,195,210,217.5,225,225,,560,SBD
5,Tochiddin Abdurokhmonov,Pro Open,1982,82.5,110,115,-120,115,,82.5,M,,No,Raw,120,130,135,135,170,180,-195,180,,430,SBD
1,Aleksey Molochkov,Pro Masters 50-54,1962,82.3,130,135,140,140,,82.5,M,Алексей Молочков,No,Raw,160,170,180,180,180,-190,-195,180,,500,SBD
1,Vladimir Kvasov,Pro Open,1991,89.8,-140,140,142.5,142.5,,90,M,Владимир Квасов,No,Raw,210,220,-225,220,220,230,-240,230,,592.5,SBD
2,Sergey Zelenin,Pro Open,1984,87.2,120,130,-140,130,,90,M,Сергей Зеленин,No,Raw,160,-175,-187.5,160,190,210,225,225,,515,SBD
1,Sergey Kandaurov,Pro Masters 40-44,1974,86.1,145,152.5,-157.5,152.5,,90,M,Сергей Кандауров,No,Raw,155,160,165,165,175,180,190,190,,507.5,SBD
1,Aleksey Sizov,Pro Open,1979,93.9,190,200,-210,200,,100,M,Алексей Сизов,No,Raw,240,260,-275,260,280,300,,300,,760,SBD
2,Evgeniy Solopov,Pro Open,1989,99.1,160,167.5,170,170,,100,M,Евгений Солопов,No,Raw,200,210,-225,210,245,255,265,265,,645,SBD
1,Yuriy Obruchkov,Pro Masters 40-44,1974,97.6,155,-165,-165,155,,100,M,Юрий Обручков,No,Raw,230,240,247.5,247.5,210,225,235,235,,637.5,SBD
2,Igor Chupryakov,Pro Masters 40-44,1975,94.8,180,-185,-185,180,,100,M,Игорь Чупряков,No,Raw,-200,200,215,215,-230,230,240,240,,635,SBD
3,Valeriy Churzin,Pro Masters 40-44,1973,97.5,160,165,-170,165,,100,M,Валерий Чурзин,No,Raw,160,170,-180,170,200,-220,-220,200,,535,SBD
1,Ruslan Magomadov,Pro Masters 50-54,1964,94.7,100,110,-112.5,110,,100,M,Руслан Магомадов,No,Raw,-160,160,170,170,170,180,185,185,,465,SBD
1,Aleksey Kaloshin,Pro Juniors 20-23,1991,108.9,170,180,190,190,,110,M,Алексей Калошин,No,Raw,-250,250,-270,250,290,300,-310,300,,740,SBD
1,Marat Savosin,Pro Open,1990,105,200,205,,205,,110,M,Марат Савосин,No,Raw,285,295,305,305,290,300,-305,300,,810,SBD
2,Aleksey Andreykin,Pro Open,1986,106.8,-170,-170,175,175,,110,M,Алексей Андрейкин,No,Raw,220,235,242.5,242.5,250,260,,260,,677.5,SBD
3,Denis Stolyarchuk,Pro Open,1985,103.5,160,170,-180,170,,110,M,Денис Столярчук,No,Raw,235,245,-250,245,225,235,245,245,,660,SBD
4,Aleksandr Drozdov,Pro Open,1980,103,150,-160,-160,150,,110,M,Александр Дроздов,No,Raw,200,210,220,220,220,-230,-230,220,,590,SBD
DQ,Roman Zavrazhin,Pro Open,1991,105.6,-180,,,,,110,M,Роман Завражин,No,Raw,-230,,,,-250,,,,,,SBD
1,Vladimir Aleksandrov,Pro Open,1977,119.5,180,190,195,195,,125,M,Владимир Александров,No,Raw,270,-285,290,290,-270,270,-290,270,,755,SBD
2,Anton Vildanov,Pro Open,1980,121.7,230,237.5,242.5,242.5,,125,M,Антон Вильданов,No,Raw,220,-232.5,232.5,232.5,240,267.5,275,275,,750,SBD
1,Aleksandr Pirogov #2,Pro Open,1984,136.4,225,245,252.5,252.5,,140,M,Александр Пирогов,No,Raw,-280,290,315,315,-300,300,320,320,,887.5,SBD
2,Dmitriy Istomin,Pro Open,1987,133.1,100,115,-130,115,,140,M,Дмитрий Истомин,No,Raw,-140,-140,140,140,170,190,,190,,445,SBD
1,Sergey Ulmer,Amateur Open,1977,81.9,-120,120,-125,120,,82.5,M,Сергей Ульмер,Yes,Multi-ply,150,-160,165,165,150,160,170,170,,455,SBD
1,Aleksey Selischev,Amateur Open,1978,88,120,-125,-125,120,,90,M,Алексей Селищев,Yes,Multi-ply,200,-210,210,210,185,195,205,205,,535,SBD
1,Daniil Kryukov,Amateur Juniors 20-23,1995,78.5,120,-130,-130,120,,82.5,M,Даниил Крюков,Yes,Single-ply,150,165,-170,165,195,205,215,215,,500,SBD
1,Sergey Pisarev,Amateur Open,1991,81.3,155,165,-172.5,165,,82.5,M,Сергей Писарев,Yes,Single-ply,-255,-255,255,255,245,260,-275,260,,680,SBD
2,Igor Filippov,Amateur Open,1984,79.8,140,150,-155,150,,82.5,M,Игорь Филиппов,Yes,Single-ply,-180,180,200,200,215,-240,-240,215,,565,SBD
1,Pavel Shtatnov,Amateur Open,1980,98.7,160,170,-180,170,,100,M,Павел Штатнов,Yes,Single-ply,240,250,260,260,270,280,-290,280,,710,SBD
2,Maksim Derezhovskiy,Amateur Open,1984,99,-170,170,185,185,,100,M,Максим Дережовский,Yes,Single-ply,220,235,250,250,240,255,-270,255,,690,SBD
1,Roman Yurasov,Amateur Open,1976,108.1,190,200,210,210,,110,M,Роман Юрасов,Yes,Single-ply,250,-270,-270,250,-220,220,-245,220,,680,SBD
1,Elena Prokopyshina,Pro Masters 50-54,1963,62,25,30,32.5,32.5,,67.5,F,Елена Прокопышина,No,Multi-ply,35,40,-45,40,55,65,72.5,72.5,,145,SBD
1,Aleksandr Nosov,Pro Open,1985,97.6,205,-212.5,212.5,212.5,,100,M,Александр Носов,No,Multi-ply,252.5,-267.5,277.5,277.5,252.5,267.5,282.5,282.5,,772.5,SBD
2,Sergey Mavrenkov,Pro Open,1966,99.2,235,-240,-240,235,,100,M,Сергей Мавренков,No,Multi-ply,255,-265,,255,240,-255,-255,240,,730,SBD
3,Pavel Silin,Pro Open,1986,91.8,100,115,122.5,122.5,,100,M,Павел Силин,No,Multi-ply,-190,190,215,215,190,205,-212.5,205,,542.5,SBD
1,Sergey Mavrenkov,Pro Masters 45-49,1966,99.2,235,-240,-240,235,,100,M,Сергей Мавренков,No,Multi-ply,255,-265,,255,240,-255,-255,240,,730,SBD
1,Viktoriya Lavrischeva,Pro Open,1989,68.2,90,95,-100,95,,75,F,Виктория Лаврищева,No,Single-ply,160,170,180,180,160,170,180,180,,455,SBD
1,Ivan Popov,Pro Juniors 20-23,1992,79.3,140,-155,155,155,,82.5,M,Иван Попов,No,Single-ply,225,242.5,-255,242.5,225,-252.5,,225,,622.5,SBD
1,Oleg Kislyanskikh,Pro Open,,80.9,120,130,140,140,,82.5,M,Олег Кислянских,No,Single-ply,-230,230,-240,230,180,195,-210,195,,565,SBD
1,Pavel Sudakov,Pro Open,1991,95.6,210,-220,220,220,,100,M,Павел Судаков,No,Single-ply,300,320,,320,290.5,-305,,290.5,,830.5,SBD
2,Dmitriy Obrazumov,Pro Open,1980,99.8,210,-220,220,220,,100,M,Дмитрий Образумов,No,Single-ply,250,260,270,270,250,265,275,275,,765,SBD
1,Andrey Drozhzhin,Pro Open,1977,108.4,210,220,230,230,,110,M,Андрей Дрожжин,No,Single-ply,330,350,370,370,290,-300,-300,290,,890,SBD
2,Aleksey Fedorov,Pro Open,1978,107.4,170,180,-190,180,,110,M,Алексей Федоров,No,Single-ply,240,260,275,275,200,210,215,215,,670,SBD
3,Anton Kiryushkin,Pro Open,1983,108.9,150,160,170,170,,110,M,Антон Кирюшкин,No,Single-ply,-230,235,252.5,252.5,215,225,240,240,,662.5,SBD
1,Irina Bryukhanova,Amateur Open,1984,47.2,,,,,,48,F,Ирина Брюханова,Yes,Raw,,,,,90,100,107.5,107.5,,107.5,D
2,Elizaveta Single-plyiridonova,Amateur Open,1987,48,,,,,,48,F,Елизавета Спиридонова,Yes,Raw,,,,,87.5,95,-107.5,95,,95,D
3,Darya Timkina,Amateur Open,1989,46,,,,,,48,F,Дарья Тимкина,Yes,Raw,,,,,80,-85,85,85,,85,D
1,Oksana Maksutova,Amateur Open,1973,51,,,,,,52,F,Оксана Максутова,Yes,Raw,,,,,117.5,122.5,-127.5,122.5,,122.5,D
2,Ekaterina Vladimirova,Amateur Open,1985,51.4,,,,,,52,F,Екатерина Владимирова,Yes,Raw,,,,,105,115,,115,,115,D
3,Ekaterina Yudina,Amateur Open,1997,50.6,,,,,,52,F,Екатерина Юдина,Yes,Raw,,,,,95,-100,100,100,,100,D
4,Irina Golovunina,Amateur Open,1981,50.9,,,,,,52,F,Ирина Головунина,Yes,Raw,,,,,100,-105,-105,100,,100,D
1,Nika Velial,Amateur Juniors 20-23,1992,54.8,,,,,,56,F,Ника Велиал,Yes,Raw,,,,,85,95,105,105,,105,D
1,Natalya Rebrova,Amateur Open,1976,56,,,,,,56,F,Наталья Реброва,Yes,Raw,,,,,125,132.5,-137.5,132.5,,132.5,D
2,Nadezhda Kazakova,Amateur Open,1985,54.1,,,,,,56,F,Надежда Казакова,Yes,Raw,,,,,100,105,110,110,,110,D
3,Olga Seliverstova,Amateur Open,1985,56,,,,,,56,F,Ольга Селиверстова,Yes,Raw,,,,,85,-92.5,92.5,92.5,,92.5,D
1,Olga Kostyrya,Amateur Teen 16-17,1998,58.4,,,,,,60,F,Ольга Костыря,Yes,Raw,,,,,100,-105,-110,100,,100,D
1,Tatyana Tikhonova,Amateur Teen 18-19,1997,57.6,,,,,,60,F,Татьяна Тихонова,Yes,Raw,,,,,90,100,-110,100,,100,D
1,Ekaterina Sukhoverkova,Amateur Open,1973,59.5,,,,,,60,F,Екатерина Суховеркова,Yes,Raw,,,,,160,170,175,175,,175,D
2,Svetlana Kuzavkova,Amateur Open,1980,60,,,,,,60,F,Светлана Кузавкова,Yes,Raw,,,,,127.5,135,140,140,,140,D
3,Adelaida Khayt,Amateur Open,1986,58.4,,,,,,60,F,Аделаида Хайт,Yes,Raw,,,,,-97.5,97.5,127.5,127.5,,127.5,D
4,Yuliya Porshneva,Amateur Open,1985,56.3,,,,,,60,F,Юлия Поршнева,Yes,Raw,,,,,100,105,110,110,,110,D
5,Ekaterina Podkhomutnikova,Amateur Open,1982,58.6,,,,,,60,F,Екатерина Подхомутникова,Yes,Raw,,,,,110,-120,-120,110,,110,D
6,Darya Gavrilova,Amateur Open,1987,59.3,,,,,,60,F,Дарья Гаврилова,Yes,Raw,,,,,100,105,110,110,,110,D
7,Galina Myakisheva,Amateur Open,1983,59.7,,,,,,60,F,Галина Мякишева,Yes,Raw,,,,,102.5,110,-112.5,110,,110,D
8,Anna Frolova,Amateur Open,1991,59.2,,,,,,60,F,Анна Фролова,Yes,Raw,,,,,80,-82.5,-82.5,80,,80,D
1,Angelina Karpova,Amateur Teen 18-19,1997,65.2,,,,,,67.5,F,Ангелина Карпова,Yes,Raw,,,,,130,135,142.5,142.5,,142.5,D
2,Alisa Gurevich,Amateur Teen 18-19,1997,62.8,,,,,,67.5,F,Алиса Гуревич,Yes,Raw,,,,,87.5,95,100,100,,100,D
1,Marina Kozhukhantseva,Amateur Juniors 20-23,1992,65.8,,,,,,67.5,F,Марина Кожуханцева,Yes,Raw,,,,,110,120,-125,120,,120,D
1,Oksana Fomenko,Amateur Open,1988,67.5,,,,,,67.5,F,Оксана Фоменко,Yes,Raw,,,,,145,157.5,-162.5,157.5,,157.5,D
2,Angelina Karpova,Amateur Open,1997,65.2,,,,,,67.5,F,Ангелина Карпова,Yes,Raw,,,,,130,135,142.5,142.5,,142.5,D
3,Issa Khayt,Amateur Open,1985,63.5,,,,,,67.5,F,Исса Хайт,Yes,Raw,,,,,95,102.5,117.5,117.5,,117.5,D
4,Olga Kamenschik,Amateur Open,1985,64.4,,,,,,67.5,F,Ольга Каменьщик,Yes,Raw,,,,,107.5,117.5,-120,117.5,,117.5,D
5,Tatyana Lobanova,Amateur Open,1993,65.1,,,,,,67.5,F,Татьяна Лобанова,Yes,Raw,,,,,95,102.5,110,110,,110,D
6,Olga Kotova,Amateur Open,1981,66.3,,,,,,67.5,F,Ольга Котова,Yes,Raw,,,,,102.5,-107.5,,102.5,,102.5,D
1,Yuliya Makarova,Amateur Masters 45-49,1969,63.9,,,,,,67.5,F,Юлия Макарова,Yes,Raw,,,,,125,135,142.5,142.5,,142.5,D
1,Elena Gavrilova,Amateur Juniors 20-23,1992,70.8,,,,,,75,F,Елена Гаврилова,Yes,Raw,,,,,-110,117.5,125,125,,125,D
1,Yuliya Panteleeva,Amateur Open,1981,73.4,,,,,,75,F,Юлия Пантелеева,Yes,Raw,,,,,100,112.5,117.5,117.5,,117.5,D
1,Vladislav Zhurba,Amateur Teen 18-19,1996,58.3,,,,,,60,M,Владислав Журба,Yes,Raw,,,,,120,-132.5,132.5,132.5,,132.5,D
DQ,Yuriy Evchenko,Amateur Open,1990,58.8,,,,,,60,M,Юрий Евченко,Yes,Raw,,,,,-140,-140,-140,,,,D
1,Oleg Regunov,Amateur Teen 16-17,1997,65.3,,,,,,67.5,M,Олег Регунов,Yes,Raw,,,,,130,145,150,150,,150,D
1,Aleksandr Shubin,Amateur Juniors 20-23,1994,65.1,,,,,,67.5,M,Александр Шубин,Yes,Raw,,,,,162.5,170,-172.5,170,,170,D
1,Anton Tolubaev,Amateur Open,1991,66.3,,,,,,67.5,M,Антон Толубаев,Yes,Raw,,,,,180,190,-195,190,,190,D
2,Anton Salin,Amateur Open,1987,61.8,,,,,,67.5,M,Антон Салин,Yes,Raw,,,,,145,155,-165,155,,155,D
1,Yuriy Zubov,Amateur Masters 75-79,1939,64.8,,,,,,67.5,M,Юрий Зубов,Yes,Raw,,,,,140,145,,145,,145,D
1,Vladimir Rysev,Amateur Teen 16-17,1998,69.8,,,,,,75,M,Владимир Рысев,Yes,Raw,,,,,160,170,-177.5,170,,170,D
1,Miroslav Bakhtinov,Amateur Teen 18-19,1997,75,,,,,,75,M,Мирослав Бахтинов,Yes,Raw,,,,,180,195,202.5,202.5,,202.5,D
1,Evgeniy Burlakov,Amateur Juniors 20-23,1995,70.8,,,,,,75,M,Евгений Бурлаков,Yes,Raw,,,,,165,177.5,182.5,182.5,,182.5,D
1,Pavel Kochnikov,Amateur Open,1988,70.8,,,,,,75,M,Павел Кочников,Yes,Raw,,,,,-185,190,202.5,202.5,,202.5,D
2,Stanislav Skorina,Amateur Open,1989,74.2,,,,,,75,M,Станислав Скорина,Yes,Raw,,,,,180,190,200,200,,200,D
3,Mikhail Myzenkov,Amateur Open,1985,70.4,,,,,,75,M,Михаил Мызенков,Yes,Raw,,,,,177.5,180,-185,180,,180,D
4,Maksim Klementyev,Amateur Open,1990,73,,,,,,75,M,Максим Клементьев,Yes,Raw,,,,,-155,155,177.5,177.5,,177.5,D
5,Andrey Denisov,Amateur Open,1980,72.1,,,,,,75,M,Андрей Денисов,Yes,Raw,,,,,-165,-170,170,170,,170,D
6,Ilya Prikhodko,Amateur Open,1990,73.6,,,,,,75,M,Илья Приходько,Yes,Raw,,,,,-150,-150,155,155,,155,D
DQ,Oleg Tukhvatshin,Amateur Open,1982,73.6,,,,,,75,M,Олег Тухватшин,Yes,Raw,,,,,-160,-160,-160,,,,D
1,Grigoriy Zhdanov,Amateur Teen 13-15,2000,80.4,,,,,,82.5,M,Григорий Жданов,Yes,Raw,,,,,130,140,-150,140,,140,D
1,Evgeniy Pedurets,Amateur Teen 16-17,1999,79.4,,,,,,82.5,M,Евгений Пэдурец,Yes,Raw,,,,,170,185,-200,185,,185,D
1,Denis Sorokin,Amateur Juniors 20-23,1995,82.5,,,,,,82.5,M,Денис Сорокин,Yes,Raw,,,,,200,-205,-215,200,,200,D
2,Konstantin Kozak,Amateur Juniors 20-23,1993,81,,,,,,82.5,M,Константин Козак,Yes,Raw,,,,,-185,185,190,190,,190,D
3,Stanislav Kartavyy,Amateur Juniors 20-23,1992,81.9,,,,,,82.5,M,Станислав Картавый,Yes,Raw,,,,,-185,-190,190,190,,190,D
1,Vasiliy Perov,Amateur Open,1979,82.2,,,,,,82.5,M,Василий Перов,Yes,Raw,,,,,250,260,-265,260,,260,D
2,Vadim Malov,Amateur Open,1990,81,,,,,,82.5,M,Вадим Малов,Yes,Raw,,,,,220,-235,240,240,,240,D
3,Aleksey Aleksandrov,Amateur Open,1985,81,,,,,,82.5,M,Алексей Александров,Yes,Raw,,,,,210,220,-230,220,,220,D
4,Mikhail Terekhin,Amateur Open,1990,79.9,,,,,,82.5,M,Михаил Терехин,Yes,Raw,,,,,185,195,200,200,,200,D
5,Dzhafar Nurmatov,Amateur Open,1987,80.7,,,,,,82.5,M,Джафар Нурматов,Yes,Raw,,,,,200,-215,-215,200,,200,D
6,Pavel Romantsov,Amateur Open,1986,80.5,,,,,,82.5,M,Павел Романцов,Yes,Raw,,,,,180,185,190,190,,190,D
7,Vusal Aliev,Amateur Open,1985,80.8,,,,,,82.5,M,Вусал Алиев,Yes,Raw,,,,,170,185,-200,185,,185,D
8,Andrey Aluev,Amateur Open,1981,81.1,,,,,,82.5,M,Андрей Алуев,Yes,Raw,,,,,127.5,140,150,150,,150,D
1,Mikhail Butorin,Amateur Masters 40-44,1971,80.2,,,,,,82.5,M,Михаил Буторин,Yes,Raw,,,,,175,-205,-205,175,,175,D
1,Yuriy Skripko,Amateur Masters 45-49,1968,81.5,,,,,,82.5,M,Юрий Скрипко,Yes,Raw,,,,,185,-215,-215,185,,185,D
1,Viktor Skokin,Amateur Masters 55-59,1957,80.5,,,,,,82.5,M,Виктор Скокин,Yes,Raw,,,,,215,235,,235,,235,D
1,Ivan Vostrikov,Amateur Juniors 20-23,1995,88.2,,,,,,90,M,,Yes,Raw,,,,,205,210,225,225,,225,D
2,Ali Shtanchaev,Amateur Juniors 20-23,1995,87.7,,,,,,90,M,Али Штанчаев,Yes,Raw,,,,,205,215,222.5,222.5,,222.5,D
3,Andrey Kozlov,Amateur Juniors 20-23,1992,89.3,,,,,,90,M,Андрей Козлов,Yes,Raw,,,,,185,200,210,210,,210,D
4,Valentin Trofimov,Amateur Juniors 20-23,1993,87.5,,,,,,90,M,Валентин Трофимов,Yes,Raw,,,,,180,195,200,200,,200,D
5,Ilya Lisitskiy,Amateur Juniors 20-23,1993,89.4,,,,,,90,M,Илья Лисицкий,Yes,Raw,,,,,170,195,-200,195,,195,D
6,Maksim Nartov,Amateur Juniors 20-23,1994,89.4,,,,,,90,M,Максим Нартов,Yes,Raw,,,,,185,-195,,185,,185,D
1,Kirill Lomanov,Amateur Open,1987,89.2,,,,,,90,M,Кирилл Ломанов,Yes,Raw,,,,,290,-305,-305,290,,290,D
2,Vitaliy Zheludev,Amateur Open,1986,87.1,,,,,,90,M,Виталий Желудев,Yes,Raw,,,,,260,-270,-270,260,,260,D
3,Evgeniy Moiseev,Amateur Open,1989,87.6,,,,,,90,M,Евгений Моисеев,Yes,Raw,,,,,215,225,230,230,,230,D
4,Sergey Kravchenko,Amateur Open,1978,87.5,,,,,,90,M,Сергей Кравченко,Yes,Raw,,,,,200,215,225,225,,225,D
5,Igor Chernyy,Amateur Open,1984,89.6,,,,,,90,M,Игорь Черный,Yes,Raw,,,,,195,205,222.5,222.5,,222.5,D
6,Aleksey Borisov,Amateur Open,1987,89.6,,,,,,90,M,Алексей Борисов,Yes,Raw,,,,,210,222.5,-230,222.5,,222.5,D
8,Viktor Tkachev,Amateur Open,1987,87.9,,,,,,90,M,Виктор Ткачев,Yes,Raw,,,,,195,200,205,205,,205,D
9,Aleksey Buzin,Amateur Open,1987,85.9,,,,,,90,M,Алексей Бузин,Yes,Raw,,,,,-195,-195,195,195,,195,D
1,Sergey Gnatyuk,Amateur Masters 50-54,1960,86.4,,,,,,90,M,Сергей Гнатюк,Yes,Raw,,,,,150,160,170,170,,170,D
1,Petr Zborovskiy,Amateur Juniors 20-23,1994,99,,,,,,100,M,Петр Зборовский,Yes,Raw,,,,,215,225,232.5,232.5,,232.5,D
2,Daniil Litov,Amateur Juniors 20-23,1993,96.1,,,,,,100,M,Даниил Литов,Yes,Raw,,,,,190,202.5,205,205,,205,D
1,Mikhail Krylov,Amateur Open,1987,98.3,,,,,,100,M,Михаил Крылов,Yes,Raw,,,,,200,210,-232.5,210,,210,D
2,Kirill Maksimov,Amateur Open,1989,94.1,,,,,,100,M,Кирилл Максимов,Yes,Raw,,,,,-207.5,-207.5,207.5,207.5,,207.5,D
3,Ivan Lakhanov,Amateur Open,1987,93.4,,,,,,100,M,Иван Лаханов,Yes,Raw,,,,,-202.5,-202.5,202.5,202.5,,202.5,D
4,Andrey Naumov,Amateur Open,1981,97.9,,,,,,100,M,Андрей Наумов,Yes,Raw,,,,,195,202.5,-210,202.5,,202.5,D
5,Anton Morin,Amateur Open,1988,98.1,,,,,,100,M,Антон Морин,Yes,Raw,,,,,180,202.5,-207.5,202.5,,202.5,D
1,Pavel Bychkov,Amateur Masters 40-44,1975,98.4,,,,,,100,M,Павел Бычков,Yes,Raw,,,,,250,-255,-255,250,,250,D
2,Dmitriy Kurinov,Amateur Masters 40-44,1974,95.1,,,,,,100,M,Дмитрий Куринов,Yes,Raw,,,,,220,235,-240,235,,235,D
3,Aleksey Grigoryev,Amateur Masters 40-44,1975,96.7,,,,,,100,M,Алексей Григорьев,Yes,Raw,,,,,215,-232.5,232.5,232.5,,232.5,D
1,Nikolay Single-plyirin,Amateur Teen 18-19,1997,107.5,,,,,,110,M,Николай Спирин,Yes,Raw,,,,,175,207.5,-215,207.5,,207.5,D
1,Maksim Chistyakov,Amateur Juniors 20-23,1992,105.9,,,,,,110,M,Максим Чистяков,Yes,Raw,,,,,-220,220,-240,220,,220,D
1,Ruslan Kulebyakin,Amateur Open,1991,101.4,,,,,,110,M,Руслан Кулебякин,Yes,Raw,,,,,240,250,255,255,,255,D
2,Dmitriy Ilyukhin,Amateur Open,1982,103.7,,,,,,110,M,Дмитрий Илюхин,Yes,Raw,,,,,207.5,215,220,220,,220,D
1,Denis Plenkin,Amateur Masters 40-44,1974,109.1,,,,,,110,M,Денис Пленкин,Yes,Raw,,,,,210,240,242.5,242.5,,242.5,D
2,Aleksandr Smirnov,Amateur Masters 40-44,1974,104.4,,,,,,110,M,Александр Смирнов,Yes,Raw,,,,,185,205,-217.5,205,,205,D
1,Valentin Matanov,Amateur Teen 16-17,1998,116.4,,,,,,125,M,Валентин Матанов,Yes,Raw,,,,,-205,205,215,215,220.5,215,D
1,Evgeniy Efanov,Amateur Open,1978,121.4,,,,,,125,M,Евгений Ефанов,Yes,Raw,,,,,225,247.5,-250,247.5,,247.5,D
2,Anton Balandin,Amateur Open,1989,118.4,,,,,,125,M,Антон Баландин,Yes,Raw,,,,,200,215,225,225,,225,D
1,Galina Bocharova,Pro Juniors 20-23,1992,58.6,,,,,,60,F,Галина Бочарова,No,Raw,,,,,120,127.5,135,135,,135,D
1,Elena Terekhova,Pro Open,1987,72.3,,,,,,75,F,Елена Терехова,No,Raw,,,,,125,135,145,145,,145,D
2,Tatyana Dalnikova,Pro Open,1982,75,,,,,,75,F,Татьяна Дальникова,No,Raw,,,,,125,135,-145,135,,135,D
1,Ekaterina Shaeva,Pro Open,1985,86.4,,,,,,90,F,Екатерина Шаева,No,Raw,,,,,120,132.5,140,140,142.5,140,D
1,Aleksey Zernov,Pro Open,1981,65.2,,,,,,67.5,M,Алексей Зернов,No,Raw,,,,,110,-120,125,125,,125,D
1,Gleb Morozov,Pro Teen 18-19,1997,71.6,,,,,,75,M,Глеб Морозов,No,Raw,,,,,180,190,200,200,-205,200,D
1,Aleksandr Romashin,Pro Juniors 20-23,1993,73.5,,,,,,75,M,Александр Ромашин,No,Raw,,,,,220,-242.5,-242.5,220,,220,D
1,Vladimir Ermokhin,Pro Open,1961,73.6,,,,,,75,M,Владимир Ермохин,No,Raw,,,,,190,-195,-195,190,,190,D
2,Vladimir Kulakov,Pro Open,1955,74.5,,,,,,75,M,Владимир Кулаков,No,Raw,,,,,85,,,85,,85,D
DQ,Maksim Klementyev,Pro Open,1990,73,,,,,,75,M,Максим Клементьев,No,Raw,,,,,-155,,,,,,D
1,Vladimir Ermokhin,Pro Masters 50-54,1961,73.6,,,,,,75,M,Владимир Ермохин,No,Raw,,,,,190,-195,-195,190,,190,D
1,Vladimir Kulakov,Pro Masters 55-59,1955,74.5,,,,,,75,M,Владимир Кулаков,No,Raw,,,,,85,,,85,,85,D
1,Egor Korenkov,Pro Teen 18-19,1997,82.1,,,,,,82.5,M,Егор Кореньков,No,Raw,,,,,170,195,210,210,,210,D
1,Ivan Nilov,Pro Open,1988,82.2,,,,,,82.5,M,Иван Нилов,No,Raw,,,,,210,227.5,235,235,,235,D
1,Aleksandr Sokolov,Pro Teen 18-19,1996,87.3,,,,,,90,M,Александр Соколов,No,Raw,,,,,200,215,-230,215,,215,D
1,Kirill Kotov,Pro Juniors 20-23,1994,88,,,,,,90,M,Кирилл Котов,No,Raw,,,,,252.5,-265,-265,252.5,,252.5,D
1,Radiy Single-plyitsin,Pro Open,1981,89.8,,,,,,90,M,Радій Спицин,No,Raw,,,,,-270,280,-295,280,,280,D
2,Kirill Kotov,Pro Open,1994,88,,,,,,90,M,Кирилл Котов,No,Raw,,,,,252.5,-265,-265,252.5,,252.5,D
3,Sergey Khitrov,Pro Open,1979,87.5,,,,,,90,M,Сергей Хитров,No,Raw,,,,,210,230,-240,230,,230,D
4,Dmitriy Grigoryev #7,Pro Open,1986,87.8,,,,,,90,M,Дмитрий Григорьев,No,Raw,,,,,-160,160,-180,160,,160,D
1,Oleg Vinogradov,Pro Open,1990,98.9,,,,,,100,M,Олег Виноградов,No,Raw,,,,,300,317.5,330,330,,330,D
2,Vitaliy Bokarev,Pro Open,1981,94.9,,,,,,100,M,Виталий Бокарев,No,Raw,,,,,240,250,255,255,,255,D
3,Aleksey Ermakov,Pro Open,1988,96.2,,,,,,100,M,Алексей Ермаков,No,Raw,,,,,200,215,225,225,,225,D
1,Bogdan Matiko,Pro Juniors 20-23,1992,104.2,,,,,,110,M,Богдан Матико,No,Raw,,,,,270,285,-300,285,,285,D
1,Pavel Papenkov,Pro Open,1980,107.1,,,,,,110,M,Павел Папенков,No,Raw,,,,,280,-300,305,305,,305,D
2,Pavel Nogotkov,Pro Open,1981,105.2,,,,,,110,M,Павел Ноготков,No,Raw,,,,,265,285,302.5,302.5,,302.5,D
3,Aleksey Bareyshin,Pro Open,1981,106.6,,,,,,110,M,Алексей Барейшин,No,Raw,,,,,280,-300,300,300,,300,D
1,Ilya Potolitsyn,Pro Open,1991,116.2,,,,,,125,M,Илья Потолицын,No,Raw,,,,,260,295,305,305,,305,D
1,Aleksey Selischev,Amateur Open,1978,87.6,,,,,,90,M,Алексей Селищев,Yes,Multi-ply,,,,,180,190,200,200,,200,D
2,Igor Steshov,Amateur Open,1986,89.7,,,,,,90,M,Игорь Стешов,Yes,Multi-ply,,,,,150,160,-170,160,,160,D
1,Marina Kamyshnikova,Amateur Open,1979,51.8,,,,,,52,F,Марина Камышникова,Yes,Single-ply,,,,,115,125,-135,125,,125,D
1,Ilya Filin,Amateur Open,1988,80.7,,,,,,82.5,M,Илья Филин,Yes,Single-ply,,,,,225,235,-245,235,,235,D
1,Petr Samko,Amateur Open,1987,89.4,,,,,,90,M,Петр Самко,Yes,Single-ply,,,,,220,-235,-235,220,,220,D
1,Aleksey Koshuba,Amateur Open,1980,94,,,,,,100,M,Алексей Кошуба,Yes,Single-ply,,,,,220,-240,-240,220,,220,D
1,Kristina Chudnova,Pro Juniors 20-23,1994,54.7,,,,,,56,F,Кристина Чуднова,No,Multi-ply,,,,,-155,162.5,170,170,175,170,D
1,Viktoriya Lavrischeva,Pro Open,1989,70.9,,,,,,75,F,Виктория Лаврищева,No,Multi-ply,,,,,160,170,182.5,182.5,,182.5,D
1,Maksim Tovstonog,Pro Open,1983,74.4,,,,,,75,M,Максим Товстоног,No,Multi-ply,,,,,230,237.5,-242.5,237.5,,237.5,D
2,Roman Korshunov,Pro Open,1980,73.2,,,,,,75,M,Роман Коршунов,No,Multi-ply,,,,,215,225,-232.5,225,,225,D
1,Timur Bogdanov,Pro Open,1988,84.7,,,,,,90,M,Тимур Богданов,No,Multi-ply,,,,,230,245,255,255,,255,D
1,Anatoliy Klyuev,Pro Juniors 20-23,1992,107.9,,,,,,110,M,Анатолий Клюев,No,Multi-ply,,,,,220,240,260,260,,260,D
1,Mikhail Grinko,Pro Open,1978,104.3,,,,,,110,M,Михаил Гринько,No,Multi-ply,,,,,280,300,-320,300,,300,D
1,Elena Medvedeva,Pro Open,1990,48.7,,,,,,52,F,Елена Медведева,No,Single-ply,,,,,90,100,-102.5,100,,100,D
1,Anastasiya Bakumenko,Pro Open,1983,52.6,,,,,,56,F,Анастасия Бакуменко,No,Single-ply,,,,,75,80,85,85,,85,D
1,Nina Emelyanova,Pro Open,1980,65.5,,,,,,67.5,F,Нина Емельянова,No,Single-ply,,,,,120,130,135,135,,135,D
1,Ekaterina Romanovskaya,Pro Juniors 20-23,1992,69,,,,,,75,F,Екатерина Романовская,No,Single-ply,,,,,120,-130,-130,120,,120,D
1,Alla Pugovkina,Pro Open,1975,81.45,,,,,,82.5,F,Алла Пуговкина,No,Single-ply,,,,,180,190,-200,190,,190,D
1,Viktoriya Parfenova,Pro Open,1989,113.3,,,,,,90+,F,Виктория Парфенова,No,Single-ply,,,,,125,132.5,140,140,,140,D
1,Aleksandr Shakhov,Pro Open,1988,67.5,,,,,,67.5,M,Александр Шахов,No,Single-ply,,,,,130,140,150,150,,150,D
1,Anton Doronin,Pro Open,1991,72.2,,,,,,75,M,Антон Доронин,No,Single-ply,,,,,-140,140,160,160,,160,D
2,Vladimir Kulakov,Pro Open,1955,74.5,,,,,,75,M,Владимир Кулаков,No,Single-ply,,,,,90,,,90,,90,D
1,Vladimir Kulakov,Pro Masters 55-59,1955,74.5,,,,,,75,M,Владимир Кулаков,No,Single-ply,,,,,90,,,90,,90,D
1,Nikita Vasilyev,Pro Teen 16-17,1998,90,,,,,,90,M,Никита Васильев,No,Single-ply,,,,,165,175,185,185,,185,D
1,Dmitriy Pershin,Pro Open,1990,91.9,,,,,,100,M,Дмитрий Першин,No,Single-ply,,,,,180,205,225,225,,225,D
DQ,Dmitriy Yakovlev,Pro Open,1984,99.4,,,,,,100,M,Дмитрий Яковлев,No,Single-ply,,,,,-260,-285,,,,,D
