WeightClassKg,Event,Equipment,Division,Sex,Place,Name,CyrillicName,BodyweightKg,Bench1Kg,Bench2Kg,Bench3Kg,Best3BenchKg,Deadlift1Kg,Deadlift2Kg,Deadlift3Kg,Best3DeadliftKg,TotalKg
52,B,Raw,Juniors 20-23,F,1,Inna Zhiltsova,Инна Жильцова,51.3,37.5,40,-42.5,40,,,,,40
52,B,Raw,Juniors 20-23,F,2,Natalya Atroshchenko,Наталья Атрощенко,50.3,50,-55,-55,50,,,,,50
56,B,Raw,Juniors 20-23,F,1,Polina Chistyakova,Полина Чистякова,55.65,47.5,52.5,-55,52.5,,,,,52.5
82.5,B,Raw,Juniors 20-23,F,1,Karina Palamarchuk,Карина Паламарчук,76.3,25,30,35,35,,,,,35
56,B,Raw,Open,F,1,Irina Starchenko,Ирина Старченко,55.25,55,60,65,65,,,,,65
60,B,Raw,Open,F,1,Anna Lysenko,Анна Лысенко,56.85,45,-50,-50,45,,,,,45
67.5,B,Raw,Open,F,1,Tatyana Makukha,Татьяна Макуха,63,62.5,67.5,-70,67.5,,,,,67.5
67.5,B,Raw,Open,F,2,Yana Bystrova,Яна Быстрова,63.35,55,60,62.5,62.5,,,,,62.5
67.5,B,Raw,Open,F,3,Elena Khlebodarova,Елена Хлебодарова,65,52.5,55,57.5,57.5,,,,,57.5
75,B,Raw,Open,F,1,Ivanna Savchak,Иванна Савчак,72.5,95,105,110,110,,,,,110
75,B,Raw,Open,F,2,Ekaterina Ilina,Екатерина Ильина,70.25,50,55,-60,55,,,,,55
52,B,Raw,Masters,F,1,Elena Chernyakova,Елена Чернякова,52,60,65,67.5,67.5,,,,,67.5
67.5,B,Raw,Teen,M,1,Sergey Duda,Сергей Дуда,66,82.5,-85,85,85,,,,,85
82.5,B,Raw,Juniors 20-23,M,1,Maksim Subbota,Максим Суббота,81,110,118,123,123,,,,,123
82.5,B,Raw,Juniors 20-23,M,2,Shading Abdulaev,Шадинг Абдулаев,76,105,110,115,115,,,,,115
110,B,Raw,Juniors 20-23,M,1,Vladislav Kolmyagin,Владислав Кольмягин,105,170,175,-180,175,,,,,175
67.5,B,Raw,Open,M,1,Denis Mishin,Денис Мишин,66.45,130,133,-135,133,,,,,133
67.5,B,Raw,Open,M,2,Aleksandr Starovit,Александр Старовит,66.4,100,-105,-105,100,,,,,100
75,B,Raw,Open,M,1,Konstantin Morev,Константин Морев,74.5,85,-90,95,95,,,,,95
82.5,B,Raw,Open,M,1,Denis Loparev,Денис Лопарев,79.6,140,145,150,150,,,,,150
82.5,B,Raw,Open,M,2,Rasim Medeev,Расим Медеев,82.5,135,143,-150,143,,,,,143
90,B,Raw,Open,M,1,Maksim Nepomnyashchiy,Максим Непомнящий,89.2,152.5,160,168,168,,,,,168
100,B,Raw,Open,M,1,Artyom Laletin,Артём Лалетин,92.3,170,175,178,178,,,,,178
100,B,Raw,Open,M,2,Egor Oblomov,Егор Обломов,98.7,165,170,175,175,,,,,175
100,B,Raw,Open,M,3,Sergey Trofimov,Сергей Трофимов,92.5,160,165,170,170,,,,,170
100,B,Raw,Open,M,4,Mikhail Glushak,Михаил Глушак,99.1,-145,145,-160,145,,,,,145
100,B,Raw,Open,M,5,Dmitriy Kapustin,Дмитрий Капустин,98.2,130,140,-145,140,,,,,140
100,B,Raw,Open,M,6,Ivan Zhigalov,Иван Жигалов,92.5,115,120,-128,120,,,,,120
110,B,Raw,Open,M,1,Yaroslav Gubkin,Ярослав Губкин,103,175,183,,183,,,,,183
125,B,Raw,Open,M,1,Sergey Danilov,Сергей Данилов,114,170,180,-190,180,,,,,180
125,B,Raw,Open,M,2,Aleksey Chernikin,Алексей Черникин,122,155,-165,175,175,,,,,175
56,D,Raw,Teen,F,1,Elizaveta Dogadko,Елизавета Догадько,54.5,,,,,110,-120,120,120,120
48,D,Raw,Juniors 20-23,F,1,Nadezhda Nikitina,Надежда Никитина,47.3,,,,,90,100,-110,100,100
52,D,Raw,Juniors 20-23,F,1,Inna Zhiltsova,Инна Жильцова,51.3,,,,,70,77.5,82.5,82.5,82.5
52,D,Raw,Juniors 20-23,F,2,Natalya Atroshchenko,Наталья Атрощенко,50.3,,,,,65,72.5,80,80,80
56,D,Raw,Juniors 20-23,F,1,Polina Chistyakova,Полина Чистякова,55.65,,,,,120,130,-140,130,130
67.5,D,Raw,Juniors 20-23,F,1,Natalya Simontseva,Наталья Симонцева,62.7,,,,,90,97.5,-103,97.5,97.5
75,D,Raw,Juniors 20-23,F,1,Irina Ivanova #3,Ирина Иванова,73.9,,,,,125,135,145,145,145
82.5,D,Raw,Juniors 20-23,F,1,Karina Palamarchuk,Карина Паламарчук,76.3,,,,,75,80,82.5,82.5,82.5
56,D,Raw,Open,F,1,Irina Starchenko,Ирина Старченко,55.25,,,,,95,105,110,110,110
60,D,Raw,Open,F,1,Anna Lysenko,Анна Лысенко,56.85,,,,,95,105,115,115,115
67.5,D,Raw,Open,F,2,Yana Bystrova,Яна Быстрова,63.35,,,,,120,130,135,135,135
52,D,Raw,Masters,F,1,Elena Chernyakova,Елена Чернякова,52,,,,,90,95,100,100,100
67.5,D,Raw,Teen,M,1,Bogdan Bukhalikhin,Богдан Бухалихин,64.5,,,,,140,150,160,160,160
82.5,D,Raw,Teen,M,1,Sergey Ukrainskiy,Сергей Украинский,81.2,,,,,190,200,210,210,210
82.5,D,Raw,Juniors 20-23,M,1,Maksim Subbota,Максим Суббота,81,,,,,160,170,185,185,185
82.5,D,Raw,Juniors 20-23,M,2,Shadig Abdulaev,Шадиг Абдулаев,77.6,,,,,130,140,150,150,150
82.5,D,Raw,Open,M,1,Aleksey Shevchenko,Алексей Шевченко,79.5,,,,,200,215,-227.5,215,215
82.5,D,Raw,Open,M,2,Anton Stepanov,Антон Степанов,78.4,,,,,-190,190,202.5,202.5,202.5
82.5,D,Raw,Open,M,3,Denis Loparev,Денис Лопарев,79.6,,,,,180,185,190,190,190
100,D,Raw,Open,M,1,Aleksey Kotko,Алексей Котко,98.1,,,,,-255,255,265,265,265
100,D,Raw,Open,M,2,Dmitriy Kapustin,Дмитрий Капустин,98.15,,,,,180,200,-210,200,200
110,D,Raw,Open,M,1,Yaroslav Gubkin,Ярослав Губкин,103.1,,,,,250,-270,-270,250,250
125,D,Raw,Open,M,1,Sergey Danilov,Сергей Данилов,114.5,,,,,210,220,230,230,230
