Place,Name,CyrillicName,Country,BodyweightKg,Squat1Kg,Squat2Kg,Squat3Kg,Squat4Kg,Bench1Kg,Bench2Kg,Bench3Kg,Bench4Kg,Deadlift1Kg,Deadlift2Kg,Deadlift3Kg,Deadlift4Kg,TotalKg,WeightClassKg,Division,Sex,Event,Equipment,Best3SquatKg,Best3BenchKg,Best3DeadliftKg,BirthYear
1,Dem'Yan Karandeev,Дем'Ян Карандєєв,Ukraine,44,30,35,40,,25,,,,40,50,60,,125,44,Amateur Children 10,M,SBD,Wraps,40,25,60,2005
1,Dmitro Zaets,Дмитро Заєць,Ukraine,50.8,95,105,112.5,,52.5,-57.5,57.5,,120,130,-135,,300,52,Amateur Teen 13-15,M,SBD,Wraps,112.5,57.5,130,2002
1,Oleksandr Ovcharenko,Олександр Овчаренко,Ukraine,65.2,100,110,115,,72.5,77.5,-80,,100,112.5,-117.5,,305,67.5,Amateur Teen 13-15,M,SBD,Wraps,115,77.5,112.5,2001
1,Volodimir Kuzmenko,Володимир Кузьменко,Ukraine,64.3,-100,100,120,,70,77.5,-82.5,,120,135,150,,347.5,67.5,Amateur Teen 16-17,M,SBD,Wraps,120,77.5,150,2000
1,Mikhaylo Yurchenko,Михайло Юрченко,Ukraine,73.5,190,205,-212.5,,110,117.5,-122.5,,210,-225,225,,547.5,75,Amateur Teen 16-17,M,SBD,Wraps,205,117.5,225,1999
1,Bogdan Bushtryuk,Богдан Буштрюк,Ukraine,82.35,120,130,-140,,90,95,-100,,160,170,-180,,395,82.5,Amateur Teen 16-17,M,SBD,Wraps,130,95,170,1998
1,Vladislav Shpiloviy,Владислав Шпильовий,Ukraine,94.7,195,-205,215,,105,110,115,,210,-220,,,540,100,Amateur Teen 16-17,M,SBD,Wraps,215,115,210,1998
DQ,Sergiy Litvinenko,Сергій Литвиненко,Ukraine,82,-190,,,,-120,,,,-200,,,,,82.5,Amateur Teen 18-19,M,SBD,Wraps,,,,1998
1,Evgeniy Golub,Євгеній Голуб,Ukraine,85.1,190,200,210,,100,110,115,,190,200,-210,,525,90,Amateur Teen 18-19,M,SBD,Wraps,210,115,200,1996
1,Dmitro Grigorev,Дмитро Григорьєв,Ukraine,97.2,210,230,250,,130,140,-145,,220,240,,,630,100,Amateur Teen 18-19,M,SBD,Wraps,250,140,240,1997
1,Vadim Bozhik,Вадим Божик,Ukraine,63.3,85,95,105,,95,-100,100,,145,155,-165,,360,67.5,Amateur Juniors 20-23,M,SBD,Wraps,105,100,155,1993
1,Oleksandr Mushinskiy,Олександр Мушинський,Ukraine,74.2,150,160,,,95,105,107.5,,185,195,-202.5,,462.5,75,Amateur Juniors 20-23,M,SBD,Wraps,160,107.5,195,1993
2,Anatoliy Martsenyuk,Анатолій Марценюк,Ukraine,73.75,105,115,130,,125,130,-135,,-160,165,175,,435,75,Amateur Juniors 20-23,M,SBD,Wraps,130,130,175,1995
1,Igor Stasyuk,Игорь Стасюк,Ukraine,79.3,140,-145,-145,,100,110,-117.5,,190,-202.5,-202.5,,440,82.5,Amateur Juniors 20-23,M,SBD,Wraps,140,110,190,1992
1,Oleg Kulik,Олег Кулик,Ukraine,88.95,-210,210,-220,,130,137.5,-142.5,,210,222.5,227.5,,575,90,Amateur Juniors 20-23,M,SBD,Wraps,210,137.5,227.5,1995
2,Artur Kalinovskiy,Артур Калиновський,Ukraine,85.1,200,217.5,-232.5,,130,140,-145,,205,215,-217.5,,572.5,90,Amateur Juniors 20-23,M,SBD,Wraps,217.5,140,215,1995
1,Oleksiy Matlay,Олексій Матлай,Ukraine,96,190,205,215,,130,140,-147.5,,-200,237.5,250,,605,100,Amateur Juniors 20-23,M,SBD,Wraps,215,140,250,1994
2,Dmitro Mironets,Дмитро Миронець,Ukraine,97.35,-120,-120,120,,-105,105,-115,,177.5,-195,197.5,,422.5,100,Amateur Juniors 20-23,M,SBD,Wraps,120,105,197.5,1992
1,Andriy Fedora,Андрій Федора,Ukraine,107.3,-215,225,-240,,-147.5,147.5,-152.5,,240,250,-260,,622.5,110,Amateur Juniors 20-23,M,SBD,Wraps,225,147.5,250,1995
1,Dem'Yan Karandeev,Дем'Ян Карандєєв,Ukraine,44,30,35,40,,25,,,,40,50,60,,125,44,Amateur Open,M,SBD,Wraps,40,25,60,2005
1,Dmitro Zaets,Дмитро Заєць,Ukraine,50.8,95,105,112.5,,52.5,-57.5,57.5,,120,130,-135,,300,52,Amateur Open,M,SBD,Wraps,112.5,57.5,130,2002
1,Vadim Bozhik,Вадим Божик,Ukraine,63.3,85,95,105,,95,-100,100,,145,155,-165,,360,67.5,Amateur Open,M,SBD,Wraps,105,100,155,1993
2,Oleksandr Ovcharenko,Олександр Овчаренко,Ukraine,65.2,100,110,115,,72.5,77.5,-80,,100,112.5,-117.5,,305,67.5,Amateur Open,M,SBD,Wraps,115,77.5,112.5,2001
1,Mark Bezborodov,Марк Безбородов,Ukraine,74.85,170,-185,185,,110,117.5,-125,,170,180,-190,,482.5,75,Amateur Open,M,SBD,Wraps,185,117.5,180,1989
2,Anatoliy Martsenyuk,Анатолій Марценюк,Ukraine,73.75,105,115,130,,125,130,-135,,-160,165,175,,435,75,Amateur Open,M,SBD,Wraps,130,130,175,1995
1,Sergiy Bogaychuk,Сергій Богайчук,Ukraine,82.35,195,210,220,,132.5,142.5,-147.5,,-215,215,227.5,,590,82.5,Amateur Open,M,SBD,Wraps,220,142.5,227.5,1985
2,Andriy Sokolov,Андрій Соколов,Ukraine,81.1,150,170,-190,,110,120,-130,,200,215,-225,,505,82.5,Amateur Open,M,SBD,Wraps,170,120,215,1987
3,Vadim Doroshenko,Вадим Дорошенко,Ukraine,75.9,150,165,175,,95,105,-110,,170,185,190,,470,82.5,Amateur Open,M,SBD,Wraps,175,105,190,1990
4,Oleksandr Bezay,Олександр Безай,Ukraine,80.2,-160,160,172.5,,90,100,105,,180,190,-202.5,,467.5,82.5,Amateur Open,M,SBD,Wraps,172.5,105,190,1988
1,Boris Stashuk,Борис Сташук,Ukraine,87.9,250,-270,270,,160,170,-180,,220,240,-250,,680,90,Amateur Open,M,SBD,Wraps,270,170,240,1985
2,Evgen Kitaygorodskiy,Євген Китайгородський,Ukraine,84.45,120,140,160,,120,130,-135,,180,200,-212.5,,490,90,Amateur Open,M,SBD,Wraps,160,130,200,1989
DD,Nazariy Perkhulin,Назарій Перхулін,Ukraine,89,205,220,-230,,140,150,155,,205,220,230,,,90,Amateur Open,M,SBD,Wraps,220,155,230,1988
1,Oleksandr Skripilov,Олександр Скрипільов,Ukraine,97.8,260,-270,,,150,155,160,,250,260,270,,690,100,Amateur Open,M,SBD,Wraps,260,160,270,1992
2,Dmitro Grigorev,Дмитро Григорьєв,Ukraine,97.2,210,230,250,,130,140,-145,,220,240,,,630,100,Amateur Open,M,SBD,Wraps,250,140,240,1997
3,Vladislav Shpiloviy,Владислав Шпильовий,Ukraine,94.7,195,-205,215,,105,110,115,,210,-220,,,540,100,Amateur Open,M,SBD,Wraps,215,115,210,1998
1,Pavlo Mishchuk,Павло Міщук,Ukraine,107.1,230,240,250,,180,187.5,-192.5,,247.5,260,-265,,697.5,110,Amateur Open,M,SBD,Wraps,250,187.5,260,1988
2,Yuriy Sisoev,Юрій Сисоєв,Ukraine,108.2,-235,-247.5,247.5,,175,182.5,-185,,215,225,,,655,110,Amateur Open,M,SBD,Wraps,247.5,182.5,225,1975
3,Vitaliy Kolinko,Віталій Колінько,Ukraine,106.9,-210,220,-230,,150,157.5,-160,,-220,-220,235,,612.5,110,Amateur Open,M,SBD,Wraps,220,157.5,235,1990
1,Vadim Tikhonov,Вадим Тихонов,Ukraine,116.45,230,260,280,,190,210,215,,250,270,-300,,765,125,Amateur Open,M,SBD,Wraps,280,215,270,1985
2,Danilo Udovik,Данило Удовик,Ukraine,110.4,170,182.5,-190,,110,120,125,,180,200,-210,,507.5,125,Amateur Open,M,SBD,Wraps,182.5,125,200,1992
1,Evgen Gavrilin,Євген Гаврилін,Ukraine,151.3,-230,230,245,,180,190,195,,250,265,275,,715,140+,Amateur Open,M,SBD,Wraps,245,195,275,1982
1,Vitaliy Meserenko,Віталій Месеренко,Ukraine,90,190,-210,215,-225,155,162.5,-165,,182.5,200,210,,587.5,90,Amateur Submasters 33-39,M,SBD,Wraps,215,162.5,210,1976
2,Stepan Matsipura,Степан Маціпура,Ukraine,89.3,180,-190,-190,,122.5,-127.5,-127.5,,180,185,,,487.5,90,Amateur Submasters 33-39,M,SBD,Wraps,180,122.5,185,1979
1,Andriy Zhdanov,Андрій Жданов,Ukraine,84.8,190,-205,210,,125,132.5,140,,180,195,210,,560,90,Amateur Masters 40-44,M,SBD,Wraps,210,140,210,1975
1,Oleg Vashchuk,Олег Ващук,Ukraine,98.25,160,-170,-170,,135,-140,-140,,200,-210,,,495,100,Amateur Masters 40-44,M,SBD,Wraps,160,135,200,1972
1,Yuriy Sisoev,Юрій Сисоєв,Ukraine,108.2,-235,-247.5,247.5,,175,182.5,-185,,215,225,,,655,110,Amateur Masters 40-44,M,SBD,Wraps,247.5,182.5,225,1975
2,Evgen Oprishko,Євген Опришко,Ukraine,109.05,180,190,200,,120,130,-140,,220,230,240,,570,110,Amateur Masters 40-44,M,SBD,Wraps,200,130,240,1970
3,Volodimir Andreev,Володимир Андреєв,Ukraine,103.95,140,,,,120,130,135,,160,,,,435,110,Amateur Masters 40-44,M,SBD,Wraps,140,135,160,1973
1,Boris Khoroshiy,Борис Хороший,Ukraine,103.2,170,180,190,,100,112.5,117.5,,150,170,190,,497.5,110,Amateur Masters 45-49,M,SBD,Wraps,190,117.5,190,1966
1,Volodimir Mushchinin,Володимир Мущінін,Ukraine,95.25,120,130,140,,70,80,-85,,130,140,-150,,360,100,Amateur Masters 50-54,M,SBD,Wraps,140,80,140,1961
1,Valeriy Melnik,Валерій Мельник,Ukraine,103.35,170,190,200,,130,135,-140,,170,190,200,,535,110,Amateur Masters 55-59,M,SBD,Wraps,200,135,200,1958
1,Mikola Brindulya,Микола Бриндуля,Ukraine,107.15,140,155,167.5,,110,120,130,,160,170,182.5,,480,110,Amateur Masters 60-64,M,SBD,Wraps,167.5,130,182.5,1953
1,Igor Zubarev,Ігор Зубарєв,Ukraine,74.5,-50,50,62.5,,35,40,45,,70,92.5,100,,207.5,75,Amateur Masters 70-74,M,SBD,Wraps,62.5,45,100,1941
1,Mikola Lebedyuk,Микола Лебедюк,Ukraine,91.1,70,90,-100,,50,60,70,,120,130,140,,300,100,Amateur Masters 70-74,M,SBD,Wraps,90,70,140,1941
1,Ruslan Gribanov,Руслан Грибанов,Ukraine,71.95,100,110,112.5,,90,100,105,,100,110,120,,337.5,75,Amateur Military/Fire/Police,M,SBD,Wraps,112.5,105,120,1991
1,Oleksandr Skripilov,Олександр Скрипільов,Ukraine,97.8,260,-270,,,150,155,160,,250,260,270,,690,100,Amateur Military/Fire/Police,M,SBD,Wraps,260,160,270,1992
1,Valeriy Melnik,Валерій Мельник,Ukraine,103.35,170,190,200,,130,135,-140,,170,190,200,,535,110,Amateur Military/Fire/Police,M,SBD,Wraps,200,135,200,1958
1,Mariya Royko,Марія Ройко,Ukraine,52,85,90,95,,55,60,-62.5,,95,97.5,100,,255,52,Amateur Teen 16-17,F,SBD,Wraps,95,60,100,1999
DQ,Mariya Soltisyak,Марія Солтисяк,Ukraine,54.4,-85,85,95,,40,-42.5,42.5,,-100,-100,-100,,,56,Amateur Teen 16-17,F,SBD,Wraps,95,42.5,,1998
1,Oleksandra Solomka,Олександра Соломка,Ukraine,48,60,65,-70,,35,-40,40,,65,70,80,,185,48,Amateur Teen 18-19,F,SBD,Wraps,65,40,80,1997
1,Khristina Kashuba,Христина Кашуба,Ukraine,50.6,70,80,85,,40,42.5,-47.5,,50,60,-70,,187.5,52,Amateur Teen 18-19,F,SBD,Wraps,85,42.5,60,1996
1,Darya Goretska,Дар'Я Горецька,Ukraine,59.65,-120,120,-130,,55,-62.5,-62.5,,100,110,,,285,60,Amateur Juniors 20-23,F,SBD,Wraps,120,55,110,1995
1,Mariya Kosolapova,Марія Косолапова,Ukraine,50.5,60,70,77.5,,50,55,-60,,90,100,110,,242.5,52,Amateur Open,F,SBD,Wraps,77.5,55,110,1985
2,Irina Kornelyuk,Ірина Корнелюк,Ukraine,51.6,65,70,75,,40,-42.5,42.5,,80,85,87.5,,205,52,Amateur Open,F,SBD,Wraps,75,42.5,87.5,1984
1,Olga Skorokhodova,Ольга Скороходова,Ukraine,56,110,-120,120,,55,60,-62.5,,115,125,-130,,305,56,Amateur Open,F,SBD,Wraps,120,60,125,1980
2,Nataliya Kirilchuk,Наталія Кирильчук,Ukraine,55.6,85,92.5,-100,,50,-55,-55,,95,100,-110,,242.5,56,Amateur Open,F,SBD,Wraps,92.5,50,100,1990
3,Galina Chayka,Галина Чайка,Ukraine,54.1,70,80,-90,,-35,40,-45,,75,85,95,,215,56,Amateur Open,F,SBD,Wraps,80,40,95,1990
DQ,Mariya Soltisyak,Марія Солтисяк,Ukraine,54.4,-85,85,95,,40,-42.5,42.5,,-100,-100,-100,,,56,Amateur Open,F,SBD,Wraps,95,42.5,,1998
DQ,Svitlana Chekalenko,Світлана Чекаленко,Ukraine,55,-80,,,,-42.5,,,,-80,,,,,56,Amateur Open,F,SBD,Wraps,,,,1990
1,Darya Goretska,Дар'Я Горецька,Ukraine,59.65,-120,120,-130,,55,-62.5,-62.5,,100,110,,,285,60,Amateur Open,F,SBD,Wraps,120,55,110,1995
2,Viktoriya Kalashnikova #1,Вікторія Калашнікова,Ukraine,57.6,-90,90,100,,60,65,-67.5,,90,97.5,-105,,262.5,60,Amateur Open,F,SBD,Wraps,100,65,97.5,1985
3,Svitlana Glatman,Світлана Глатман,Ukraine,58.1,85,-92.5,95,,40,45,-50,,90,100,-105,,240,60,Amateur Open,F,SBD,Wraps,95,45,100,1981
1,Oksana Muzika,Оксана Музика,Ukraine,66.5,90,100,-102.5,,60,65,-70,,105,115,,,280,67.5,Amateur Open,F,SBD,Wraps,100,65,115,1969
1,Tetyana Khomyak,Тетяна Хомяк,Ukraine,74.7,85,-90,95,,50,65,-70,,90,100,110,,270,75,Amateur Open,F,SBD,Wraps,95,65,110,1979
1,Olga Skorokhodova,Ольга Скороходова,Ukraine,56,110,-120,120,,55,60,-62.5,,115,125,-130,,305,56,Amateur Submasters 33-39,F,SBD,Wraps,120,60,125,1980
1,Oksana Muzika,Оксана Музика,Ukraine,66.5,90,100,-102.5,,60,65,-70,,105,115,,,280,67.5,Amateur Masters 45-49,F,SBD,Wraps,100,65,115,1969
1,Dmitro Shepelyaviy,Дмитро Шепелявий,Ukraine,67.3,-125,130,140,,70,80,-85,,125,130,145,,365,67.5,Pro Teen 16-17,M,SBD,Wraps,140,80,145,1998
1,Bogdan Leontiev,Богдан Леонтієв,Ukraine,75,200,210,-220,,115,-125,-125,,180,-190,-190,,505,75,Pro Teen 16-17,M,SBD,Wraps,210,115,180,1999
1,Oleksandr Kostyuk,Олександр Костюк,Ukraine,81.5,190,-200,-200,,140,145,150,,190,195,205,,545,82.5,Pro Teen 16-17,M,SBD,Wraps,190,150,205,1998
1,Artem Gayday,Артем Гайдай,Ukraine,80.25,200,210,-220,,140,145,150,,200,215,-220,,575,82.5,Pro Teen 18-19,M,SBD,Wraps,210,150,215,1996
1,Maksim Boyko,Максим Бойко,Ukraine,87.2,300,315,-325,,-170,-170,170,,240,255,-265,,740,90,Pro Teen 18-19,M,SBD,Wraps,315,170,255,1996
1,Andriy Sarazhinskiy,Андрій Саражинський,Ukraine,96.05,310,-330,-330,,150,160,165,,240,255,-270,,730,100,Pro Teen 18-19,M,SBD,Wraps,310,165,255,1996
2,Pavlo Dolgirev,Павло Долгірєв,Ukraine,99.15,-200,-200,200,,115,120,130,,200,210,,,540,100,Pro Teen 18-19,M,SBD,Wraps,200,130,210,1998
1,Kostyantin Barkov,Костянтин Барков,Ukraine,107.05,270,280,-300,,140,150,160,,280,310,-320,,750,110,Pro Teen 18-19,M,SBD,Wraps,280,160,310,1996
1,Oleksiy Stolyarenko,Олексій Столяренко,Ukraine,113,-160,160,175,,120,130,-140,,200,215,230,,535,125,Pro Teen 18-19,M,SBD,Wraps,175,130,230,1996
1,Viktor Petrenko,Віктор Петренко,Ukraine,73.7,-195,205,-210,,130,-135,-135,,200,-250,250,,585,75,Pro Juniors 20-23,M,SBD,Wraps,205,130,250,1992
1,Vladislav Surov,Владислав Суров,Ukraine,88.9,225,240,250,,130,140,147.5,,215,227.5,237.5,,635,90,Pro Juniors 20-23,M,SBD,Wraps,250,147.5,237.5,1993
2,Dmitro Kuzmenko,Дмитро Кузьменко,Ukraine,86.7,-180,190,-210,,140,152.5,157.5,-162.5,200,-210,210,,557.5,90,Pro Juniors 20-23,M,SBD,Wraps,190,157.5,210,1992
3,Evgen Buynovskiy,Євген Буйновський,Ukraine,86.5,160,-175,175,,-120,120,-130,,160,170,180,,475,90,Pro Juniors 20-23,M,SBD,Wraps,175,120,180,1992
1,Oleksandr Kostyuk,Олександр Костюк,Ukraine,81.5,190,-200,-200,,140,145,150,,190,195,205,,545,82.5,Pro Open,M,SBD,Wraps,190,150,205,1998
1,Oleksii Melnyk,Олексій Мельник,Ukraine,89.8,-310,320,330,-335,170,180,185,,285,302.5,307.5,-312.5,822.5,90,Pro Open,M,SBD,Wraps,330,185,307.5,1990
2,Maksim Boyko,Максим Бойко,Ukraine,87.2,300,315,-325,,-170,-170,170,,240,255,-265,,740,90,Pro Open,M,SBD,Wraps,315,170,255,1996
3,Oleksandr Shapovalov,Олександр Шаповалов,Ukraine,88.85,270,-280,-280,,180,-190,-190,,250,260,-270,,710,90,Pro Open,M,SBD,Wraps,270,180,260,1990
4,Yaroslav Litvinenko,Ярослав Литвиненко,Ukraine,88.95,-260,-260,260,,150,157.5,-165,,275,285,-290,,702.5,90,Pro Open,M,SBD,Wraps,260,157.5,285,1976
5,Vasil Mikhalskiy,Василь Михальський,Ukraine,88.5,200,-212.5,225,,140,-150,-150,,240,-260,-270,,605,90,Pro Open,M,SBD,Wraps,225,140,240,1980
6,Taras Ganzha,Тарас Ганжа,Ukraine,86.8,190,-210,225,,125,135,142.5,,205,217.5,230,,597.5,90,Pro Open,M,SBD,Wraps,225,142.5,230,1987
7,Dmitro Kuzmenko,Дмитро Кузьменко,Ukraine,86.7,-180,190,-210,,140,152.5,157.5,-162.5,200,-210,210,,557.5,90,Pro Open,M,SBD,Wraps,190,157.5,210,1992
8,Andriy Muntyan,Андрій Мунтян,Ukraine,89.65,165,-175,175,,130,-140,-140,,-190,190,210,,515,90,Pro Open,M,SBD,Wraps,175,130,210,1992
1,Oleg Khristoforov,Олег Христофоров,Ukraine,99.6,330,-350,-350,,170,180,-185,,-250,250,265,,775,100,Pro Open,M,SBD,Wraps,330,180,265,1975
2,Andriy Sarazhinskiy,Андрій Саражинський,Ukraine,96.05,310,-330,-330,,150,160,165,,240,255,-270,,730,100,Pro Open,M,SBD,Wraps,310,165,255,1996
3,Viktor Rublyov,Віктор Рубльов,Ukraine,98.45,-230,240,250,,160,-170,175,,230,245,-260,,670,100,Pro Open,M,SBD,Wraps,250,175,245,1975
4,Oleksandr Karnaukh,Олександр Карнаух,Ukraine,99.6,220,230,240,,175,-182.5,185,,230,240,-250,,665,100,Pro Open,M,SBD,Wraps,240,185,240,1980
5,Yuriy Khilchuk,Юрій Хільчук,Ukraine,97.9,-220,-220,225,,150,-160,-160,,220,-230,230,,605,100,Pro Open,M,SBD,Wraps,225,150,230,1986
DQ,Evgen Nastenko,Євген Настенко,Ukraine,95.15,-275,-275,-275,,-170,,,,-280,,,,,100,Pro Open,M,SBD,Wraps,,,,1991
1,Oleksandr Glushchenko,Олександр Глущенко,Ukraine,109.2,-200,-200,285,,200,-212.5,212.5,,295,305,312.5,,810,110,Pro Open,M,SBD,Wraps,285,212.5,312.5,1984
2,Sergiy Yaromenko,Сергій Яроменко,Ukraine,105.55,235,-250,250,,145,155,-160,,210,230,245,,650,110,Pro Open,M,SBD,Wraps,250,155,245,1984
3,Volodimir Karandeev,Володимир Карандєєв,Ukraine,104.5,240,,,,150,160,167.5,,-192.5,192.5,,,600,110,Pro Open,M,SBD,Wraps,240,167.5,192.5,1974
1,Andriy Goncharuk,Андрій Гончарук,Ukraine,124.25,300,-320,320,,190,-200,-200,,305,320,-330,,830,125,Pro Open,M,SBD,Wraps,320,190,320,1988
2,Oleksandr Burda,Олександр Бурда,Ukraine,112,255,265,270,,200,-210,210,,325,-335,-335,,805,125,Pro Open,M,SBD,Wraps,270,210,325,1988
3,Sergiy Leshchenko,Сергій Лещенко,Ukraine,113.9,-260,-265,265,,155,162.5,170,,265,275,,,710,125,Pro Open,M,SBD,Wraps,265,170,275,1988
1,Yaroslav Litvinenko,Ярослав Литвиненко,Ukraine,88.95,-260,-260,260,,150,157.5,-165,,275,285,-290,,702.5,90,Pro Submasters 33-39,M,SBD,Wraps,260,157.5,285,1976
1,Viktor Seredyuk,Віктор Середюк,Ukraine,98.95,215,225,230,,160,-165,165,,245,257.5,-267.5,,652.5,100,Pro Submasters 33-39,M,SBD,Wraps,230,165,257.5,1977
1,Oleksandr Popovich,Олександр Попович,Ukraine,74.9,150,170,-190,,130,137.5,142.5,145,160,-180,182.5,187.5,495,75,Pro Masters 40-44,M,SBD,Wraps,170,142.5,182.5,1972
1,Oleg Khristoforov,Олег Христофоров,Ukraine,99.6,330,-350,-350,,170,180,-185,,-250,250,265,,775,100,Pro Masters 40-44,M,SBD,Wraps,330,180,265,1975
2,Viktor Rublyov,Віктор Рубльов,Ukraine,98.45,-230,240,250,,160,-170,175,,230,245,-260,,670,100,Pro Masters 40-44,M,SBD,Wraps,250,175,245,1975
1,Volodimir Karandeev,Володимир Карандєєв,Ukraine,104.5,240,,,,150,160,167.5,,-192.5,192.5,,,600,110,Pro Masters 40-44,M,SBD,Wraps,240,167.5,192.5,1974
1,Oleksandr Popovich,Олександр Попович,Ukraine,74.9,150,170,-190,,130,137.5,142.5,145,160,-180,182.5,187.5,495,75,Pro Military/Fire/Police,M,SBD,Wraps,170,142.5,182.5,1972
1,Olena Razuvaeva,Олена Разуваєва,Ukraine,71.2,-140,140,-150.5,,70,-77.5,-80,,125,135,-145,,345,75,Pro Open,F,SBD,Wraps,140,70,135,1988
DQ,Vitaliy Menchuk,Віталій Менчук,Ukraine,85.95,-230,-240,-240,,-170,,,,-190,,,,,90,Amateur Teen 16-17,M,SBD,Multi-ply,,,,1998
1,Dmitro Dushok,Дмитро Душок,Ukraine,87.4,190,210,-220,,130,135,140,,190,200,-210,,550,90,Pro Teen 16-17,M,SBD,Multi-ply,210,140,200,1999
1,Igor Andrusik,Ігор Андрусик,Ukraine,79.15,-240,240,-260,,180,-190,190,,240,260,275,,705,82.5,Pro Open,M,SBD,Multi-ply,240,190,275,1988
2,Volodimir Kovalenko,Володимир Коваленко,Ukraine,76.4,200,210,-220,,150,155,-160,,225,240,-247.5,,605,82.5,Pro Open,M,SBD,Multi-ply,210,155,240,1985
1,Andriy Petrushko,Андрій Петрушко,Ukraine,116.9,-230,-235,235,,205,210,217.5,,210,220,230,,682.5,125,Pro Open,M,SBD,Multi-ply,235,217.5,230,1984
1,Dem'Yan Karandeev,Дем'Ян Карандєєв,Ukraine,44,,,,,25,,,,,,,,25,44,Amateur Children 10,M,B,Raw,,25,,2005
1,Alan Kvyatkovskiy,Алан Квятковський,Ukraine,46.5,,,,,30,32.5,35,,,,,,35,48,Amateur Children 10,M,B,Raw,,35,,2005
1,Aydin Gulamov,Айдин Гуламов,Ukraine,88.9,,,,,120,130,-135,,,,,,130,90,Amateur Teen 13-15,M,B,Raw,,130,,2000
1,Oleg Gribachov,Олег Грибачов,Ukraine,56.9,,,,,87.5,-92.5,-97.5,,,,,,87.5,60,Amateur Teen 16-17,M,B,Raw,,87.5,,1998
1,Andriy Slobodyanik,Андрій Слободяник,Ukraine,66.4,,,,,105,110,-112.5,,,,,,110,67.5,Amateur Teen 16-17,M,B,Raw,,110,,1999
1,Bogdan Bushtryuk,Богдан Буштрюк,Ukraine,82.35,,,,,90,95,-100,,,,,,95,82.5,Amateur Teen 16-17,M,B,Raw,,95,,1998
DQ,Vladislav Tyulin,Владислав Тюлін,Ukraine,81.85,,,,,-127.5,-127.5,-127.5,,,,,,,82.5,Amateur Teen 16-17,M,B,Raw,,,,2000
1,Ivan Pogrebov,Іван Погребов,Ukraine,103.85,,,,,75,-82.5,82.5,,,,,,82.5,110,Amateur Teen 16-17,M,B,Raw,,82.5,,1998
1,Valeriy Martinyuk,Валерій Мартинюк,Ukraine,72.4,,,,,127.5,132.5,137.5,,,,,,137.5,75,Amateur Teen 18-19,M,B,Raw,,137.5,,1997
2,Pavlo Pidtoptaniy,Павло Підтоптаний,Ukraine,72.9,,,,,130,-135,,,,,,,130,75,Amateur Teen 18-19,M,B,Raw,,130,,1997
1,Egor Kharchenko,Єгор Харченко,Ukraine,80.5,,,,,135,142.5,-147.5,,,,,,142.5,82.5,Amateur Teen 18-19,M,B,Raw,,142.5,,1997
2,Andriy Natalchuk,Андрій Натальчук,Ukraine,78.95,,,,,122.5,130,-135,,,,,,130,82.5,Amateur Teen 18-19,M,B,Raw,,130,,1996
1,Evgeniy Golub,Євгеній Голуб,Ukraine,85.1,,,,,100,110,115,,,,,,115,90,Amateur Teen 18-19,M,B,Raw,,115,,1996
DQ,Dmitro Begun,Дмитро Бегун,Ukraine,88.1,,,,,-120,,,,,,,,,90,Amateur Teen 18-19,M,B,Raw,,,,1998
1,Artur Bikov,Артур Биков,Ukraine,66.05,,,,,-105,-105,105,,,,,,105,67.5,Amateur Juniors 20-23,M,B,Raw,,105,,1993
2,Vadim Bozhik,Вадим Божик,Ukraine,63.3,,,,,95,-100,100,,,,,,100,67.5,Amateur Juniors 20-23,M,B,Raw,,100,,1993
1,Anatoliy Martsenyuk,Анатолій Марценюк,Ukraine,73.75,,,,,125,130,-135,,,,,,130,75,Amateur Juniors 20-23,M,B,Raw,,130,,1995
2,Vitaliy Leshchuk,Віталій Лещук,Ukraine,72.9,,,,,117.5,-125,125,,,,,,125,75,Amateur Juniors 20-23,M,B,Raw,,125,,1992
1,Oskar Pierściński,,Poland,79.5,,,,,150,155,160,,,,,,160,82.5,Amateur Juniors 20-23,M,B,Raw,,160,,1996
2,Bogdan Sidoruk,Богдан Сидорук,Ukraine,80.4,,,,,142.5,150,-152.5,,,,,,150,82.5,Amateur Juniors 20-23,M,B,Raw,,150,,1992
3,Maksim Blud,Максим Блуд,Ukraine,79.75,,,,,125,132.5,135,,,,,,135,82.5,Amateur Juniors 20-23,M,B,Raw,,135,,1995
4,Boris Midlik,Борис Мидлик,Ukraine,80.45,,,,,125,-132.5,-132.5,,,,,,125,82.5,Amateur Juniors 20-23,M,B,Raw,,125,,1995
1,Volodimir Nazarko,Володимир Назарко,Ukraine,88.3,,,,,130,140,-157.5,,,,,,140,90,Amateur Juniors 20-23,M,B,Raw,,140,,1993
1,Oleksiy Matlay,Олексій Матлай,Ukraine,96,,,,,130,140,-147.5,,,,,,140,100,Amateur Juniors 20-23,M,B,Raw,,140,,1994
1,Mikhaylo Shpuk,Михайло Шпук,Ukraine,109.65,,,,,165,175,-180,,,,,,175,110,Amateur Juniors 20-23,M,B,Raw,,175,,1992
1,Dem'Yan Karandeev,Дем'Ян Карандєєв,Ukraine,44,,,,,25,,,,,,,,25,44,Amateur Open,M,B,Raw,,25,,2005
1,Otto Balog,Отто Балог,Ukraine,65.7,,,,,115,-120,-120,,,,,,115,67.5,Amateur Open,M,B,Raw,,115,,1983
2,Roman Golishev,Роман Голишев,Ukraine,65.2,,,,,95,105,110,,,,,,110,67.5,Amateur Open,M,B,Raw,,110,,1991
3,Vadim Bozhik,Вадим Божик,Ukraine,63.3,,,,,95,-100,100,,,,,,100,67.5,Amateur Open,M,B,Raw,,100,,1993
1,Oleksandr Volkov,Олександр Волков,Ukraine,73.25,,,,,150,157.5,-162.5,,,,,,157.5,75,Amateur Open,M,B,Raw,,157.5,,1985
2,Maksim Obertas,Максим Обертас,Ukraine,73.7,,,,,-137.5,142.5,-147.5,,,,,,142.5,75,Amateur Open,M,B,Raw,,142.5,,1988
3,Sergiy Shendrik,Сергій Шендрик,Ukraine,73.35,,,,,135,140,-147.5,,,,,,140,75,Amateur Open,M,B,Raw,,140,,1990
4,Sergiy Goncharuk,Сергій Гончарук,Ukraine,71.1,,,,,130,135,-137.5,,,,,,135,75,Amateur Open,M,B,Raw,,135,,1978
5,Pavlo Pidtoptaniy,Павло Підтоптаний,Ukraine,72.9,,,,,130,-135,,,,,,,130,75,Amateur Open,M,B,Raw,,130,,1997
6,Anatoliy Martsenyuk,Анатолій Марценюк,Ukraine,73.75,,,,,125,130,-135,,,,,,130,75,Amateur Open,M,B,Raw,,130,,1995
7,Vitaliy Leshchuk,Віталій Лещук,Ukraine,72.9,,,,,117.5,-125,125,,,,,,125,75,Amateur Open,M,B,Raw,,125,,1992
8,Mark Bezborodov,Марк Безбородов,Ukraine,74.85,,,,,110,117.5,-125,,,,,,117.5,75,Amateur Open,M,B,Raw,,117.5,,1989
9,Oleg Kirichenko,Олег Кириченко,Ukraine,69.65,,,,,115,-120,-120,,,,,,115,75,Amateur Open,M,B,Raw,,115,,1990
1,Oleksandr Romashchenko,Олександр Ромащенко,Ukraine,81.65,,,,,150,155,160,,,,,,160,82.5,Amateur Open,M,B,Raw,,160,,1989
2,Yuriy Pets,Юрій Пець,Ukraine,79.55,,,,,150,-155,157.5,,,,,,157.5,82.5,Amateur Open,M,B,Raw,,157.5,,1988
3,Oleksandr Klimenko,Олександр Кліменко,Ukraine,82,,,,,147.5,152.5,-157.5,,,,,,152.5,82.5,Amateur Open,M,B,Raw,,152.5,,1990
4,Vitaliy Demedyuk,Віталій Демедюк,Ukraine,81.75,,,,,140,145,-152.5,,,,,,145,82.5,Amateur Open,M,B,Raw,,145,,1989
5,Vyacheslav Bulgakov,Вячеслав Булгаков,Ukraine,81.05,,,,,125,132.5,137.5,,,,,,137.5,82.5,Amateur Open,M,B,Raw,,137.5,,1966
6,Taras Smachilo,Тарас Смачило,Ukraine,80.4,,,,,135,-140,-140,,,,,,135,82.5,Amateur Open,M,B,Raw,,135,,1987
7,Boris Midlik,Борис Мидлик,Ukraine,80.45,,,,,125,-132.5,-132.5,,,,,,125,82.5,Amateur Open,M,B,Raw,,125,,1995
1,Oleksandr Pavlushonok,Олександр Павлушонок,Ukraine,88.8,,,,,150,155,160,,,,,,160,90,Amateur Open,M,B,Raw,,160,,1985
2,Evgen Yatsina,Євген Яцина,Ukraine,87.5,,,,,122.5,140,-142.5,,,,,,140,90,Amateur Open,M,B,Raw,,140,,1983
3,Volodimir Nazarko,Володимир Назарко,Ukraine,88.3,,,,,130,140,-157.5,,,,,,140,90,Amateur Open,M,B,Raw,,140,,1993
1,Grigoriy Danielyan,Григорій Даніелян,Ukraine,96.6,,,,,170,180,182.5,,,,,,182.5,100,Amateur Open,M,B,Raw,,182.5,,1980
2,Dmitro Lyashuk,Дмитро Ляшук,Ukraine,98.6,,,,,180,-190,-190,,,,,,180,100,Amateur Open,M,B,Raw,,180,,1989
3,Dmitro Rudin,Дмитро Рудін,Ukraine,99.2,,,,,170,-175,175,,,,,,175,100,Amateur Open,M,B,Raw,,175,,1985
4,Mikola Gorbachov,Микола Горбачов,Ukraine,93.8,,,,,150,160,167.5,,,,,,167.5,100,Amateur Open,M,B,Raw,,167.5,,1962
5,Andriy Shulyakevich,Андрій Шулякевич,Ukraine,97.7,,,,,-160,167.5,-175,,,,,,167.5,100,Amateur Open,M,B,Raw,,167.5,,1991
6,Oleksandr Vishnevskiy,Олександр Вишневський,Ukraine,99.9,,,,,160,-167.5,167.5,,,,,,167.5,100,Amateur Open,M,B,Raw,,167.5,,1988
7,Valentin Slutskiy,Валентин Слуцький,Ukraine,98.8,,,,,-150,155,-167.5,,,,,,155,100,Amateur Open,M,B,Raw,,155,,1973
8,Andriy Tupchiy,Андрій Тупчій,Ukraine,94.2,,,,,135,142.5,147.5,,,,,,147.5,100,Amateur Open,M,B,Raw,,147.5,,1987
1,Pavlo Mishchuk,Павло Міщук,Ukraine,107.1,,,,,180,187.5,-192.5,,,,,,187.5,110,Amateur Open,M,B,Raw,,187.5,,1988
2,Yuriy Sisoev,Юрій Сисоєв,Ukraine,108.2,,,,,175,182.5,-185,,,,,,182.5,110,Amateur Open,M,B,Raw,,182.5,,1975
3,Andriy Mazanovich,Андрій Мазанович,Ukraine,103.1,,,,,-175,180,-192.5,,,,,,180,110,Amateur Open,M,B,Raw,,180,,1987
4,Andriy Tarnovskiy,Андрій Тарновський,Ukraine,107.7,,,,,175,180,-185,,,,,,180,110,Amateur Open,M,B,Raw,,180,,1989
5,Mikhaylo Shpuk,Михайло Шпук,Ukraine,109.65,,,,,165,175,-180,,,,,,175,110,Amateur Open,M,B,Raw,,175,,1992
6,Andriy Tomashevich,Андрій Томашевич,Ukraine,104.25,,,,,165,170,-175,,,,,,170,110,Amateur Open,M,B,Raw,,170,,1978
7,Oleksandr Shestatskiy,Олександр Шестацький,Ukraine,106.85,,,,,-160,-160,160,,,,,,160,110,Amateur Open,M,B,Raw,,160,,1976
8,Vitaliy Kolinko,Віталій Колінько,Ukraine,106.9,,,,,150,157.5,-160,,,,,,157.5,110,Amateur Open,M,B,Raw,,157.5,,1990
9,Artem Sokolov,Артем Соколов,Ukraine,108.3,,,,,135,-142.5,142.5,,,,,,142.5,110,Amateur Open,M,B,Raw,,142.5,,1976
1,Vadim Tikhonov,Вадим Тихонов,Ukraine,116.45,,,,,190,210,215,,,,,,215,125,Amateur Open,M,B,Raw,,215,,1985
2,Oleksandr Slutskiy,Олександр Слуцький,Ukraine,122.65,,,,,-190,190,-200,,,,,,190,125,Amateur Open,M,B,Raw,,190,,1975
3,Danilo Udovik,Данило Удовик,Ukraine,110.4,,,,,110,120,125,,,,,,125,125,Amateur Open,M,B,Raw,,125,,1992
1,Oleksandr Shvab,Олександр Шваб,Ukraine,126,,,,,120,,,,,,,,120,140,Amateur Open,M,B,Raw,,120,,1976
1,Sergiy Goncharuk,Сергій Гончарук,Ukraine,71.1,,,,,130,135,-137.5,,,,,,135,75,Amateur Submasters 33-39,M,B,Raw,,135,,1978
1,Vitaliy Meserenko,Віталій Месеренко,Ukraine,90,,,,,160,165,-167.5,,,,,,165,90,Amateur Submasters 33-39,M,B,Raw,,165,,1976
2,Sergiy Velikodniy,Сергій Великодний,Ukraine,88.05,,,,,160,-167.5,-167.5,,,,,,160,90,Amateur Submasters 33-39,M,B,Raw,,160,,1981
1,Grigoriy Danielyan,Григорій Даніелян,Ukraine,96.6,,,,,170,180,182.5,,,,,,182.5,100,Amateur Submasters 33-39,M,B,Raw,,182.5,,1980
1,Vitaliy Pokinchereda,Віталій Покиньчереда,Ukraine,107.8,,,,,190,200,210,,,,,,210,110,Amateur Submasters 33-39,M,B,Raw,,210,,1976
2,Andriy Tomashevich,Андрій Томашевич,Ukraine,104.25,,,,,165,170,-175,,,,,,170,110,Amateur Submasters 33-39,M,B,Raw,,170,,1978
3,Artem Sokolov,Артем Соколов,Ukraine,108.3,,,,,135,-142.5,142.5,,,,,,142.5,110,Amateur Submasters 33-39,M,B,Raw,,142.5,,1976
1,Roman Khorkin,Роман Хоркін,Ukraine,114.45,,,,,160,-170,170,,,,,,170,125,Amateur Submasters 33-39,M,B,Raw,,170,,1976
1,Oleksandr Shvab,Олександр Шваб,Ukraine,126,,,,,120,,,,,,,,120,140,Amateur Submasters 33-39,M,B,Raw,,120,,1976
1,Andriy Zhdanov,Андрій Жданов,Ukraine,84.8,,,,,125,132.5,140,,,,,,140,90,Amateur Masters 40-44,M,B,Raw,,140,,1975
2,Dmitro Lutsenko,Дмитро Луценко,Ukraine,89.05,,,,,100,-105,-105,,,,,,100,90,Amateur Masters 40-44,M,B,Raw,,100,,1971
1,Valentin Slutskiy,Валентин Слуцький,Ukraine,98.8,,,,,-150,155,-167.5,,,,,,155,100,Amateur Masters 40-44,M,B,Raw,,155,,1973
2,Oleg Vashchuk,Олег Ващук,Ukraine,98.25,,,,,135,-140,-140,,,,,,135,100,Amateur Masters 40-44,M,B,Raw,,135,,1972
1,Yuriy Sisoev,Юрій Сисоєв,Ukraine,108.2,,,,,175,182.5,-185,,,,,,182.5,110,Amateur Masters 40-44,M,B,Raw,,182.5,,1975
2,Volodimir Andreev,Володимир Андреєв,Ukraine,103.95,,,,,120,130,135,,,,,,135,110,Amateur Masters 40-44,M,B,Raw,,135,,1973
1,Oleksandr Slutskiy,Олександр Слуцький,Ukraine,122.65,,,,,-190,190,-200,,,,,,190,125,Amateur Masters 40-44,M,B,Raw,,190,,1975
1,Vyacheslav Bulgakov,Вячеслав Булгаков,Ukraine,81.05,,,,,125,132.5,137.5,,,,,,137.5,82.5,Amateur Masters 45-49,M,B,Raw,,137.5,,1966
1,Evgeniy Krashanovskiy,Євгеній Крашановський,Ukraine,96.6,,,,,182.5,190,-195,,,,,,190,100,Amateur Masters 45-49,M,B,Raw,,190,,1970
1,Petro Pristupa,Петро Приступа,Ukraine,73,,,,,90,95,100,,,,,,100,75,Amateur Masters 50-54,M,B,Raw,,100,,1963
1,Gennadiy Ivanchenko,Геннадій Іванченко,Ukraine,78,,,,,90,97.5,102.5,,,,,,102.5,82.5,Amateur Masters 50-54,M,B,Raw,,102.5,,1966
1,Mikola Gorbachov,Микола Горбачов,Ukraine,93.8,,,,,150,160,167.5,,,,,,167.5,100,Amateur Masters 50-54,M,B,Raw,,167.5,,1962
1,Viktor Nikitin #1,Віктор Нікітін,Ukraine,84.7,,,,,140,-145.5,145.5,,,,,,145.5,90,Amateur Masters 55-59,M,B,Raw,,145.5,,1956
1,Valeriy Melnik,Валерій Мельник,Ukraine,103.35,,,,,130,135,-140,,,,,,135,110,Amateur Masters 55-59,M,B,Raw,,135,,1958
1,Yuriy Filonenko,Юрій Філоненко,Ukraine,88.5,,,,,125,130,-132.5,,,,,,130,90,Amateur Masters 60-64,M,B,Raw,,130,,1954
1,Igor Zubarev,Ігор Зубарєв,Ukraine,74.5,,,,,35,40,45,,,,,,45,75,Amateur Masters 70-74,M,B,Raw,,45,,1941
1,Valeriy Melnik,Валерій Мельник,Ukraine,103.35,,,,,130,135,-140,,,,,,135,110,Amateur Military/Fire/Police,M,B,Raw,,135,,1958
1,Khrestina Ledkova,Хрестина Ледкова,Ukraine,39.9,,,,,30,32.5,-35,,,,,,32.5,44,Amateur Teen 13-15,F,B,Raw,,32.5,,2001
DQ,Alina Klimchuk,Аліна Климчук,Ukraine,52,,,,,-40,-45,-45,,,,,,,52,Amateur Teen 13-15,F,B,Raw,,,,2000
1,Mariya Soltisyak,Марія Солтисяк,Ukraine,54.4,,,,,40,-42.5,42.5,,,,,,42.5,56,Amateur Teen 16-17,F,B,Raw,,42.5,,1998
1,Yana Shishpanova,Яна Шишпанова,Ukraine,59.2,,,,,72.5,77.5,-82.5,,,,,,77.5,60,Amateur Teen 16-17,F,B,Raw,,77.5,,1999
2,Karina Chepurna,Каріна Чепурна,Ukraine,58.85,,,,,55,60,-65,,,,,,60,60,Amateur Teen 16-17,F,B,Raw,,60,,1998
1,Khristina Kashuba,Христина Кашуба,Ukraine,50.6,,,,,40,42.5,-47.5,,,,,,42.5,52,Amateur Teen 18-19,F,B,Raw,,42.5,,1996
1,Nadiya Shvets,Надія Швець,Ukraine,58.1,,,,,-35,35,-37.5,,,,,,35,60,Amateur Teen 18-19,F,B,Raw,,35,,1996
1,Irina Galayda,Ірина Галайда,Ukraine,53,,,,,55,60,62.5,,,,,,62.5,56,Amateur Juniors 20-23,F,B,Raw,,62.5,,1994
1,Olga Morozovska,Ольга Морозовська,Ukraine,47.5,,,,,60,-65,-65,,,,,,60,48,Amateur Open,F,B,Raw,,60,,1991
DQ,Lidiya Oborina,Лідія Оборіна,Ukraine,47.25,,,,,-37.5,-37.5,-37.5,,,,,,,48,Amateur Open,F,B,Raw,,,,1987
1,Nataliya Melnichuk,Наталія Мельничук,Ukraine,51.8,,,,,65,67.5,70,,,,,,70,52,Amateur Open,F,B,Raw,,70,,1975
2,Mariya Kosolapova,Марія Косолапова,Ukraine,50.5,,,,,50,55,-60,,,,,,55,52,Amateur Open,F,B,Raw,,55,,1985
1,Yuliya Gabelko,Юлія Габелко,Ukraine,52.8,,,,,60,65,-70,,,,,,65,56,Amateur Open,F,B,Raw,,65,,1987
2,Olga Skorokhodova,Ольга Скороходова,Ukraine,56,,,,,55,60,-62.5,,,,,,60,56,Amateur Open,F,B,Raw,,60,,1980
3,Kristina Kasyanova,Кристина Касьянова,Ukraine,56,,,,,55,-60,-60,,,,,,55,56,Amateur Open,F,B,Raw,,55,,1990
4,Mariya Soltisyak,Марія Солтисяк,Ukraine,54.4,,,,,40,-42.5,42.5,,,,,,42.5,56,Amateur Open,F,B,Raw,,42.5,,1998
1,Olesya Oleynik,Олеся Олейник,Ukraine,59.5,,,,,65,67.5,70,,,,,,70,60,Amateur Open,F,B,Raw,,70,,1985
2,Viktoriya Kalashnikova #1,Вікторія Калашнікова,Ukraine,57.6,,,,,60,65,-67.5,,,,,,65,60,Amateur Open,F,B,Raw,,65,,1985
3,Tetyana Panevina,Тетяна Панєвіна,Ukraine,58.8,,,,,57.5,62.5,-65,,,,,,62.5,60,Amateur Open,F,B,Raw,,62.5,,1980
4,Liana Kapitula,Ліана Капітула,Ukraine,59.8,,,,,60,62.5,-65,,,,,,62.5,60,Amateur Open,F,B,Raw,,62.5,,1988
1,Oksana Muzika,Оксана Музика,Ukraine,66.5,,,,,65,70,-72.5,,,,,,70,67.5,Amateur Open,F,B,Raw,,70,,1969
2,Olena Melnik,Олена Мельник,Ukraine,64,,,,,60,62.5,-67.5,,,,,,62.5,67.5,Amateur Open,F,B,Raw,,62.5,,1977
DQ,Inna Yudina,Інна Юдіна,Ukraine,75,,,,,-70,-75,-75,,,,,,,75,Amateur Open,F,B,Raw,,,,1978
1,Viktoriya Solntseva,Вікторія Солнцева,Ukraine,85.2,,,,,90,97.5,-105,,,,,,97.5,90,Amateur Open,F,B,Raw,,97.5,,1991
1,Olena Melnik,Олена Мельник,Ukraine,64,,,,,60,62.5,-67.5,,,,,,62.5,67.5,Amateur Submasters 33-39,F,B,Raw,,62.5,,1977
1,Tetyana Khomyak,Тетяна Хомяк,Ukraine,74.7,,,,,50,65,-70,,,,,,65,75,Amateur Submasters 33-39,F,B,Raw,,65,,1979
1,Nataliya Melnichuk,Наталія Мельничук,Ukraine,51.8,,,,,65,67.5,70,,,,,,70,52,Amateur Masters 40-44,F,B,Raw,,70,,1975
1,Liliya Voloshina,Лілія Волошина,Ukraine,54.15,,,,,40,-42.5,-42.5,,,,,,40,56,Amateur Masters 45-49,F,B,Raw,,40,,1966
1,Oksana Muzika,Оксана Музика,Ukraine,66.5,,,,,65,70,-72.5,,,,,,70,67.5,Amateur Masters 45-49,F,B,Raw,,70,,1969
1,Oleg Mikhalskiy,Олег Михальський,Ukraine,33.25,,,,,-37.5,37.5,-42.5,,,,,,37.5,44,Pro Children 11-12,M,B,Raw,,37.5,,2004
1,Vladislav Sivak,Владислав Сівак,Ukraine,68.7,,,,,65,70,-72.5,,,,,,70,75,Pro Teen 13-15,M,B,Raw,,70,,2000
1,Roman Bomk,Роман Бомк,Ukraine,88.85,,,,,90,95,100,,,,,,100,90,Pro Teen 13-15,M,B,Raw,,100,,1999
1,Oleksandr Sukhinyuk,Олександр Сухинюк,Ukraine,68.6,,,,,60,65,67.5,,,,,,67.5,75,Pro Teen 16-17,M,B,Raw,,67.5,,1999
1,Bogdan Golod,Богдан Голод,Ukraine,76.2,,,,,75,80,-85,,,,,,80,82.5,Pro Teen 16-17,M,B,Raw,,80,,1999
1,Yuriy Pletnov,Юрій Плетньов,Ukraine,89.3,,,,,120,-125,-125,,,,,,120,90,Pro Teen 18-19,M,B,Raw,,120,,1996
1,Vladislav Zaporozhchenko,Владислав Запорожченко,Ukraine,94.5,,,,,175,180,185,,,,,,185,100,Pro Teen 18-19,M,B,Raw,,185,,1996
2,Anton Nosanov,Антон Носаньов,Ukraine,98.25,,,,,130,135,-137.5,,,,,,135,100,Pro Teen 18-19,M,B,Raw,,135,,1997
1,Oleksiy Stolyarenko,Олексій Столяренко,Ukraine,113,,,,,120,130,-140,,,,,,130,125,Pro Teen 18-19,M,B,Raw,,130,,1996
1,Orhan Maisarov,,Azerbaijan,72.65,,,,,140,150,-155,,,,,,150,75,Pro Juniors 20-23,M,B,Raw,,150,,1994
1,Volodimir Pavlik,Володимир Павлик,Ukraine,86.7,,,,,145,152.5,157.5,,,,,,157.5,90,Pro Juniors 20-23,M,B,Raw,,157.5,,1994
2,Dmitro Kuzmenko,Дмитро Кузьменко,Ukraine,86.7,,,,,140,152.5,157.5,-162.5,,,,,157.5,90,Pro Juniors 20-23,M,B,Raw,,157.5,,1992
3,Viktor Khimich,Віктор Хіміч,Ukraine,88.25,,,,,125,-135,135,,,,,,135,90,Pro Juniors 20-23,M,B,Raw,,135,,1992
4,Evgen Buynovskiy,Євген Буйновський,Ukraine,86.5,,,,,-120,120,-130,,,,,,120,90,Pro Juniors 20-23,M,B,Raw,,120,,1992
1,Sergiy Kovalchuk,Сергій Ковальчук,Ukraine,98.15,,,,,190,-200,-200,,,,,,190,100,Pro Juniors 20-23,M,B,Raw,,190,,1993
2,Bogdan Lobok,Богдан Лобок,Ukraine,95.85,,,,,140,162.5,-170,,,,,,162.5,100,Pro Juniors 20-23,M,B,Raw,,162.5,,1993
1,Oleksandr Zhariy,Олександр Жарий,Ukraine,59.6,,,,,117.5,122.5,125,,,,,,125,60,Pro Open,M,B,Raw,,125,,1972
1,Orhan Maisarov,,Azerbaijan,72.65,,,,,140,150,-155,,,,,,150,75,Pro Open,M,B,Raw,,150,,1994
1,Anton Morozov,Антон Морозов,Ukraine,79.75,,,,,120,130,-135,,,,,,130,82.5,Pro Open,M,B,Raw,,130,,1987
1,Volodimir Galiga,Володимир Галига,Ukraine,89.9,,,,,185,192.5,200,,,,,,200,90,Pro Open,M,B,Raw,,200,,1983
2,Dawid Kijewski,,Poland,87.1,,,,,165,175,180,,,,,,180,90,Pro Open,M,B,Raw,,180,,1988
3,Danilo Shmatovskiy,Данило Шматовський,Ukraine,88.85,,,,,-180,180,-192.5,,,,,,180,90,Pro Open,M,B,Raw,,180,,1983
4,Oleksandr Shapovalov,Олександр Шаповалов,Ukraine,88.85,,,,,180,-190,-190,,,,,,180,90,Pro Open,M,B,Raw,,180,,1990
5,Boris Stashuk,Борис Сташук,Ukraine,87.9,,,,,150,170,-180,,,,,,170,90,Pro Open,M,B,Raw,,170,,1985
6,Andriy Muntyan,Андрій Мунтян,Ukraine,89.65,,,,,130,-140,-140,,,,,,130,90,Pro Open,M,B,Raw,,130,,1992
1,Oleg Bazilevich,Олег Базилевич,Ukraine,99,,,,,240,250,-262.5,,,,,,250,100,Pro Open,M,B,Raw,,250,,1982
2,Roman Tsauk,Роман Цаук,Ukraine,94.1,,,,,210,220,225,,,,,,225,100,Pro Open,M,B,Raw,,225,,1983
3,Evgen Menesenko,Євген Менесенко,Ukraine,94.55,,,,,220,-230,-230,,,,,,220,100,Pro Open,M,B,Raw,,220,,1989
4,Sergiy Kovalchuk,Сергій Ковальчук,Ukraine,98.15,,,,,190,-200,-200,,,,,,190,100,Pro Open,M,B,Raw,,190,,1993
5,Vitaliy Vovk,Віталій Вовк,Ukraine,96.95,,,,,175,182.5,185,,,,,,185,100,Pro Open,M,B,Raw,,185,,1975
6,Maksim Medvid,Максим Медвідь,Ukraine,98.25,,,,,175,-185,-185,,,,,,175,100,Pro Open,M,B,Raw,,175,,1988
7,Mikola Rubik,Микола Рубік,Ukraine,98.55,,,,,165,-170,170,,,,,,170,100,Pro Open,M,B,Raw,,170,,1972
8,Evgen Nikitenko,Євген Нікітенко,Ukraine,96.8,,,,,162.5,-170,-170,,,,,,162.5,100,Pro Open,M,B,Raw,,162.5,,1992
9,Petro Martinyuk,Петро Мартинюк,Ukraine,98.5,,,,,150,-160,-160,,,,,,150,100,Pro Open,M,B,Raw,,150,,1987
DQ,Evgen Aleksienko,Євген Алексієнко,Ukraine,96,,,,,-210,,,,,,,,,100,Pro Open,M,B,Raw,,,,1976
1,Volodimir Karandeev,Володимир Карандєєв,Ukraine,104.5,,,,,150,160,167.5,,,,,,167.5,110,Pro Open,M,B,Raw,,167.5,,1974
DQ,Igor Vinyarskiy,Ігор Вінярський,Ukraine,106,,,,,-180,,,,,,,,,110,Pro Open,M,B,Raw,,,,1983
DQ,Oleg Palamarchuk,Олег Паламарчук,Ukraine,108.35,,,,,-210,-210,,,,,,,,110,Pro Open,M,B,Raw,,,,1972
1,Dmitro Sarkits,Дмитро Саркіц,Ukraine,119.75,,,,,-185,192.5,200,,,,,,200,125,Pro Open,M,B,Raw,,200,,1974
2,Ruslan Gutnev,Руслан Гутнєв,Ukraine,111.65,,,,,180,190,-192.5,,,,,,190,125,Pro Open,M,B,Raw,,190,,1991
3,Andriy Goncharuk,Андрій Гончарук,Ukraine,124.25,,,,,190,-200,-200,,,,,,190,125,Pro Open,M,B,Raw,,190,,1988
1,Roman Tsauk,Роман Цаук,Ukraine,94.1,,,,,210,220,225,,,,,,225,100,Pro Submasters 33-39,M,B,Raw,,225,,1983
2,Viktor Seredyuk,Віктор Середюк,Ukraine,98.95,,,,,160,-165,165,,,,,,165,100,Pro Submasters 33-39,M,B,Raw,,165,,1977
1,Oleksandr Zhariy,Олександр Жарий,Ukraine,59.6,,,,,117.5,122.5,125,,,,,,125,60,Pro Masters 40-44,M,B,Raw,,125,,1972
1,Oleksandr Popovich,Олександр Попович,Ukraine,74.9,,,,,125,137.5,142.5,145,,,,,142.5,75,Pro Masters 40-44,M,B,Raw,,142.5,,1972
1,Oleksandr Ploskiy,Олександр Плоский,Ukraine,88,,,,,160,-167.5,,,,,,,160,90,Pro Masters 40-44,M,B,Raw,,160,,1974
1,Vitaliy Vovk,Віталій Вовк,Ukraine,96.95,,,,,175,182.5,185,,,,,,185,100,Pro Masters 40-44,M,B,Raw,,185,,1975
2,Mikola Rubik,Микола Рубік,Ukraine,98.55,,,,,165,-170,170,,,,,,170,100,Pro Masters 40-44,M,B,Raw,,170,,1972
1,Dmitro Chebakov,Дмитро Чебаков,Ukraine,101.35,,,,,160,167.5,-172.5,,,,,,167.5,110,Pro Masters 40-44,M,B,Raw,,167.5,,1973
2,Volodimir Karandeev,Володимир Карандєєв,Ukraine,104.5,,,,,150,160,167.5,,,,,,167.5,110,Pro Masters 40-44,M,B,Raw,,167.5,,1974
DQ,Oleg Palamarchuk,Олег Паламарчук,Ukraine,108.35,,,,,-210,-210,,,,,,,,110,Pro Masters 40-44,M,B,Raw,,,,1972
1,Dmitro Sarkits,Дмитро Саркіц,Ukraine,119.75,,,,,-185,192.5,200,,,,,,200,125,Pro Masters 40-44,M,B,Raw,,200,,1974
2,Igor Klim,Ігор Клім,Ukraine,122.85,,,,,95,102.5,-107.5,,,,,,102.5,125,Pro Masters 40-44,M,B,Raw,,102.5,,1971
DQ,Oleksandr Plokhoy,Олександр Плохой,Ukraine,74.7,,,,,-120,-120,-120,,,,,,,75,Pro Masters 45-49,M,B,Raw,,,,1970
1,Viktor Viplaven,Віктор Виплавень,Ukraine,96,,,,,155,162.5,-170,,,,,,162.5,100,Pro Masters 45-49,M,B,Raw,,162.5,,1970
1,Oleksandr Fedorov,Олександр Федоров,Ukraine,104.8,,,,,115,120,125,,,,,,125,110,Pro Masters 45-49,M,B,Raw,,125,,1969
1,Vitaliy Kostyuk,Віталій Костюк,Ukraine,99.55,,,,,145,150,-155,,,,,,150,100,Pro Masters 50-54,M,B,Raw,,150,,1964
1,Mikhaylo Geenko,Михайло Геєнко,Ukraine,107.45,,,,,-160,160,-165,,,,,,160,110,Pro Masters 50-54,M,B,Raw,,160,,1963
2,Sergiy Denyak,Сергій Деняк,Ukraine,102.8,,,,,140,145,-150,,,,,,145,110,Pro Masters 50-54,M,B,Raw,,145,,1966
1,Oleksandr Popovich,Олександр Попович,Ukraine,74.9,,,,,125,137.5,142.5,145,,,,,142.5,75,Pro Military/Fire/Police,M,B,Raw,,142.5,,1972
1,Oleksandr Ploskiy,Олександр Плоский,Ukraine,88,,,,,160,-167.5,,,,,,,160,90,Pro Military/Fire/Police,M,B,Raw,,160,,1974
2,Yuriy Mironets,Юрій Миронець,Ukraine,86.45,,,,,110,120,-135,,,,,,120,90,Pro Military/Fire/Police,M,B,Raw,,120,,1990
1,Roman Rusin,Роман Русин,Ukraine,94.45,,,,,-127.5,135,-140,,,,,,135,100,Pro Military/Fire/Police,M,B,Raw,,135,,1992
1,Sergiy Denyak,Сергій Деняк,Ukraine,102.8,,,,,140,145,-150,,,,,,145,110,Pro Military/Fire/Police,M,B,Raw,,145,,1966
1,Olena Shcherbinina,Олена Щербініна,Ukraine,58.95,,,,,-60,62.5,65,,,,,,65,60,Pro Open,F,B,Raw,,65,,1982
1,Olena Shcherbinina,Олена Щербініна,Ukraine,58.95,,,,,-60,62.5,65,,,,,,65,60,Pro Submasters 33-39,F,B,Raw,,65,,1982
1,Vitaliy Menchuk,Віталій Менчук,Ukraine,85.95,,,,,-160,160,177.5,,,,,,177.5,90,Amateur Teen 16-17,M,B,Multi-ply,,177.5,,1998
1,Mikhaylo Malkush,Михайло Малкуш,Ukraine,56.95,,,,,122.5,-127.5,127.5,,,,,,127.5,60,Amateur Teen 18-19,M,B,Multi-ply,,127.5,,1996
1,Gennadiy Popov,Геннадій Попов,Ukraine,84,,,,,200,215,-220,,,,,,215,90,Amateur Juniors 20-23,M,B,Multi-ply,,215,,1994
1,Andriy Krakovskiy,Андрій Краковський,Ukraine,81.4,,,,,165,172.5,180,,,,,,180,82.5,Amateur Open,M,B,Multi-ply,,180,,1988
1,Gennadiy Popov,Геннадій Попов,Ukraine,84,,,,,200,215,-220,,,,,,215,90,Amateur Open,M,B,Multi-ply,,215,,1994
DD,Nazariy Perkhulin,Назарій Перхулін,Ukraine,89,,,,,195,-210,-210,,,,,,,90,Amateur Open,M,B,Multi-ply,,195,,1988
1,Oleksandr Shvab,Олександр Шваб,Ukraine,126,,,,,-180,-180,180,,,,,,180,140,Amateur Open,M,B,Multi-ply,,180,,1976
1,Oleksandr Shvab,Олександр Шваб,Ukraine,126,,,,,-180,-180,180,,,,,,180,140,Amateur Submasters 33-39,M,B,Multi-ply,,180,,1976
1,Dmitro Dushok,Дмитро Душок,Ukraine,87.4,,,,,130,135,140,,,,,,140,90,Pro Teen 16-17,M,B,Multi-ply,,140,,1999
1,Sergiy Kovalchuk,Сергій Ковальчук,Ukraine,98.15,,,,,225,-232.5,232.5,,,,,,232.5,100,Pro Juniors 20-23,M,B,Multi-ply,,232.5,,1993
1,Roman Pelikh,Роман Пелих,Ukraine,74.9,,,,,220,230,-245,,,,,,230,75,Pro Open,M,B,Multi-ply,,230,,1985
1,Igor Andrusik,Ігор Андрусик,Ukraine,79.15,,,,,180,-190,190,,,,,,190,82.5,Pro Open,M,B,Multi-ply,,190,,1988
2,Volodimir Kovalenko,Володимир Коваленко,Ukraine,76.4,,,,,150,155,-160,,,,,,155,82.5,Pro Open,M,B,Multi-ply,,155,,1985
1,Dmitro Lomeyko,Дмитро Ломейко,Ukraine,90,,,,,260,270,-280,,,,,,270,90,Pro Open,M,B,Multi-ply,,270,,1983
DQ,Dmitro Gavrilyuk,Дмитро Гаврилюк,Ukraine,89,,,,,-160,,,,,,,,,90,Pro Open,M,B,Multi-ply,,,,1989
1,Sergiy Kovalchuk,Сергій Ковальчук,Ukraine,98.15,,,,,225,-232.5,232.5,,,,,,232.5,100,Pro Open,M,B,Multi-ply,,232.5,,1993
2,Volodimir Migas,Володимир Мигас,Ukraine,93.1,,,,,-230,230,-242.5,,,,,,230,100,Pro Open,M,B,Multi-ply,,230,,1975
1,Andriy Prikhodko,Андрій Приходько,Ukraine,109.4,,,,,250,-270,,,,,,,250,110,Pro Open,M,B,Multi-ply,,250,,1981
1,Valeriy Ternov,Валерій Тернов,Ukraine,115,,,,,300,305,-310,,,,,,305,125,Pro Open,M,B,Multi-ply,,305,,1973
2,Andriy Petrushko,Андрій Петрушко,Ukraine,116.9,,,,,205,210,217.5,,,,,,217.5,125,Pro Open,M,B,Multi-ply,,217.5,,1984
1,Volodimir Migas,Володимир Мигас,Ukraine,93.1,,,,,-230,230,-242.5,,,,,,230,100,Pro Masters 40-44,M,B,Multi-ply,,230,,1975
1,Valeriy Ternov,Валерій Тернов,Ukraine,115,,,,,300,305,-310,,,,,,305,125,Pro Masters 40-44,M,B,Multi-ply,,305,,1973
1,Dem'Yan Karandeev,Дем'Ян Карандєєв,Ukraine,44,,,,,,,,,40,50,60,,60,44,Amateur Children 10,M,D,Raw,,,60,2005
1,Yaroslav Prokopenko,Ярослав Прокопенко,Ukraine,71.4,,,,,,,,,110,120,135,,135,75,Amateur Teen 13-15,M,D,Raw,,,135,2001
1,Mikhaylo Yurchenko,Михайло Юрченко,Ukraine,73.5,,,,,,,,,210,-225,225,,225,75,Amateur Teen 16-17,M,D,Raw,,,225,1999
2,Nazar Sokol,Назар Сокол,Ukraine,71.85,,,,,,,,,155,165,-175,,165,75,Amateur Teen 16-17,M,D,Raw,,,165,1998
1,Dmitro Valchevskiy,Дмитро Вальчевський,Ukraine,80.1,,,,,,,,,202.5,-215,-215,,202.5,82.5,Amateur Teen 16-17,M,D,Raw,,,202.5,1998
2,Petro Kraynik,Петро Крайник,Ukraine,81.1,,,,,,,,,190,202.5,-210,,202.5,82.5,Amateur Teen 16-17,M,D,Raw,,,202.5,1998
3,Bogdan Bushtryuk,Богдан Буштрюк,Ukraine,82.35,,,,,,,,,160,170,-180,,170,82.5,Amateur Teen 16-17,M,D,Raw,,,170,1998
1,Ivan Pogrebov,Іван Погребов,Ukraine,103.85,,,,,,,,,100,120,140,,140,110,Amateur Teen 16-17,M,D,Raw,,,140,1998
1,Valeriy Martinyuk,Валерій Мартинюк,Ukraine,72.4,,,,,,,,,180,195,205,,205,75,Amateur Teen 18-19,M,D,Raw,,,205,1997
2,Bogdan Foka,Богдан Фока,Ukraine,73.5,,,,,,,,,160,170,-195,,170,75,Amateur Teen 18-19,M,D,Raw,,,170,1997
1,Oleksandr Babiets,Олександр Бабієць,Ukraine,79.95,,,,,,,,,200,210,217.5,,217.5,82.5,Amateur Teen 18-19,M,D,Raw,,,217.5,1996
2,Oleksandr Bizin,Олександр Бизін,Ukraine,79.4,,,,,,,,,195,-205,-205,,195,82.5,Amateur Teen 18-19,M,D,Raw,,,195,1998
3,Oleksandr Kinash,Олександр Кінаш,Ukraine,81.55,,,,,,,,,-170,170,177.5,,177.5,82.5,Amateur Teen 18-19,M,D,Raw,,,177.5,1996
1,Evgeniy Golub,Євгеній Голуб,Ukraine,85.1,,,,,,,,,190,200,-210,,200,90,Amateur Teen 18-19,M,D,Raw,,,200,1996
1,Denis Lebed,Денис Лебедь,Ukraine,105.15,,,,,,,,,205,-215,215,,215,110,Amateur Teen 18-19,M,D,Raw,,,215,1997
1,Viktor Smichuk,Віктор Смичук,Ukraine,56,,,,,,,,,160,172.5,-175,,172.5,56,Amateur Juniors 20-23,M,D,Raw,,,172.5,1994
1,Vitaliy Senko,Віталій Сенько,Ukraine,66.6,,,,,,,,,-160,-167.5,167.5,,167.5,67.5,Amateur Juniors 20-23,M,D,Raw,,,167.5,1994
2,Vadim Bozhik,Вадим Божик,Ukraine,63.3,,,,,,,,,145,155,-165,,155,67.5,Amateur Juniors 20-23,M,D,Raw,,,155,1993
1,Sergiy Denisevich,Сергій Денисевич,Ukraine,69.45,,,,,,,,,180,195,200,,200,75,Amateur Juniors 20-23,M,D,Raw,,,200,1994
2,Oleksandr Mushinskiy,Олександр Мушинський,Ukraine,74.2,,,,,,,,,185,195,-202.5,,195,75,Amateur Juniors 20-23,M,D,Raw,,,195,1993
3,Anatoliy Martsenyuk,Анатолій Марценюк,Ukraine,73.75,,,,,,,,,160,165,175,,175,75,Amateur Juniors 20-23,M,D,Raw,,,175,1995
1,Igor Stasyuk,Игорь Стасюк,Ukraine,79.3,,,,,,,,,190,-202.5,-202.5,,190,82.5,Amateur Juniors 20-23,M,D,Raw,,,190,1992
1,Oleg Kulik,Олег Кулик,Ukraine,88.95,,,,,,,,,210,222.5,227.5,,227.5,90,Amateur Juniors 20-23,M,D,Raw,,,227.5,1995
2,Mikhaylo Kravchenya,Михайло Кравченя,Ukraine,88.6,,,,,,,,,200,210,-222.5,,210,90,Amateur Juniors 20-23,M,D,Raw,,,210,1992
3,Mikola Udovenko,Микола Удовенко,Ukraine,87.45,,,,,,,,,190,-200,-200,,190,90,Amateur Juniors 20-23,M,D,Raw,,,190,1993
1,Oleksiy Matlay,Олексій Матлай,Ukraine,96,,,,,,,,,200,237.5,250,,250,100,Amateur Juniors 20-23,M,D,Raw,,,250,1994
2,Dmitro Mironets,Дмитро Миронець,Ukraine,97.35,,,,,,,,,177.5,-195,197.5,,197.5,100,Amateur Juniors 20-23,M,D,Raw,,,197.5,1992
1,Andriy Fedora,Андрій Федора,Ukraine,107.3,,,,,,,,,240,250,-260,,250,110,Amateur Juniors 20-23,M,D,Raw,,,250,1995
1,Dem'Yan Karandeev,Дем'Ян Карандєєв,Ukraine,44,,,,,,,,,40,50,60,,60,44,Amateur Open,M,D,Raw,,,60,2005
1,Viktor Smichuk,Віктор Смичук,Ukraine,56,,,,,,,,,160,172.5,-175,,172.5,56,Amateur Open,M,D,Raw,,,172.5,1994
1,Vitaliy Senko,Віталій Сенько,Ukraine,66.6,,,,,,,,,-160,-167.5,167.5,,167.5,67.5,Amateur Open,M,D,Raw,,,167.5,1994
2,Vadim Bozhik,Вадим Божик,Ukraine,63.3,,,,,,,,,145,155,-165,,155,67.5,Amateur Open,M,D,Raw,,,155,1993
1,Pavlo Makarus,Павло Макарусь,Ukraine,71.3,,,,,,,,,215,222.5,232.5,,232.5,75,Amateur Open,M,D,Raw,,,232.5,1986
2,Sergiy Ostapchuk,Сергій Остапчук,Ukraine,74.25,,,,,,,,,180,195,205,,205,75,Amateur Open,M,D,Raw,,,205,1983
3,Oleksandr Volkov,Олександр Волков,Ukraine,73.25,,,,,,,,,195,200,,,200,75,Amateur Open,M,D,Raw,,,200,1985
4,Sergiy Kindyuk,Сергій Кіндюк,Ukraine,72.65,,,,,,,,,190,-200,-200,,190,75,Amateur Open,M,D,Raw,,,190,1988
5,Anatoliy Martsenyuk,Анатолій Марценюк,Ukraine,73.75,,,,,,,,,160,165,175,,175,75,Amateur Open,M,D,Raw,,,175,1995
6,Roman Druzyuk,Роман Друзюк,Ukraine,74.5,,,,,,,,,110,125,135,,135,75,Amateur Open,M,D,Raw,,,135,1979
1,Roman Medvedchuk,Роман Медведчук,Ukraine,82.5,,,,,,,,,235,250,-260,,250,82.5,Amateur Open,M,D,Raw,,,250,1981
2,Taras Smachilo,Тарас Смачило,Ukraine,80.4,,,,,,,,,185,195,-202.5,,195,82.5,Amateur Open,M,D,Raw,,,195,1987
3,Vadim Doroshenko,Вадим Дорошенко,Ukraine,75.9,,,,,,,,,170,185,190,,190,82.5,Amateur Open,M,D,Raw,,,190,1990
1,Oleksandr Lisovskiy,Олександр Лісовський,Ukraine,89,,,,,,,,,250,260,-265,,260,90,Amateur Open,M,D,Raw,,,260,1990
2,Volodimir Tsibulskiy,Володимир Цибульський,Ukraine,86.1,,,,,,,,,230,-250,250,,250,90,Amateur Open,M,D,Raw,,,250,1986
3,Viktor Blakitniy,Віктор Блакитний,Ukraine,84.95,,,,,,,,,210,225,240,,240,90,Amateur Open,M,D,Raw,,,240,1981
4,Boris Stashuk,Борис Сташук,Ukraine,87.9,,,,,,,,,220,240,-250,,240,90,Amateur Open,M,D,Raw,,,240,1985
5,Boris Kovalenko,Борис Коваленко,Ukraine,88.05,,,,,,,,,200,210,-215,,210,90,Amateur Open,M,D,Raw,,,210,1983
1,Oleksandr Dmitriev,Олександр Дмитрієв,Ukraine,97.1,,,,,,,,,225,235,-245,,235,100,Amateur Open,M,D,Raw,,,235,1987
2,Vadim Omelchuk,Вадим Омельчук,Ukraine,93.35,,,,,,,,,190,210,222.5,,222.5,100,Amateur Open,M,D,Raw,,,222.5,1989
3,Andriy Tupchiy,Андрій Тупчій,Ukraine,94.2,,,,,,,,,200,210,222.5,,222.5,100,Amateur Open,M,D,Raw,,,222.5,1987
1,Anatoliy Shostatskyy,Анатолій Шостацький,Ukraine,101.25,,,,,,,,,230,245,260,,260,110,Amateur Open,M,D,Raw,,,260,1981
2,Pavlo Mishchuk,Павло Міщук,Ukraine,107.1,,,,,,,,,247.5,260,-265,,260,110,Amateur Open,M,D,Raw,,,260,1988
3,Vitaliy Kolinko,Віталій Колінько,Ukraine,106.9,,,,,,,,,-220,-220,235,,235,110,Amateur Open,M,D,Raw,,,235,1990
4,Ivan Ilchenko,Іван Ільченко,Ukraine,108.25,,,,,,,,,210,220,230,,230,110,Amateur Open,M,D,Raw,,,230,1988
1,Vadim Tikhonov,Вадим Тихонов,Ukraine,116.45,,,,,,,,,250,270,-300,,270,125,Amateur Open,M,D,Raw,,,270,1985
2,Oleksiy Voychek,Олексій Войчек,Ukraine,122.75,,,,,,,,,245,-260,,,245,125,Amateur Open,M,D,Raw,,,245,1984
3,Igor Golovko,Ігор Головко,Ukraine,121.4,,,,,,,,,210,230,-250,,230,125,Amateur Open,M,D,Raw,,,230,1983
4,Danilo Udovik,Данило Удовик,Ukraine,110.4,,,,,,,,,180,200,-210,,200,125,Amateur Open,M,D,Raw,,,200,1992
1,Roman Medvedchuk,Роман Медведчук,Ukraine,82.5,,,,,,,,,235,250,-260,,250,82.5,Amateur Submasters 33-39,M,D,Raw,,,250,1981
1,Anatoliy Shostatskyy,Анатолій Шостацький,Ukraine,101.25,,,,,,,,,230,245,260,,260,110,Amateur Submasters 33-39,M,D,Raw,,,260,1981
1,Igor Golovko,Ігор Головко,Ukraine,121.4,,,,,,,,,210,230,-250,,230,125,Amateur Submasters 33-39,M,D,Raw,,,230,1983
1,Oleg Vashchuk,Олег Ващук,Ukraine,98.25,,,,,,,,,200,-210,,,200,100,Amateur Masters 40-44,M,D,Raw,,,200,1972
1,Volodimir Andreev,Володимир Андреєв,Ukraine,103.95,,,,,,,,,160,,,,160,110,Amateur Masters 40-44,M,D,Raw,,,160,1973
1,Vyacheslav Bulgakov,Вячеслав Булгаков,Ukraine,81.05,,,,,,,,,157.5,165,170,,170,82.5,Amateur Masters 45-49,M,D,Raw,,,170,1966
1,Igor Zubarev,Ігор Зубарєв,Ukraine,74.5,,,,,,,,,70,92.5,100,,100,75,Amateur Masters 70-74,M,D,Raw,,,100,1941
1,Oleksandr Skripilov,Олександр Скрипільов,Ukraine,97.8,,,,,,,,,230,245,250,,250,100,Amateur Military/Fire/Police,M,D,Raw,,,250,1992
1,Igor Golovko,Ігор Головко,Ukraine,121.4,,,,,,,,,210,230,-250,,230,125,Amateur Military/Fire/Police,M,D,Raw,,,230,1983
1,Alina Klimchuk,Аліна Климчук,Ukraine,52,,,,,,,,,90,100,-110,,100,52,Amateur Teen 13-15,F,D,Raw,,,100,2000
DQ,Mariya Soltisyak,Марія Солтисяк,Ukraine,54.4,,,,,,,,,-80,-80,-80,,,56,Amateur Teen 16-17,F,D,Raw,,,,1998
1,Karina Chepurna,Каріна Чепурна,Ukraine,58.85,,,,,,,,,115,120,125,,125,60,Amateur Teen 16-17,F,D,Raw,,,125,1998
1,Khristina Kashuba,Христина Кашуба,Ukraine,50.6,,,,,,,,,50,60,-70,,60,52,Amateur Teen 18-19,F,D,Raw,,,60,1996
1,Yuliya Ruzhitska,Юлія Ружицька,Ukraine,54.6,,,,,,,,,105,115,117.5,,117.5,56,Amateur Teen 18-19,F,D,Raw,,,117.5,1997
1,Lyudmila Sus,Людмила Сус,Ukraine,59,,,,,,,,,110,120,125,,125,60,Amateur Teen 18-19,F,D,Raw,,,125,1997
DQ,Nadiya Shvets,Надія Швець,Ukraine,58.1,,,,,,,,,-80,-80,-80,,,60,Amateur Teen 18-19,F,D,Raw,,,,1996
1,Vitaliya Tonisheva,Віталія Тонишева,Ukraine,46.9,,,,,,,,,85,95,105,,105,48,Amateur Open,F,D,Raw,,,105,1990
1,Mariya Kosolapova,Марія Косолапова,Ukraine,50.5,,,,,,,,,90,100,110,,110,52,Amateur Open,F,D,Raw,,,110,1985
2,Svitlana Melnichuk,Світлана Мельничук,Ukraine,52,,,,,,,,,90,100,-110,,100,52,Amateur Open,F,D,Raw,,,100,1991
1,Olga Yarmolyuk,Ольга Ярмолюк,Ukraine,55.15,,,,,,,,,115,125,135,,135,56,Amateur Open,F,D,Raw,,,135,1989
2,Olga Skorokhodova,Ольга Скороходова,Ukraine,56,,,,,,,,,115,125,-130,,125,56,Amateur Open,F,D,Raw,,,125,1980
3,Yuliya Ruzhitska,Юлія Ружицька,Ukraine,54.6,,,,,,,,,105,115,117.5,,117.5,56,Amateur Open,F,D,Raw,,,117.5,1997
4,Armine Sargsyan,Арміне Саргсян,Ukraine,53.4,,,,,,,,,97.5,100,105,,105,56,Amateur Open,F,D,Raw,,,105,1981
5,Oleksandra Peleshok,Олександра Пелешок,Ukraine,55.15,,,,,,,,,87.5,-97.5,97.5,,97.5,56,Amateur Open,F,D,Raw,,,97.5,1991
DQ,Mariya Soltisyak,Марія Солтисяк,Ukraine,54.4,,,,,,,,,-80,-80,-80,,,56,Amateur Open,F,D,Raw,,,,1998
1,Lyudmila Sus,Людмила Сус,Ukraine,59,,,,,,,,,110,120,125,,125,60,Amateur Open,F,D,Raw,,,125,1997
1,Oksana Muzika,Оксана Музика,Ukraine,66.5,,,,,,,,,105,115,,,115,67.5,Amateur Open,F,D,Raw,,,115,1969
1,Tetyana Khomyak,Тетяна Хомяк,Ukraine,74.7,,,,,,,,,90,100,110,,110,75,Amateur Open,F,D,Raw,,,110,1979
1,Svitlana Perebeynos,Світлана Перебейнос,Ukraine,78.45,,,,,,,,,122.5,132.5,137.5,,137.5,82.5,Amateur Open,F,D,Raw,,,137.5,1988
1,Armine Sargsyan,Арміне Саргсян,Ukraine,53.4,,,,,,,,,97.5,100,105,,105,56,Amateur Submasters 33-39,F,D,Raw,,,105,1981
1,Oksana Muzika,Оксана Музика,Ukraine,66.5,,,,,,,,,105,115,,,115,67.5,Amateur Masters 45-49,F,D,Raw,,,115,1969
1,Maksim Samoylenko,Максим Самойленко,Ukraine,97.55,,,,,,,,,272.5,285,-300,,285,100,Pro Teen 18-19,M,D,Raw,,,285,1998
1,Kostyantin Barkov,Костянтин Барков,Ukraine,107.05,,,,,,,,,280,310,-320,,310,110,Pro Teen 18-19,M,D,Raw,,,310,1996
1,Oleksiy Stolyarenko,Олексій Столяренко,Ukraine,113,,,,,,,,,200,215,230,,230,125,Pro Teen 18-19,M,D,Raw,,,230,1996
1,Danilo Ivankiv,Данило Іванків,Ukraine,80.1,,,,,,,,,210,220,-235,,220,82.5,Pro Juniors 20-23,M,D,Raw,,,220,1995
1,Dmitro Kuzmenko,Дмитро Кузьменко,Ukraine,86.7,,,,,,,,,200,-210,210,,210,90,Pro Juniors 20-23,M,D,Raw,,,210,1992
2,Oleksandr Fedoriv,Олександр Федорів,Ukraine,87.6,,,,,,,,,190,200,-210,,200,90,Pro Juniors 20-23,M,D,Raw,,,200,1993
3,Evgen Buynovskiy,Євген Буйновський,Ukraine,86.5,,,,,,,,,160,170,180,,180,90,Pro Juniors 20-23,M,D,Raw,,,180,1992
1,Bogdan Lobok,Богдан Лобок,Ukraine,95.85,,,,,,,,,230,-260,-270,,230,100,Pro Juniors 20-23,M,D,Raw,,,230,1993
1,Yaroslav Litvinenko,Ярослав Литвиненко,Ukraine,88.95,,,,,,,,,275,285,-290,,285,90,Pro Open,M,D,Raw,,,285,1976
2,Vyacheslav Kravchenko,Вячеслав Кравченко,Ukraine,89.9,,,,,,,,,255,272.5,-287.5,,272.5,90,Pro Open,M,D,Raw,,,272.5,1969
3,Andriy Muntyan,Андрій Мунтян,Ukraine,89.65,,,,,,,,,-190,190,210,,210,90,Pro Open,M,D,Raw,,,210,1992
1,Maksim Samoylenko,Максим Самойленко,Ukraine,97.55,,,,,,,,,272.5,285,-300,,285,100,Pro Open,M,D,Raw,,,285,1998
2,Evgen Nastenko,Євген Настенко,Ukraine,95.15,,,,,,,,,250,-285,-285,,250,100,Pro Open,M,D,Raw,,,250,1991
3,Viktor Rublyov,Віктор Рубльов,Ukraine,98.45,,,,,,,,,230,245,-260,,245,100,Pro Open,M,D,Raw,,,245,1975
4,Bogdan Lobok,Богдан Лобок,Ukraine,95.85,,,,,,,,,230,-260,-270,,230,100,Pro Open,M,D,Raw,,,230,1993
1,Sergiy Yaromenko,Сергій Яроменко,Ukraine,105.55,,,,,,,,,210,230,245,,245,110,Pro Open,M,D,Raw,,,245,1984
2,Volodimir Karandeev,Володимир Карандєєв,Ukraine,104.5,,,,,,,,,-192.5,192.5,,,192.5,110,Pro Open,M,D,Raw,,,192.5,1974
1,Andriy Goncharuk,Андрій Гончарук,Ukraine,124.25,,,,,,,,,305,320,-330,,320,125,Pro Open,M,D,Raw,,,320,1988
1,Yaroslav Litvinenko,Ярослав Литвиненко,Ukraine,88.95,,,,,,,,,275,285,-290,,285,90,Pro Submasters 33-39,M,D,Raw,,,285,1976
1,Viktor Rublyov,Віктор Рубльов,Ukraine,98.45,,,,,,,,,230,245,-260,,245,100,Pro Masters 40-44,M,D,Raw,,,245,1975
1,Volodimir Karandeev,Володимир Карандєєв,Ukraine,104.5,,,,,,,,,-192.5,192.5,,,192.5,110,Pro Masters 40-44,M,D,Raw,,,192.5,1974
1,Oleksandr Plokhoy,Олександр Плохой,Ukraine,74.7,,,,,,,,,160,170,180,,180,75,Pro Masters 45-49,M,D,Raw,,,180,1970
1,Vyacheslav Kravchenko,Вячеслав Кравченко,Ukraine,89.9,,,,,,,,,255,272.5,-287.5,,272.5,90,Pro Masters 45-49,M,D,Raw,,,272.5,1969
1,Yuriy Mironets,Юрій Миронець,Ukraine,86.45,,,,,,,,,150,-165,170,,170,90,Pro Military/Fire/Police,M,D,Raw,,,170,1990
1,Bogdan Lobok,Богдан Лобок,Ukraine,95.85,,,,,,,,,230,-260,-270,,230,100,Pro Military/Fire/Police,M,D,Raw,,,230,1993
2,Roman Rusin,Роман Русин,Ukraine,94.45,,,,,,,,,-160,170,180,,180,100,Pro Military/Fire/Police,M,D,Raw,,,180,1992
1,Olena Shcherbinina,Олена Щербініна,Ukraine,58.95,,,,,,,,,105,110,115,,115,60,Pro Open,F,D,Raw,,,115,1982
1,Olena Shcherbinina,Олена Щербініна,Ukraine,58.95,,,,,,,,,105,110,115,,115,60,Pro Submasters 33-39,F,D,Raw,,,115,1982
1,Oleksandr Mushinskiy,Олександр Мушинський,Ukraine,74.2,,,,,,,,,185,200,210,,210,75,Amateur Juniors 20-23,M,D,Multi-ply,,,210,1993
1,Yuriy Maligin,Юрій Малигін,Ukraine,103.9,,,,,,,,,180,-200,,,180,110,Amateur Masters 45-49,M,D,Multi-ply,,,180,1967
1,Inna Yudina,Інна Юдіна,Ukraine,75,,,,,,,,,145,155,-165,,155,75,Amateur Open,F,D,Multi-ply,,,155,1978
1,Dmitro Dushok,Дмитро Душок,Ukraine,87.4,,,,,,,,,190,200,-210,,200,90,Pro Teen 16-17,M,D,Multi-ply,,,200,1999
1,Igor Andrusik,Ігор Андрусик,Ukraine,79.15,,,,,,,,,240,260,275,,275,82.5,Pro Open,M,D,Multi-ply,,,275,1988
2,Volodimir Kovalenko,Володимир Коваленко,Ukraine,76.4,,,,,,,,,225,240,-247.5,,240,82.5,Pro Open,M,D,Multi-ply,,,240,1985
1,Dawid Kijewski,,Poland,87.1,,,,,,,,,190,200,210,,210,90,Pro Open,M,D,Multi-ply,,,210,1988
