Place,Name,CyrillicName,WeightClassKg,Tested,Event,Equipment,Sex,BirthDate,Division,BodyweightKg,Squat1Kg,Squat2Kg,Squat3Kg,Best3SquatKg,Bench1Kg,Bench2Kg,Bench3Kg,Best3BenchKg,Deadlift1Kg,Deadlift2Kg,Deadlift3Kg,Best3DeadliftKg,TotalKg
1,Ruslan Garibov,Руслан Гарибов,90,Yes,SBD,Wraps,M,1995-04-19,Amateur Juniors 20-23,89.4,180,200,215,215,120,-130,-130,120,180,200,210,210,545
1,Vladislava Khoda,Владислава Хода,44,Yes,SBD,Raw,F,2002-05-26,Amateur Teen 13-15,42.5,40,-45,45,45,25,30,-32.5,30,60,70,-80,70,145
1,Tatyana Denisova,Татьяна Денисова,52,Yes,SBD,Raw,F,1987-01-28,Amateur Open,51.1,105,110,-115,110,50,52.5,55,55,130,-140,140,140,305
1,Alina Kufeld,Алина Куфельд,56,Yes,SBD,Raw,F,1991-04-10,Amateur Open,55.8,105,-112.5,-115,105,62.5,-65,-65,62.5,110,-125,-125,110,277.5
1,Mariya Zhuravleva,Мария Журавлева,67.5,Yes,SBD,Raw,F,1993-09-01,Amateur Juniors 20-23,66.4,110,-120,120,120,70,72.5,-75,72.5,120,130,-140,130,322.5
1,Marina Guseva,Марина Гусева,67.5,Yes,SBD,Raw,F,1986-07-05,Amateur Open,64,75,-80,82.5,82.5,45,50,-55,50,85,95,100,100,232.5
1,Aleksandr Mikheev,Александр Михеев,52,Yes,SBD,Raw,M,2001-02-19,Amateur Teen 13-15,50.1,105,112.5,115,115,70,75,77.5,77.5,135,147.5,-152.5,147.5,340
2,Andrey Petukhov,Андрей Петухов,52,Yes,SBD,Raw,M,2001-02-23,Amateur Teen 13-15,50.2,90,100,-105,100,60,65,-70,65,110,125,137.5,137.5,302.5
1,Anatoliy Yankovskiy,Анатолий Янковский,60,Yes,SBD,Raw,M,1993-04-28,Amateur Juniors 20-23,57.5,75,80,85,85,65,-70,70,70,100,110,-115,110,265
1,Mikhail Obedkov,Михаил Объедков,75,Yes,SBD,Raw,M,1997-07-25,Amateur Teen 18-19,73.7,160,180,-185,180,100,107.5,112.5,112.5,190,-200,,190,482.5
1,Evgeniy Bykov,Евгений Быков,75,Yes,SBD,Raw,M,1984-08-02,Amateur Open,75,175,185,195,195,120,130,137.5,137.5,200,225,237.5,237.5,570
1,Ramil Samigullin,Рамиль Самигуллин,75,Yes,SBD,Raw,M,1961-02-24,Amateur Masters 55-59,74.3,165,-172.5,178,178,105,110,112.5,112.5,165,170,177.5,177.5,467.5
1,Gennadiy Chuldenko,Геннадий Чулденко,75,Yes,SBD,Raw,M,1948-07-04,Amateur Masters 65-69,75,145,155,160,160,40,-50,,40,180,195,205,205,405
1,Vladislav Ranyuk,Владислав Ранюк,82.5,Yes,SBD,Raw,M,1997-05-18,Amateur Teen 18-19,81.5,-180,-190,190,190,-100,105,110,110,200,210,-215,210,510
1,Dmitriy Prokopenko,Дмитрий Прокопенко,82.5,Yes,SBD,Raw,M,1993-04-16,Amateur Juniors 20-23,81.4,192.5,202.5,207.5,207.5,122.5,127.5,132.5,132.5,220,227.5,240,240,580
DQ,Artem Kudosov,Артем Кудосов,82.5,Yes,SBD,Raw,M,1984-01-29,Amateur Open,81.2,-175,,,,,,,,,,,,
1,Evgeniy Afanasev,Евгений Афанасьев,90,Yes,SBD,Raw,M,1980-09-22,Amateur Open,89.6,-180,185,190,190,150,157.5,160,160,232.5,245,250,250,600
2,Zakhar Permyakov,Захар Пермяков,90,Yes,SBD,Raw,M,1987-02-14,Amateur Open,88.8,205,215,-222.5,215,125,135,142.5,142.5,220,-240,-240,220,577.5
3,Aleksandr Ryabovolov,Александр Рябоволов,90,Yes,SBD,Raw,M,1989-01-25,Amateur Open,85,170,180,190,190,125,135,-145,135,-180,180,200,200,525
4,Anton Iordan,Антон Иордан,90,Yes,SBD,Raw,M,1987-03-07,Amateur Open,90,170,180,-200,180,125,135,-137.5,135,170,190,-200,190,505
1,Viktor Shinkarev,Виктор Шинкарев,90,Yes,SBD,Raw,M,1971-04-24,Amateur Masters 45-49,85.5,140,145,150,150,100,107.5,110,110,170,180,185,185,445
2,Dmitriy Pisarenko,Дмитрий Писаренко,90,Yes,SBD,Raw,M,1968-05-28,Amateur Masters 45-49,89,130,140,150,150,95,105,110,110,140,155,170,170,430
1,Maksim Prachikov,Максим Прачиков,100,Yes,SBD,Raw,M,1998-10-08,Amateur Teen 18-19,95.1,190,210,-215,210,120,135,140,140,200,217.5,-220,217.5,567.5
1,Sergey Vishnyakov,Сергей Вишняков,100,Yes,SBD,Raw,M,1987-01-30,Amateur Open,99.8,220,-225,-225,220,150,155,160,160,240,255,-265,255,635
1,Konstantin Panchenko,Константин Панченко,110,Yes,SBD,Raw,M,1980-05-30,Amateur Open,109.1,210,230,-245,230,155,165,-170,165,220,240,-255,240,635
1,Ivan Lazovskiy,Иван Лазовский,125,Yes,SBD,Raw,M,1997-02-16,Amateur Teen 18-19,112.8,140,150,160,160,100,-115,115,115,150,160,170,170,445
1,Anastasiya Maruseeva,Анастасия Марусеева,90,Yes,SBD,Single-ply,F,1998-03-31,Amateur Teen 18-19,88.2,140,-150,-150,140,60,70,75,75,-110,110,-122.5,110,325
1,Elena Krakhmaleva,Елена Крахмалева,60,No,SBD,Wraps,F,1982-11-06,Pro Open,59,100,110,-120,110,65,-72.5,72.5,72.5,90,110,122.5,122.5,305
1,Roman Rogozhkin,Роман Рогожкин,75,No,SBD,Wraps,M,1997-01-09,Pro Teen 18-19,74,-200,200,-220,200,100,110,-120,110,200,210,-215,210,520
1,Sergey Filippov,Сергей Филиппов,82.5,No,SBD,Wraps,M,1978-09-27,Pro Open,82,140,160,-170,160,90,100,110,110,150,170,180,180,450
1,Evgeniy Morokhovets,Евгений Мороховец,90,No,SBD,Wraps,M,1993-07-23,Pro Juniors 20-23,89.2,210,230,245,245,130,145,155,155,200,220,230,230,630
1,Vladimir Pasternak,Владимир Пастернак,90,No,SBD,Wraps,M,1990-11-28,Pro Open,87,220,240,250,250,120,130,140,140,190,205,-215,205,595
1,Andrey Lanovikin,Андрей Лановикин,110,No,SBD,Wraps,M,1999-08-29,Pro Teen 16-17,103.9,130,140,150,150,75,-80,,75,170,185,-195,185,410
1,Vladislav Zybarev,Владислав Зыбарев,110,No,SBD,Wraps,M,1997-05-12,Pro Teen 18-19,108,220,240,255,255,100,110,-115,110,-210,210,230,230,595
1,Andrey Khomenko,Андрей Хоменко,125,No,SBD,Wraps,M,1996-09-14,Pro Juniors 20-23,117.2,-220,220,240,240,120,135,-145,135,190,210,-235,210,585
1,Yana Vorontsova,Яна Воронцова,48,No,SBD,Raw,F,1989-05-09,Pro Open,48,70,80,90,90,45,50,52.5,52.5,80,90,100,100,242.5
1,Natalya Yarotskaya,Наталья Яроцкая,52,No,SBD,Raw,F,1963-09-18,Pro Masters 50-54,51,65,70,80,80,37.5,42.5,45,45,75,85,92.5,92.5,217.5
1,Anna Mikhalina,Анна Михалина,56,No,SBD,Raw,F,1990-12-28,Pro Open,55,60,70,-80,70,40,-45,-45,40,60,70,80,80,190
1,Mariya Kalishchuk,Мария Калищук,67.5,No,SBD,Raw,F,1985-08-11,Pro Open,66.9,140,-150,-150,140,90,95,-100,95,160,170,-182.5,170,405
1,Elena Zherdeva,Елена Жердева,75,No,SBD,Raw,F,1982-04-14,Pro Open,73,110,120,130,130,65,72.5,80,80,120,135,142.5,142.5,352.5
1,Elena Borisevich,Елена Борисевич,75,No,SBD,Raw,F,1975-11-12,Pro Masters 40-44,73.3,80,87.5,-95,87.5,50,-52.5,-52.5,50,105,112.5,120,120,257.5
1,Yuliya Kovtyukh,Юлия Ковтюх,82.5,No,SBD,Raw,F,1990-01-06,Pro Open,81.6,-75,75,-85,75,40,45,-50,45,95,105,-115,105,225
1,Anton Smirnov,Антон Смирнов,60,No,SBD,Raw,M,1986-03-04,Pro Open,58.5,-80,90,100,100,65,75,82.5,82.5,130,140,-147.5,140,322.5
1,Artem Kozulin,Артем Козулин,75,No,SBD,Raw,M,1999-04-16,Pro Teen 16-17,74,130,140,150,150,95,105,-110,105,140,150,-165,150,405
1,Dmitriy Cherepanov,Дмитрий Черепанов,75,No,SBD,Raw,M,1983-07-11,Pro Open,75,190,-200,205,205,130,145,-155,145,210,230,250,250,600
1,Andrey Bespalov,Андрей Беспалов,82.5,No,SBD,Raw,M,1998-11-24,Pro Teen 16-17,80,160,170,-175,170,100,-110,-110,100,160,170,180,180,450
1,Aleksey Kolesnikov,Алексей Колесников,82.5,No,SBD,Raw,M,1986-08-29,Pro Open,81.9,190,210,220,220,135,147.5,152.5,152.5,230,245,-255,245,617.5
1,Egor Manokhin,Егор Манохин,90,No,SBD,Raw,M,1991-10-19,Pro Open,89.1,220,230,240,240,160,165,170,170,230,240,245,245,655
2,Yuriy Astapov,Юрий Астапов,90,No,SBD,Raw,M,1988-06-12,Pro Open,87,125,140,150,150,105,115,120,120,140,160,175,175,445
1,Lev Khatynskiy,Лев Хатынский,100,No,SBD,Raw,M,1998-02-27,Pro Teen 18-19,93,160,180,200,200,110,-120,120,120,150,170,180,180,500
1,Aleksandr Klemeshov,Александр Клемешов,100,No,SBD,Raw,M,1995-05-14,Pro Juniors 20-23,99.3,240,-247.5,-247.5,240,-160,-160,160,160,260,-285,-285,260,660
1,Aleksandr Klemeshov,Александр Клемешов,100,No,SBD,Raw,M,1995-05-14,Pro Open,99.3,240,-247.5,-247.5,240,-160,-160,160,160,260,-285,-285,260,660
2,Anton Kazantsev,Антон Казанцев,100,No,SBD,Raw,M,1986-04-11,Pro Open,98.1,200,220,-240,220,150,160,170,170,220,245,265,265,655
3,Aleksey Slepokurov,Алексей Слепокуров,100,No,SBD,Raw,M,1980-12-03,Pro Open,100,180,200,210,210,120,125,130,130,220,240,255,255,595
4,Maksim Senin,Максим Сенин,100,No,SBD,Raw,M,1979-07-05,Pro Open,94,80,100,120,120,80,100,105,105,110,130,150,150,375
1,Dmitriy Kem,Дмитрий Кем,100,No,SBD,Raw,M,1971-12-08,Pro Masters 40-44,97.8,150,160,167.5,167.5,110,115,117.5,117.5,170,180,187.5,187.5,472.5
1,Ruslan Popov,Руслан Попов,110,No,SBD,Raw,M,1974-06-05,Pro Open,103.7,200,220,-245,220,150,160,170,170,200,220,240,240,630
1,Ruslan Popov,Руслан Попов,110,No,SBD,Raw,M,1974-06-05,Pro Masters 40-44,103.7,200,220,-245,220,150,160,170,170,200,220,240,240,630
1,Kirill Kharin,Кирилл Харин,125,No,SBD,Raw,M,1977-03-27,Pro Open,116.4,210,225,235,235,145,160,-175,160,200,220,,220,615
DQ,Konstantin Semenov,Константин Семенов,75,No,SBD,Single-ply,M,1964-08-24,Pro Open,74.8,-220,220,-227.5,220,-160,-160,,,,,,,
DQ,Konstantin Semenov,Константин Семенов,75,No,SBD,Single-ply,M,1964-08-24,Pro Masters 50-54,74.8,-220,220,-227.5,220,-160,-160,,,,,,,
1,Maksim Goripov,Максим Горипов,90,No,SBD,Single-ply,M,1994-05-07,Pro Juniors 20-23,84.9,260,280,-300,280,145,155,162.5,162.5,260,280,-300,280,722.5
1,Egor Ryabov,Егор Рябов,90,No,SBD,Single-ply,M,1988-07-07,Pro Open,89,-250,260,-270,260,-160,-160,160,160,220,240,-250,240,660
1,Mikhail Shirokov,Михаил Широков,100,No,SBD,Single-ply,M,1999-06-03,Pro Teen 16-17,100,255,-265,265,265,170,175,-180,175,255,-262.5,-262.5,255,695
1,Mikhail Shirokov,Михаил Широков,100,No,SBD,Single-ply,M,1999-06-03,Pro Open,100,255,-265,265,265,170,175,-180,175,255,-262.5,-262.5,255,695
1,Anastasiya Volkova,Анастасия Волкова,44,Yes,B,Raw,F,1990-04-20,Amateur Open,44,,,,,50,55,-57.5,55,,,,,55
1,Marina Sivtsova,Марина Сивцова,48,Yes,B,Raw,F,1981-07-08,Amateur Open,48,,,,,-45,-47.5,47.5,47.5,,,,,47.5
2,Elena Kudasheva,Елена Кудашева,48,Yes,B,Raw,F,1976-02-22,Amateur Open,47,,,,,42.5,-45,45,45,,,,,45
1,Lyudmila Popova,Людмила Попова,48,Yes,B,Raw,F,1975-11-04,Amateur Masters 40-44,46.4,,,,,45,52.5,55,55,,,,,55
1,Ekaterina Tetereva,Екатерина Тетерева,52,Yes,B,Raw,F,1990-02-07,Amateur Open,51.4,,,,,45,50,-52.5,50,,,,,50
1,Karina Posedaeva,Карина Поседаева,56,Yes,B,Raw,F,1995-10-07,Amateur Juniors 20-23,56,,,,,-40,40,45,45,,,,,45
1,Elena Lyakh,Елена Лях,56,Yes,B,Raw,F,1976-05-13,Amateur Masters 40-44,53.5,,,,,57.5,60,62.5,62.5,,,,,62.5
1,Anastasiya Utkina,Анастасия Уткина,60,Yes,B,Raw,F,1991-03-09,Amateur Open,58.7,,,,,72.5,77.5,-80,77.5,,,,,77.5
1,Valeriya Duseeva,Валерия Дусеева,67.5,Yes,B,Raw,F,1991-02-03,Amateur Open,64.8,,,,,-72.5,75,-80,75,,,,,75
DQ,Anna Rogaleva,Анна Рогалева,67.5,Yes,B,Raw,F,1982-03-25,Amateur Open,66,,,,,-70,-75,-75,,,,,,
1,Andrey Gryzlov,Андрей Грызлов,52,Yes,B,Raw,M,2002-07-10,Amateur Teen 13-15,50,,,,,50,55,57.5,57.5,,,,,57.5
1,Aleksey Yakushev,Алексей Якушев,56,Yes,B,Raw,M,1998-07-04,Amateur Teen 18-19,55.1,,,,,70,75,-80,75,,,,,75
1,Denis Ivanov,Денис Иванов,67.5,Yes,B,Raw,M,1996-02-05,Amateur Juniors 20-23,66.2,,,,,110,-117.5,117.5,117.5,,,,,117.5
2,Igor Samoylov,Игорь Самойлов,67.5,Yes,B,Raw,M,1996-03-10,Amateur Juniors 20-23,65.9,,,,,-100,-107.5,107.5,107.5,,,,,107.5
1,Roman Zaikin,Роман Заикин,75,Yes,B,Raw,M,1997-04-14,Amateur Teen 18-19,69,,,,,117.5,-120,,117.5,,,,,117.5
2,Vadim Surikov,Вадим Суриков,75,Yes,B,Raw,M,1997-12-03,Amateur Teen 18-19,68.9,,,,,107.5,-117.5,-117.5,107.5,,,,,107.5
1,Aleksey Dolgovyazov,Алексей Долговязов,75,Yes,B,Raw,M,1995-06-04,Amateur Juniors 20-23,74.3,,,,,130,-137.5,137.5,137.5,,,,,137.5
2,Aleksandr Adam,Александр Адам,75,Yes,B,Raw,M,1996-08-17,Amateur Juniors 20-23,71,,,,,-117.5,117.5,-120,117.5,,,,,117.5
1,Sergey German,Сергей Герман,75,Yes,B,Raw,M,1986-05-21,Amateur Open,73.4,,,,,130,135,-140,135,,,,,135
2,Vitaliy Kopotienko,Виталий Копотиенко,75,Yes,B,Raw,M,1985-10-26,Amateur Open,71.9,,,,,120,125,130,130,,,,,130
3,Nikita Shcheklein,Никита Щеклеин,75,Yes,B,Raw,M,1987-12-09,Amateur Open,74,,,,,117.5,125,-130,125,,,,,125
1,Oleg Komarevtsev,Олег Комаревцев,75,Yes,B,Raw,M,1972-06-01,Amateur Masters 40-44,74.8,,,,,95,-100,-105,95,,,,,95
1,Igor Mulenko,Игорь Муленко,75,Yes,B,Raw,M,1966-11-16,Amateur Masters 50-54,74.1,,,,,120,125,130,130,,,,,130
1,Nikolay Samoylov,Николай Самойлов,75,Yes,B,Raw,M,1965-07-01,Amateur Masters 50-54,74.5,,,,,90,,-105,90,,,,,90
1,Valeriy Lebedev,Валерий Лебедев,82.5,Yes,B,Raw,M,1992-12-24,Amateur Juniors 20-23,80.2,,,,,120,127.5,-130,127.5,,,,,127.5
DQ,Viktor Gerasimov,Виктор Герасимов,82.5,Yes,B,Raw,M,1996-09-03,Amateur Juniors 20-23,78.1,,,,,-127.5,-127.5,-127.5,,,,,,
DQ,Vladimir Ermola,Владимир Ермола,82.5,Yes,B,Raw,M,1996-09-03,Amateur Juniors 20-23,79.5,,,,,-112.5,-112.5,-127.5,,,,,,
1,Aleksandr Gorovoy,Александр Горовой,82.5,Yes,B,Raw,M,1991-09-17,Amateur Open,77.5,,,,,140,145,150,150,,,,,150
2,Mikhail Obukhov,Михаил Обухов,82.5,Yes,B,Raw,M,1988-08-21,Amateur Open,80.5,,,,,132.5,-145,-145,132.5,,,,,132.5
DQ,Sergey Roslyakov,Сергей Росляков,82.5,Yes,B,Raw,M,1986-12-08,Amateur Open,78.2,,,,,-157.5,-157.5,-157.5,,,,,,
1,Andrey Gusev,Андрей Гусев,90,Yes,B,Raw,M,1995-08-07,Amateur Juniors 20-23,86,,,,,-155,-155,155,155,,,,,155
1,Nikolay Vishnyakov,Николай Вишняков,90,Yes,B,Raw,M,1988-04-24,Amateur Open,86.7,,,,,165,175,180,180,,,,,180
2,Sergey Naglovskiy,Сергей Нагловский,90,Yes,B,Raw,M,1987-12-08,Amateur Open,90,,,,,132.5,142.5,-147.5,142.5,,,,,142.5
3,Mikhail Makhalin,Михаил Махалин,90,Yes,B,Raw,M,1990-05-28,Amateur Open,87.5,,,,,120,132.5,-140,132.5,,,,,132.5
1,Rodion Kornev,Родион Корнев,90,Yes,B,Raw,M,1955-04-03,Amateur Masters 60-64,90,,,,,110,112.5,115,115,,,,,115
1,Nikita Besprozvannykh,Никита Беспрозванных,100,Yes,B,Raw,M,1997-04-01,Amateur Teen 18-19,99.1,,,,,150,157.5,160,160,,,,,160
1,Evgeniy Averkiev,Евгений Аверкиев,100,Yes,B,Raw,M,1982-12-01,Amateur Open,97.2,,,,,-175,175,-185,175,,,,,175
2,Aleksey Dobrikov,Алексей Добриков,100,Yes,B,Raw,M,1988-04-18,Amateur Open,100,,,,,157.5,162.5,-167.5,162.5,,,,,162.5
3,Oleg Vorobev,Олег Воробьев,100,Yes,B,Raw,M,1981-06-27,Amateur Open,90.2,,,,,-150,-160,160,160,,,,,160
4,Maksim Bukharin,Максим Бухарин,100,Yes,B,Raw,M,1984-04-30,Amateur Open,90.7,,,,,147.5,155,-162.5,155,,,,,155
5,Vyacheslav Nikolaev,Вячеслав Николаев,100,Yes,B,Raw,M,1956-07-10,Amateur Open,97.8,,,,,130,140,147.5,147.5,,,,,147.5
1,Vyacheslav Nikolaev,Вячеслав Николаев,100,Yes,B,Raw,M,1956-07-10,Amateur Masters 60-64,97.8,,,,,130,140,147.5,147.5,,,,,147.5
1,Evgeniy Zul,Евгений Зуль,110,Yes,B,Raw,M,1993-10-18,Amateur Juniors 20-23,105,,,,,150,167.5,-170,167.5,,,,,167.5
1,Aleksandr Gryaznov,Александр Грязнов,110,Yes,B,Raw,M,1975-06-08,Amateur Masters 40-44,104.9,,,,,140,150,155,155,,,,,155
2,Nikolay Mazepa,Николай Мазепа,110,Yes,B,Raw,M,1974-02-08,Amateur Masters 40-44,108.7,,,,,140,147.5,-152.5,147.5,,,,,147.5
3,Sergey Tarasov,Сергей Тарасов,110,Yes,B,Raw,M,1974-06-04,Amateur Masters 40-44,109,,,,,140,-150,-150,140,,,,,140
1,Andrey Mazepa,Андрей Мазепа,110,Yes,B,Raw,M,1964-04-09,Amateur Masters 50-54,108,,,,,110,115,120,120,,,,,120
1,Vadim Sokushev,Вадим Сокушев,52,Yes,B,Single-ply,M,1990-03-28,Amateur Open,49,,,,,110,120,-122.5,120,,,,,120
DQ,Aleksandr Moiseev,Александр Моисеев,75,Yes,B,Single-ply,M,1980-05-06,Amateur Open,74.5,,,,,-160,-160,-170,,,,,,
1,Artem Bykhovets,Артем Быховец,82.5,Yes,B,Single-ply,M,1983-07-19,Amateur Open,82,,,,,210,-220.5,-225.5,210,,,,,210
1,Irina Vysotskaya,Ирина Высоцкая,56,No,B,Raw,F,1970-11-07,Pro Masters 45-49,56,,,,,50,55,-57.5,55,,,,,55
1,Elena Belova,Елена Белова,56,No,B,Raw,F,1966-03-12,Pro Masters 50-54,55,,,,,45,50,52.5,52.5,,,,,52.5
1,Galina Sorokina,Галина Сорокина,75,No,B,Raw,F,1996-08-27,Pro Juniors 20-23,74.6,,,,,40,-45,-45,40,,,,,40
1,Ivan Sorokin,Иван Сорокин,67.5,No,B,Raw,M,1997-10-09,Pro Teen 18-19,67.4,,,,,150,-167.5,-167.5,150,,,,,150
1,Egor Ponomarev,Егор Пономарев,67.5,No,B,Raw,M,1994-12-17,Pro Juniors 20-23,63.9,,,,,70,80,-90,80,,,,,80
1,Konstantin Karpov,Константин Карпов,67.5,No,B,Raw,M,1988-04-26,Pro Open,66.4,,,,,45,-50,52.5,52.5,,,,,52.5
1,Vyacheslav Kravtsov,Вячеслав Кравцов,67.5,No,B,Raw,M,1967-04-21,Pro Masters 45-49,63,,,,,105,-112.5,-112.5,105,,,,,105
1,Sergey Nikonov,Сергей Никонов,75,No,B,Raw,M,1986-06-17,Pro Open,73.2,,,,,145,-150,157.5,157.5,,,,,157.5
2,Mikhail Gutikov,Михаил Гутиков,75,No,B,Raw,M,1987-05-30,Pro Open,72.8,,,,,145,155,-157.5,155,,,,,155
1,Artem Kuzmin,Артем Кузьмин,82.5,No,B,Raw,M,1994-03-31,Pro Juniors 20-23,77.5,,,,,-160,160,170,170,,,,,170
2,Yaroslav Rudish,Ярослав Рудиш,82.5,No,B,Raw,M,1993-11-14,Pro Juniors 20-23,79,,,,,125,130,-135,130,,,,,130
1,Maksim Vasin,Максим Васин,82.5,No,B,Raw,M,1991-08-10,Pro Open,82.4,,,,,170,-180,-180,170,,,,,170
2,Mikhail Nikiforov,Михаил Никифоров,82.5,No,B,Raw,M,1979-06-27,Pro Open,82,,,,,130,140,145,145,,,,,145
1,Alisultan Sultanakhmedov,Алисултан Султанахмедов,90,No,B,Raw,M,1995-01-14,Pro Juniors 20-23,87,,,,,160,170,175,175,,,,,175
1,Vladimir Nesterenko,Владимир Нестеренко,90,No,B,Raw,M,1988-11-08,Pro Open,88.3,,,,,-155,155,-160,155,,,,,155
2,Nikita Senkin,Никита Сенькин,90,No,B,Raw,M,1979-03-26,Pro Open,90,,,,,100,110,115,115,,,,,115
DQ,Aleksey Korobov,Алексей Коробов,90,No,B,Raw,M,1959-03-21,Pro Masters 55-59,86.4,,,,,-155,-155,-155,,,,,,
1,Ivan Lobov,Иван Лобов,100,No,B,Raw,M,1985-05-20,Pro Open,95.6,,,,,205,212.5,-220,212.5,,,,,212.5
2,Vladislav Fomenko,Владислав Фоменко,100,No,B,Raw,M,1977-02-01,Pro Open,99.2,,,,,170,-175,175,175,,,,,175
1,Konstantin Sorokin,Константин Сорокин,100,No,B,Raw,M,1973-10-11,Pro Masters 40-44,98.8,,,,,160,165,,165,,,,,165
1,Sergey Annenkov,Сергей Анненков,100,No,B,Raw,M,1958-04-11,Pro Masters 55-59,98.6,,,,,160,165,-170,165,,,,,165
1,Aleksandr Dukhinskiy,Александр Духинский,110,No,B,Raw,M,1982-11-29,Pro Open,106.6,,,,,195,202.5,-205,202.5,,,,,202.5
2,Viktor Andreev,Виктор Андреев,110,No,B,Raw,M,1981-04-15,Pro Open,108.7,,,,,172.5,180,185,185,,,,,185
3,Evgeniy Zenin,Евгений Зенин,110,No,B,Raw,M,1991-02-02,Pro Open,103,,,,,170,180,-190,180,,,,,180
4,Aleksey Porsin,Алексей Порсин,110,No,B,Raw,M,1981-09-17,Pro Open,109,,,,,160,170,175,175,,,,,175
1,Boris Torlopov,Борис Торлопов,110,No,B,Raw,M,1976-08-02,Pro Masters 40-44,107.8,,,,,170,177.5,182.5,182.5,,,,,182.5
1,Oleg Zherdev,Олег Жердев,110,No,B,Raw,M,1970-05-12,Pro Masters 45-49,110,,,,,180,190,200,200,,,,,200
1,Vadim Klyachenkov,Вадим Кляченков,110,No,B,Raw,M,1966-08-18,Pro Masters 50-54,101,,,,,-140,150,-155,150,,,,,150
2,Mikhail Ishechkin,Михаил Ишечкин,110,No,B,Raw,M,1962-01-22,Pro Masters 50-54,107.7,,,,,140,145,-150,145,,,,,145
1,Evgeniy Zheltenko,Евгений Желтенко,125,No,B,Raw,M,1982-04-21,Pro Open,111.3,,,,,265,275,-280,275,,,,,275
1,Igor Altshuler,Игорь Альтшулер,125,No,B,Raw,M,1974-11-15,Pro Masters 40-44,118.6,,,,,180,190,195,195,,,,,195
1,Dmitriy Andreev,Дмитрий Андреев,140,No,B,Raw,M,1986-06-29,Pro Open,125.3,,,,,-190,190,-195,190,,,,,190
1,Dmitriy Savchenko,Дмитрий Савченко,82.5,No,B,Multi-ply,M,1981-08-03,Pro Open,81.2,,,,,170,180,190,190,,,,,190
1,German Khoroshilov,Герман Хорошилов,82.5,No,B,Single-ply,M,1998-03-16,Pro Teen 18-19,79,,,,,145,155,-162.5,155,,,,,155
1,Evgeniy Utkin,Евгений Уткин,110,No,B,Single-ply,M,1990-10-05,Pro Open,107,,,,,180,-200,-200,180,,,,,180
1,Vladislava Khoda,Владислава Хода,44,Yes,D,Raw,F,2002-05-26,Amateur Teen 13-15,42.5,,,,,,,,,60,-70,75,75,75
1,Natalya Aleshina,Наталья Алешина,56,Yes,D,Raw,F,1988-09-19,Amateur Open,55.8,,,,,,,,,80,87.5,-92.5,87.5,87.5
1,Elena Lyakh,Елена Лях,56,Yes,D,Raw,F,1976-05-13,Amateur Masters 40-44,53.5,,,,,,,,,85,95,100,100,100
1,Natalya Klemeshova,Наталья Клемешова,67.5,Yes,D,Raw,F,1982-07-30,Amateur Open,66.4,,,,,,,,,115,125,-135,125,125
1,Anna Rapoport,Анна Рапопорт,67.5,Yes,D,Raw,F,1971-10-07,Amateur Masters 45-49,67.5,,,,,,,,,150,-157.5,-157.5,150,150
1,Andrey Petukhov,Андрей Петухов,52,Yes,D,Raw,M,2001-02-23,Amateur Teen 13-15,50.2,,,,,,,,,110,120,132.5,132.5,132.5
1,Aleksey Yakushev,Алексей Якушев,56,Yes,D,Raw,M,1998-07-04,Amateur Teen 18-19,55.1,,,,,,,,,145,155,-162.5,155,155
1,Egor Veber,Егор Вебер,60,Yes,D,Raw,M,1997-11-15,Amateur Teen 18-19,59.3,,,,,,,,,155,165,-172.5,165,165
1,Aleksey Evsyukov,Алексей Евсюков,67.5,Yes,D,Raw,M,2001-10-11,Amateur Teen 13-15,65.6,,,,,,,,,145,155,165,165,165
1,Ivan Ershov,Иван Ершов,75,Yes,D,Raw,M,1999-08-11,Amateur Teen 16-17,73.3,,,,,,,,,-140,160,177.5,177.5,177.5
1,Vardan Petrosyan,Вардан Петросян,75,Yes,D,Raw,M,1997-02-28,Amateur Teen 18-19,71.7,,,,,,,,,245,255,260,260,260
1,Vardan Petrosyan,Вардан Петросян,75,Yes,D,Raw,M,1997-02-28,Amateur Open,71.7,,,,,,,,,245,255,260,260,260
1,Yuriy Isagulov,Юрий Исагулов,75,Yes,D,Raw,M,1944-01-02,Amateur Masters 70-74,74.9,,,,,,,,,110,120,130,130,130
1,Artem Kudasov,Артем Кудасов,82.5,Yes,D,Raw,M,1984-01-29,Amateur Open,81.2,,,,,,,,,215,220,,220,220
2,Aleksey Starikov,Алексей Стариков,82.5,Yes,D,Raw,M,1990-12-08,Amateur Open,82.5,,,,,,,,,-175,175,185,185,185
1,Sergey Gorn,Сергей Горн,82.5,Yes,D,Raw,M,1971-01-12,Amateur Masters 45-49,82.1,,,,,,,,,190,-200,-200,190,190
2,Eduard Isagulov,Эдуард Исагулов,82.5,Yes,D,Raw,M,1970-10-09,Amateur Masters 45-49,79.9,,,,,,,,,165,-185,-185,165,165
1,Evgeniy Kholzakov,Евгений Холзаков,90,Yes,D,Raw,M,1992-11-27,Amateur Juniors 20-23,89.4,,,,,,,,,240,-250,-260,240,240
1,Dmitriy Radchenko,Дмитрий Радченко,90,Yes,D,Raw,M,1979-05-04,Amateur Open,87,,,,,,,,,200,210,-222.5,210,210
1,Sergey Karelin,Сергей Карелин,100,Yes,D,Raw,M,1959-08-09,Amateur Open,99.9,,,,,,,,,200,215,-225,215,215
1,Sergey Karelin,Сергей Карелин,100,Yes,D,Raw,M,1959-08-09,Amateur Masters 55-59,99.9,,,,,,,,,200,215,-225,215,215
1,Aleksandr Mikhaylovskiy,Александр Михайловский,125,Yes,D,Raw,M,1999-01-08,Amateur Teen 16-17,117.5,,,,,,,,,225,-250,-250,225,225
1,Maksim Kovalev,Максим Ковалев,60,Yes,D,Single-ply,M,1987-01-28,Amateur Open,60,,,,,,,,,-200,200,-212.5,200,200
1,Andrey Kolbin,Андрей Колбин,67.5,Yes,D,Single-ply,M,1984-07-22,Amateur Open,67,,,,,,,,,212.5,-230,-230,212.5,212.5
1,Artem Bykhovets,Артем Быховец,82.5,Yes,D,Single-ply,M,1983-07-19,Amateur Open,82,,,,,,,,,250,-290,-290,250,250
1,Nadezhda Ponomareva,Надежда Пономарева,56,No,D,Raw,F,1987-02-07,Pro Open,56,,,,,,,,,142.5,147.5,-150,147.5,147.5
DQ,Mariya Kalishchuk,Мария Калищук,67.5,No,D,Raw,F,1985-08-11,Pro Open,66.9,,,,,,,,,-160,,,,
1,Konstantin Semenov,Константин Семенов,75,No,D,Raw,M,1964-08-24,Pro Open,74.8,,,,,,,,,200,212.5,225,225,225
1,Konstantin Semenov,Константин Семенов,75,No,D,Raw,M,1964-08-24,Pro Masters 50-54,74.8,,,,,,,,,200,212.5,225,225,225
1,Aleksandr Chernov,Александр Чернов,90,No,D,Raw,M,1989-05-15,Pro Open,89,,,,,,,,,160,175,-185,175,175
1,Mikhail Shirokov,Михаил Широков,100,No,D,Raw,M,1999-06-30,Pro Teen 16-17,100,,,,,,,,,220,230,240,240,240
1,Mikhail Shirokov,Михаил Широков,100,No,D,Raw,M,1999-06-30,Pro Open,100,,,,,,,,,220,230,240,240,240
1,Konstantin Sorokin,Константин Сорокин,100,No,D,Raw,M,1973-10-11,Pro Masters 40-44,98.8,,,,,,,,,150,,,150,150
1,Oleg Lagunov,Олег Лагунов,100,No,D,Raw,M,1967-03-05,Pro Masters 45-49,100,,,,,,,,,255,272.5,,272.5,272.5
1,Boris Torlopov,Борис Торлопов,110,No,D,Raw,M,1976-08-02,Pro Masters 40-44,107.8,,,,,,,,,285,-295,-300,285,285
1,Kirill Kharin,Кирилл Харин,125,No,D,Raw,M,1977-03-27,Pro Open,116.4,,,,,,,,,270,-295,-295,270,270
1,Egor Ryabov,Егор Рябов,90,No,D,Single-ply,M,1988-07-07,Pro Open,89,,,,,,,,,200,,,200,200
