Place,Sex,Name,CyrillicName,BodyweightKg,Squat1Kg,Squat2Kg,Squat3Kg,Best3SquatKg,Squat4Kg,Bench1Kg,Bench2Kg,Bench3Kg,Best3BenchKg,Bench4Kg,Deadlift1Kg,Deadlift2Kg,Deadlift3Kg,Best3DeadliftKg,Deadlift4Kg,TotalKg,WeightClassKg,Event,Equipment,Tested,Division,Age,BirthDate
1,F,Marina Velichko,Марина Величко,47.2,-75,75,-77.5,75,,-40,-40,40,40,,-80,-80,80,80,,195,48,SBD,Raw,Yes,Open,27,1991-03-27
1,F,Leyla Platonova,Лейла Платонова,51.7,67.5,-75,-75,67.5,,45,47.5,-50,47.5,,92.5,100,-110,100,,215,52,SBD,Raw,Yes,Open,25,1993-06-24
1,F,Margarita Pluzhnikova,Маргарита Плужникова,60,85,-90,-90,85,,-47.5,50,-55,50,,102.5,110,-120,110,,245,60,SBD,Raw,Yes,Juniors 20-23,20,1998-03-17
1,M,Igor Glushkin,Игорь Глушкин,63.5,120,125,-130,125,,90,-95,-95,90,,140,145,147.5,147.5,,362.5,67.5,SBD,Raw,Yes,Open,26,1992-08-10
1,M,Ivan Zemerev,Иван Земерев,78.9,140,145,-150,145,,110,120,-125,120,,180,190,-200,190,,455,82.5,SBD,Raw,Yes,Open,28,1990-01-14
1,M,Timofey Shapin,Тимофей Шапин,82,160,165,170,170,,110,-115,117.5,117.5,,210,215,-222.5,215,,502.5,82.5,SBD,Raw,No,Juniors 20-23,20,1998-01-08
DQ,M,Aleksandr Bazylev,Александр Базылев,91.6,-120,-125,-125,,,,,,,,,,,,,,100,SBD,Raw,No,Open,38,1980-05-14
1,F,Alyona Kryukova,Алёна Крюкова,72.5,90,-100,-100,90,,55,-60,-60,55,,115,125,130,130,,275,75,SBD,Wraps,Yes,Teen 16-17,17,2001-09-23
1,M,Maksim Chursanov,Максим Чурсанов,58.5,160,-170,170,170,,132.5,-140,140,140,,210,-230,230,230,,540,60,SBD,Wraps,Yes,Open,21,1997-02-18
1,M,Maksim Mezheritskiy,Максим Межерицкий,113,-220,220,240,240,,150,-160,-160,150,,180,200,210,210,,600,125,SBD,Wraps,Yes,Open,31,1987-03-31
1,M,Ruslan Putivskiy,Руслан Путивский,89.1,220,-240,-240,220,,140,150,-157.5,150,,200,-220,-220,200,,570,90,SBD,Wraps,No,Masters 40-44,41,1977-06-02
1,M,Sergey Volkov,Сергей Волков,93.5,200,210,-215,210,,-125,127.5,132.5,132.5,,200,207.5,215,215,,557.5,100,SBD,Wraps,No,Juniors 20-23,23,1995-07-31
1,M,Pavel Bezuglov,Павел Безуглов,96.2,-300,300,-305,300,,170,180,185,185,,300,307.5,-312.5,307.5,,792.5,100,SBD,Wraps,No,Open,30,1987-10-19
1,M,Nikolay Vishnyakov,Николай Вишняков,109.6,230,-240,,230,,150,-160,160,160,,-250,250,-270,250,,640,110,SBD,Wraps,No,Open,31,1987-05-22
1,F,Mariya Rybalka,Мария Рыбалка,55.3,,,,,,42.5,45,-47.5,45,,70,75,80,80,,125,56,BD,Raw,Yes,Juniors 20-23,21,1997-08-27
1,M,Aleksandr Bazylev,Александр Базылев,91.6,,,,,,110,-117.5,-117.5,110,,150,170,180,180,,290,100,BD,Raw,No,Open,38,1980-05-14
1,F,Valeriya Valchuk,Валерия Вальчук,63.5,-100,110,-120,110,,,,,,,,,,,,110,67.5,S,Raw,Yes,Juniors 20-23,23,1995-07-19
1,M,Oleg Kryuchkov,Олег Крючков,94.9,-185,-195,195,195,,,,,,,,,,,,195,100,S,Raw,Yes,Open,28,1990-06-10
1,F,Nadezhda Krivotulova,Надежда Кривотулова,66.8,100,110,,110,,,,,,,,,,,,110,67.5,S,Wraps,Yes,Open,29,1989-09-08
1,M,Aleksandr Nemetskiy,Александр Немецкий,74.7,160,170,175,175,,,,,,,,,,,,175,75,S,Wraps,No,Open,26,1992-09-23
1,F,Evgeniya Kozlovtseva,Евгения Козловцева,52.7,,,,,,52.5,55,57.5,57.5,,,,,,,57.5,56,B,Raw,Yes,Open,27,1990-11-28
2,F,Yuliya Kulakova,Юлия Кулакова,55.3,,,,,,-52.5,52.5,-55,52.5,,,,,,,52.5,56,B,Raw,Yes,Open,31,1987-05-20
1,F,Sofiya Voronova,София Воронова,59.5,,,,,,85,-90,-90,85,,,,,,,85,60,B,Raw,Yes,Teen 18-19,19,1998-11-20
1,F,Tatyana Cherkashina,Татьяна Черкашина,82.5,,,,,,-75,75,77.5,77.5,,,,,,,77.5,82.5,B,Raw,Yes,Masters 40-44,42,1976-09-24
1,M,Sergey Pronichkin,Сергей Проничкин,59.4,,,,,,120,125,-127.5,125,,,,,,,125,60,B,Raw,Yes,Open,29,1989-08-15
1,M,Mikhail Levchenko #2,Михаил Левченко,61.3,,,,,,82.5,87.5,-92.5,87.5,,,,,,,87.5,67.5,B,Raw,Yes,Teen 13-15,14,2004-05-10
2,M,Kirill Bondarev,Кирилл Бондарев,64.2,,,,,,80,85,-90,85,,,,,,,85,67.5,B,Raw,Yes,Teen 13-15,14,2004-07-05
1,M,Andrey Bakhtin,Андрей Бахтин,64,,,,,,110,-115,-115,110,,,,,,,110,67.5,B,Raw,Yes,Open,21,1996-12-11
1,M,Kirill Stepanov,Кирилл Степанов,75,,,,,,60,-65,-65,60,,,,,,,60,75,B,Raw,Yes,Teen 13-15,14,2003-11-12
1,M,Aleksandr Marchenko,Александр Марченко,74.9,,,,,,-117.5,117.5,125,125,,,,,,,125,75,B,Raw,Yes,Juniors 20-23,20,1997-10-15
1,M,Valeriy Smolyaninov,Валерий Смольянинов,72.5,,,,,,-125,135,140,140,,,,,,,140,75,B,Raw,Yes,Open,22,1995-10-26
2,M,Denis Surovtsev,Денис Суровцев,73.3,,,,,,125,-130,-130,125,,,,,,,125,75,B,Raw,Yes,Open,32,1985-10-27
1,M,Dmitriy Yurshin,Дмитрий Юршин,79.6,,,,,,125,-130,-130,125,,,,,,,125,82.5,B,Raw,Yes,Teen 16-17,17,2001-08-27
DQ,M,Dmitriy Nemetskiy,Дмитрий Немецкий,78.7,,,,,,-140,-140,-140,,,,,,,,,82.5,B,Raw,Yes,Open,26,1992-09-23
DQ,M,Aleksey Degtyarev,Алексей Дегтярев,90,,,,,,-120,-120,-120,,,,,,,,,90,B,Raw,Yes,Open,26,1992-03-30
1,M,Mikhail Musatov,Михаил Мусатов,88.5,,,,,,125,-135,135,135,,,,,,,135,90,B,Raw,Yes,Masters 40-44,41,1977-01-09
2,M,Igor Litvintsev,Игорь Литвинцев,88.8,,,,,,135,-140,-140,135,,,,,,,135,90,B,Raw,Yes,Masters 45-49,48,1970-07-19
1,M,Nikolay Reshetov,Николай Решетов,89,,,,,,125,135,-140,135,,,,,,,135,90,B,Raw,Yes,Masters 55-59,59,1959-02-23
1,M,Aleksey Danilochkin,Алексей Данилочкин,90.7,,,,,,152.5,-155,157.5,157.5,,,,,,,157.5,100,B,Raw,Yes,Juniors 20-23,22,1995-11-07
1,M,Andrey Makarevich,Андрей Макаревич,99.4,,,,,,175,180,-185,180,,,,,,,180,100,B,Raw,Yes,Open,33,1984-12-13
2,M,Denis Rogozin,Денис Рогозин,99.3,,,,,,175,-185,-185,175,,,,,,,175,100,B,Raw,Yes,Open,26,1992-06-10
3,M,Vladimir Zubkov,Владимир Зубков,95,,,,,,145,150,-155,150,,,,,,,150,100,B,Raw,Yes,Open,30,1988-02-05
1,M,Vladimir Zaytsev,Владимир Зайцев,97.4,,,,,,-157.5,-157.5,157.5,157.5,,,,,,,157.5,100,B,Raw,Yes,Masters 45-49,47,1971-04-23
DQ,M,Aleksandr Istomin,Александр Истомин,95.4,,,,,,-130,-130,-130,,,,,,,,,100,B,Raw,Yes,Masters 50-54,53,1964-11-05
1,M,Dmitriy Kuznetsov,Дмитрий Кузнецов,106.4,,,,,,190,195,,195,,,,,,,195,110,B,Raw,Yes,Open,32,1986-08-26
2,M,Sergey Yun,Сергей Юн,103.6,,,,,,150,157.5,-167.5,157.5,,,,,,,157.5,110,B,Raw,Yes,Open,25,1993-09-07
3,M,Aleksandr Ampleev,Александр Амплеев,108,,,,,,135,147.5,-160,147.5,,,,,,,147.5,110,B,Raw,Yes,Open,34,1984-03-25
1,M,Igor Drozdov,Игорь Дроздов,109,,,,,,170,-180,-180,170,,,,,,,170,110,B,Raw,Yes,Masters 40-44,41,1977-02-14
1,M,Boris Kiselev,Борис Киселев,119.7,,,,,,190,195,-202.5,195,,,,,,,195,125,B,Raw,Yes,Open,35,1982-12-12
2,M,Roman Vinnikov,Роман Винников,120.4,,,,,,180,190,-202.5,190,,,,,,,190,125,B,Raw,Yes,Open,25,1992-12-01
3,M,Konstantin Skuratov,Константин Скуратов,114.6,,,,,,175,185,-195,185,,,,,,,185,125,B,Raw,Yes,Open,31,1987-08-25
1,M,Yuriy Shapovalov,Юрий Шаповалов,115.1,,,,,,157.5,162.5,-165,162.5,,,,,,,162.5,125,B,Raw,Yes,Masters 40-44,42,1976-08-10
1,M,Roman Belousov,Роман Белоусов,56.4,,,,,,-150,-155,155,155,,,,,,,155,60,B,Raw,No,Open,26,1991-10-19
1,M,Nikita Dudkin,Никита Дудкин,76.6,,,,,,100,-105,105,105,,,,,,,105,82.5,B,Raw,No,Teen 16-17,17,2001-07-27
1,M,Murat Kazavatov,Мурат Казаватов,80.5,,,,,,150,-160,-160,150,,,,,,,150,82.5,B,Raw,No,Open,34,1984-05-26
1,M,Maksim Pytkin,Максим Пыткин,88.5,,,,,,202.5,217.5,222.5,222.5,,,,,,,222.5,90,B,Raw,No,Open,26,1992-03-30
2,M,Elnur Almakaev,Эльнур Алмакаев,88.2,,,,,,160,-175,-175,160,,,,,,,160,90,B,Raw,No,Open,32,1986-05-10
3,M,Oleg Solokhin,Олег Солохин,83.8,,,,,,150,155,-162.5,155,,,,,,,155,90,B,Raw,No,Open,33,1985-06-14
1,M,Nikolay Reshetov,Николай Решетов,89,,,,,,125,135,-140,135,,,,,,,135,90,B,Raw,No,Masters 55-59,59,1959-02-23
1,M,Vladimir Yakunin,Владимир Якунин,99.5,,,,,,145,155,162.5,162.5,,,,,,,162.5,100,B,Raw,No,Juniors 20-23,23,1994-12-30
1,M,Aleksandr Grigorov,Александр Григоров,94.1,,,,,,200,-205,-205,200,,,,,,,200,100,B,Raw,No,Open,34,1984-07-29
DQ,M,Sergey Timchenko,Сергей Тимченко,90.1,,,,,,-215,-215,-215,,,,,,,,,100,B,Raw,No,Open,38,1979-12-23
1,M,Evgeniy Parshin,Евгений Паршин,98.5,,,,,,-175,180,185,185,,,,,,,185,100,B,Raw,No,Masters 40-44,41,1976-11-25
1,M,Andrey Makeev,Андрей Макеев,107.5,,,,,,210,-220,,210,,,,,,,210,110,B,Raw,No,Open,32,1985-12-28
DQ,M,Sergey Tyshkevich,Сергей Тышкевич,107.3,,,,,,-175,-175,-175,,,,,,,,,110,B,Raw,No,Open,31,1987-05-15
1,M,Aleksandr Ivanov,Александр Иванов,123.5,,,,,,-190,190,-202.5,190,,,,,,,190,125,B,Raw,No,Open,25,1993-06-15
1,M,Yuriy Prutskov,Юрий Пруцков,123.4,,,,,,200,-205,,200,,,,,,,200,125,B,Raw,No,Masters 40-44,40,1978-02-14
2,M,Yuriy Gotskin,Юрий Гоцкин,112.3,,,,,,140,150,-160,150,,,,,,,150,125,B,Raw,No,Masters 40-44,44,1973-11-15
1,M,Dmitriy Polikarpov,Дмитрий Поликарпов,99.8,,,,,,187.5,192.5,-197.5,192.5,,,,,,,192.5,100,B,Raw,Yes,Open,39,1979-08-01
1,M,Denis Grigorev,Денис Григорьев,108,,,,,,227.5,240,-252.5,240,,,,,,,240,110,B,Raw,Yes,Open,36,1982-08-07
1,M,Sergey Svetashov,Сергей Светашов,96.4,,,,,,200,-220,220,220,,,,,,,220,100,B,Raw,No,Open,41,1977-04-04
1,M,Lev Cheykin,Лев Чейкин,74.1,,,,,,150,160,170,170,,,,,,,170,75,B,Multi-ply,Yes,Teen 18-19,19,1999-09-22
DQ,M,Pavel Zhuravlev,Павел Журавлев,73.3,,,,,,-182.5,-182.5,-190,,,,,,,,,75,B,Multi-ply,Yes,Juniors 20-23,22,1996-05-21
DQ,M,Oleg Konaev,Олег Конаев,81.6,,,,,,-200,-200,-200,,,,,,,,,82.5,B,Multi-ply,Yes,Juniors 20-23,23,1995-02-15
1,M,Evgeniy Starodubtsev,Евгений Стародубцев,82,,,,,,240,250,-255,250,,,,,,,250,82.5,B,Multi-ply,Yes,Open,26,1991-12-17
DQ,M,Aleksey Tarnovskiy,Алексей Тарновский,79,,,,,,-220,-230,-230,,,,,,,,,82.5,B,Multi-ply,Yes,Open,20,1998-09-23
1,M,Aleksey Zotov,Алексей Зотов,88.7,,,,,,235,-247.5,-247.5,235,,,,,,,235,90,B,Multi-ply,Yes,Open,32,1986-07-05
1,M,Vitaliy Atmeneev,Виталий Атминеев,99.2,,,,,,250,260,-267.5,260,,,,,,,260,100,B,Multi-ply,Yes,Open,31,1986-11-06
DQ,M,Oleg Andreyushin,Олег Андреюшин,97.3,,,,,,-160,-160,-175,,,,,,,,,100,B,Multi-ply,Yes,Open,27,1991-02-19
1,M,Andrey Inyutin,Андрей Инютин,121.9,,,,,,270,-290,-290,270,,,,,,,270,125,B,Multi-ply,Yes,Open,43,1975-05-18
1,F,Elena Makarova,Елена Макарова,73.7,,,,,,120,-125,-125,120,,,,,,,120,75,B,Multi-ply,No,Masters 55-59,56,1962-08-06
1,M,Ivan Sotnikov,Иван Сотников,87.3,,,,,,240,-252.5,-252.5,240,,,,,,,240,90,B,Multi-ply,No,Open,24,1994-09-22
DQ,M,Oleg Smirnov,Олег Смирнов,99,,,,,,-280,-280,,,,,,,,,,100,B,Multi-ply,No,Open,32,1986-01-22
1,M,Aleksandr Zhukov,Александр Жуков,102,,,,,,285,300,-310,300,,,,,,,300,110,B,Multi-ply,No,Open,35,1983-03-13
1,M,Nikolay Reshetov,Николай Решетов,89,,,,,,-220,220,-230,220,,,,,,,220,90,B,Multi-ply,Yes,Masters 55-59,59,1959-02-23
1,M,Nikolay Reshetov,Николай Решетов,89,,,,,,-220,220,-230,220,,,,,,,220,90,B,Multi-ply,No,Masters 55-59,59,1959-02-23
1,M,Oleg Smirnov,Олег Смирнов,99,,,,,,290,-327.5,,290,,,,,,,290,100,B,Multi-ply,No,Open,32,1986-01-22
DQ,M,Andrey Makeev,Андрей Макеев,107.5,,,,,,-330,-352.5,-352.5,,,,,,,,,110,B,Multi-ply,No,Open,32,1985-12-28
1,F,Svetlana Vlasova,Светлана Власова,50.2,,,,,,,,,,,95,100,102.5,102.5,,102.5,52,D,Raw,Yes,Masters 45-49,49,1969-08-03
1,F,Svetlana Zakharenkova,Светлана Захаренкова,55.7,,,,,,,,,,,90,100,-110,100,,100,56,D,Raw,Yes,Juniors 20-23,23,1995-02-09
1,F,Elena Meshkova,Елена Мешкова,59.4,,,,,,,,,,,130,142.5,150,150,,150,60,D,Raw,Yes,Masters 45-49,45,1973-09-11
1,F,Darya Kalmykova,Дарья Калмыкова,62.2,,,,,,,,,,,130,135,140,140,,140,67.5,D,Raw,Yes,Open,25,1993-09-15
1,M,Viktor Kibenko,Виктор Кибенко,61.1,,,,,,,,,,,120,125,155,155,,155,67.5,D,Raw,Yes,Open,31,1987-05-17
1,M,Maksim Krotov,Максим Кротов,75.8,,,,,,,,,,,220,250,-260,250,,250,82.5,D,Raw,Yes,Open,23,1995-01-09
1,M,Igor Meshcheryakov,Игорь Мещеряков,88.6,,,,,,,,,,,200,215,225,225,,225,90,D,Raw,Yes,Open,24,1994-05-09
1,M,Aleksey Vetrov,Алексей Ветров,105.4,,,,,,,,,,,200,215,225,225,,225,110,D,Raw,Yes,Masters 40-44,43,1975-06-10
1,F,Viktoriya Malinovskaya,Виктория Малиновская,65.7,,,,,,,,,,,200,207.5,,207.5,,207.5,67.5,D,Raw,No,Open,35,1983-10-05
1,M,Nikolay Grachev,Николай Грачёв,50,,,,,,,,,,,122.5,125,127.5,127.5,130,127.5,52,D,Raw,No,Masters 60-64,62,1956-04-16
1,M,Sergey Fomin,Сергей Фомин,81.5,,,,,,,,,,,290,305,-310,305,,305,82.5,D,Raw,No,Open,35,1983-04-01
1,M,Artyom Taldykin,Артём Талдыкин,89.5,,,,,,,,,,,190,212.5,-220,212.5,,212.5,90,D,Raw,No,Open,26,1991-12-02
1,M,Aleksandr Vasilev,Александр Васильев,93.1,,,,,,,,,,,270,290,300,300,,300,100,D,Raw,No,Open,37,1981-05-07
2,M,Khasyl Dadakhanov,Хасыл Дадаханов,93.2,,,,,,,,,,,-280,-280,280,280,,280,100,D,Raw,No,Open,30,1988-02-14
3,M,Pavel Podkovyrin,Павел Подковырин,90.8,,,,,,,,,,,250,-260,-262.5,250,,250,100,D,Raw,No,Open,24,1993-10-17
1,M,Igor Golikov,Игорь Голиков,106,,,,,,,,,,,215,232.5,245,245,,245,110,D,Raw,No,Open,38,1980-06-14
DQ,M,Sergey Leshkov,Сергей Лешков,99.1,,,,,,,,,,,-272.5,-272.5,-272.5,,,,100,D,Raw,No,Masters 45-49,46,1971-12-14
1,M,Aleksandr Trezinskiy,Александр Трезинский,121.1,,,,,,,,,,,310,330,-335,330,,330,125,D,Raw,No,Open,38,1980-06-10
1,M,Oleg Andreyushin,Олег Андреюшин,97.3,,,,,,140,160,-175,160,,,,,,,160,100,B,Multi-ply,Yes,Open,27,1991-02-19
1,M,Andrey Inyutin,Андрей Инютин,121.9,,,,,,230,-250,,230,,,,,,,230,125,B,Multi-ply,Yes,Open,43,1975-05-18
1,M,Andrey Inyutin,Андрей Инютин,121.9,,,,,,230,-250,,230,,,,,,,230,125,B,Multi-ply,Yes,Masters 40-44,43,1975-05-18
1,M,Ilya Ostapenko,Илья Остапенко,109.6,,,,,,-220,-220,220,220,,,,,,,220,110,B,Multi-ply,No,Open,30,1987-12-22
