Sex,Name,CyrillicName,Place,BodyweightKg,Deadlift1Kg,Deadlift2Kg,Deadlift3Kg,Best3DeadliftKg,Deadlift4Kg,TotalKg,WeightClassKg,Event,Equipment,Tested,Bench1Kg,Bench2Kg,Bench3Kg,Best3BenchKg,Bench4Kg,Squat1Kg,Squat2Kg,Squat3Kg,Best3SquatKg,Squat4Kg,Division,Age,BirthDate
F,Iman Idrisova,Иман Идрисова,1,57.5,90,-100,-100,90,,90,60,D,Raw,No,,,,,,,,,,,Pro Open,30,1989-04-03
F,Valentina Gosteva,Валентина Гостева,1,56.6,100,110,115,115,,115,60,D,Raw,No,,,,,,,,,,,Pro Masters 60-64,64,1955-08-07
F,Natalya Grebennikova,Наталья Гребенникова,1,64.3,105,115,122.5,122.5,,122.5,67.5,D,Raw,No,,,,,,,,,,,Pro Masters 50-54,50,1969-02-26
F,Irina Mikhaylova,Ирина Михайлова,1,88,137.5,152.5,,152.5,,152.5,90,D,Raw,No,,,,,,,,,,,Pro Open,28,1990-12-19
M,Sergey Luchkin,Сергей Лучкин,1,74.2,160,180,-202.5,180,,180,75,D,Raw,No,,,,,,,,,,,Pro Open,37,1982-01-17
M,Aleksandr Drogaytsev,Александр Дрогайцев,DQ,71.1,-190,-195,-195,,,,75,D,Raw,No,,,,,,,,,,,Pro Open,28,1991-10-14
M,Evgeniy Paskal,Евгений Паскаль,1,81,180,185,190,190,,190,82.5,D,Raw,No,,,,,,,,,,,Pro Open,30,1988-12-02
M,Dmitriy Sukhanov,Дмитрий Суханов,1,96.8,190,202.5,210,210,,210,100,D,Raw,No,,,,,,,,,,,Pro Teen 18-19,18,2000-12-09
M,Aleksey Kostenko,Алексей Костенко,1,99,250,260,-267.5,260,,260,100,D,Raw,No,,,,,,,,,,,Pro Open,39,1980-02-26
M,Evgeniy Ponomarev,Евгений Пономарев,DQ,97.7,-240,-267.5,-267.5,,,,100,D,Raw,No,,,,,,,,,,,Pro Open,29,1990-10-24
M,Andrey Goroshko,Андрей Горошко,1,44.6,70,80,85,85,,85,52,D,Raw,No,,,,,,,,,,,Pro Teen 13-15,13,2005-12-13
M,Egor Dvilyanskiy,Егор Двилянский,1,86.5,210,-230,-230,210,,210,90,D,Raw,No,,,,,,,,,,,Pro Open,26,1993-02-02
M,Sergey Bakhtin,Сергей Бахтин,1,97.9,250,262.5,-267.5,262.5,,262.5,100,D,Raw,No,,,,,,,,,,,Pro Masters 40-44,44,1975-10-06
M,Oleg Kostennikov,Олег Костенников,1,103.4,,,,,,210,110,B,Unlimited,No,200,-210,210,210,,,,,,,Pro Open,53,1966-01-24
M,Oleg Kostennikov,Олег Костенников,1,103.4,,,,,,210,110,B,Unlimited,No,200,-210,210,210,,,,,,,Pro Masters 50-54,53,1966-01-24
M,Aleksandr Tolstov,Александр Толстов,1,93.8,,,,,,170,100,B,Single-ply,No,170,-177.5,-187.5,170,,,,,,,Pro Open,27,1992-05-28
M,Dmitriy Konorev,Дмитрий Конорев,DQ,109.3,,,,,,,110,B,Single-ply,No,-222.5,-222.5,-222.5,,,,,,,,Pro Open,32,1987-02-18
M,Andrey Grigorev,Андрей Григорьев,1,104.3,,,,,,172.5,110,B,Single-ply,No,160,172.5,-180,172.5,,,,,,,Pro Masters 50-54,54,1965-03-25
F,Diana Kvitchenko,Диана Квитченко,1,47,,,,,,47.5,48,B,Raw,No,47.5,-52.5,-52.5,47.5,,,,,,,Pro Open,36,1983-08-22
F,Anastasiya Popova,Анастасия Попова,1,59,,,,,,50,60,B,Raw,No,40,45,50,50,,,,,,,Pro Teen 16-17,16,2003-01-22
M,Vitaliy Parshkov,Виталий Паршков,1,52.7,,,,,,72.5,56,B,Raw,No,67.5,72.5,-75,72.5,,,,,,,Pro Teen 13-15,15,2004-11-02
M,Nikita Novinkin,Никита Новинкин,1,59.9,,,,,,75,60,B,Raw,No,-75,-75,75,75,,,,,,,Pro Teen 16-17,16,2003-09-28
M,Dmitriy Baryshev,Дмитрий Барышев,1,71.9,,,,,,122.5,75,B,Raw,No,117.5,122.5,-125,122.5,,,,,,,Pro Juniors 20-23,22,1997-01-09
M,Vitaliy Tkachenko,Виталий Ткаченко,1,72.8,,,,,,130,75,B,Raw,No,130,-135,-135,130,,,,,,,Pro Open,,1980-12-01
M,Andrey Pavlov,Андрей Павлов,1,81.4,,,,,,155,82.5,B,Raw,No,145,150,155,155,,,,,,,Pro Juniors 20-23,22,1997-05-16
M,Oleg Kudinov,Олег Кудинов,1,80.8,,,,,,135,82.5,B,Raw,No,127.5,130,135,135,,,,,,,Pro Open,29,1990-07-14
M,Vladimir Dolgikh,Владимир Долгих,1,83.6,,,,,,170,90,B,Raw,No,145,160,170,170,,,,,,,Pro Open,26,1993-07-02
M,Maksim Parlyuk,Максим Парлюк,1,85.4,,,,,,120,90,B,Raw,No,92.5,107.5,120,120,,,,,,,Pro Masters 40-44,40,1979-07-29
M,Maksim Razlivaev,Максим Разливаев,1,99.9,,,,,,130,100,B,Raw,No,120,130,-140,130,,,,,,,Pro Teen 18-19,18,2001-05-26
M,Aleksey Kostenko,Алексей Костенко,1,99,,,,,,180,100,B,Raw,No,170,180,-185,180,,,,,,,Pro Open,39,1980-02-26
M,Konstantin Kuznetsov,Константин Кузнецов,2,97.5,,,,,,130,100,B,Raw,No,-130,-130,130,130,,,,,,,Pro Open,34,1985-01-08
M,Vladimir Kutsev,Владимир Куцев,DQ,99.5,,,,,,,100,B,Raw,No,-142.5,-142.5,,,,,,,,,Pro Open,31,1988-02-23
M,Valentin Kutsev,Валентин Куцев,1,97.6,,,,,,110,100,B,Raw,No,100,110,-115,110,,,,,,,Pro Masters 60-64,64,1955-06-21
M,Mikhail Vashchekin,Михаил Ващекин,1,109.1,,,,,,155,110,B,Raw,No,-155,155,-167.5,155,,,,,,,Pro Open,38,1981-09-02
F,Anastasiya Sirotina,Анастасия Сиротина,1,57.9,95,105,115,115,,280,60,SBD,Wraps,No,47.5,-55,55,55,,-97.5,105,110,110,,Pro Juniors 20-23,23,1996-05-02
F,Iman Idrisova,Иман Идрисова,DQ,57.5,-100,,,,,,60,SBD,Wraps,No,-40,,,,,-100,-100,-100,,,Pro Open,30,1989-04-03
F,Danila Belentsov,Данила Беленцов,1,75,145,157.5,160,160,,352.5,75,SBD,Wraps,No,72.5,80,82.5,82.5,,95,105,110,110,,Pro Teen 16-17,17,2002-04-05
M,Pavel Kazakov,Павел Казаков,1,70.4,-160,160,170,170,,400,75,SBD,Raw,No,90,-100,-100,90,,120,130,140,140,,Pro Teen 16-17,17,2001-12-28
M,Artur Panin,Артур Панин,1,79.7,120,155,170,170,,440,82.5,SBD,Raw,No,100,110,-120,110,,100,140,160,160,,Pro Juniors 20-23,22,1997-06-16
M,Roman Kalashnikov,Роман Калашников,1,98.9,250,-262.5,-262.5,250,,617.5,100,SBD,Raw,No,-150,155,-160,155,,-205,205,212.5,212.5,,Pro Open,25,1994-03-20
M,Egor Korobov,Егор Коробов,2,94.5,175,185,195,195,,475,100,SBD,Raw,No,120,125,130,130,,140,145,150,150,,Pro Open,29,1990-01-10
M,Konstantin Petriev,Константин Петриев,1,134.9,,,,,,277.5,140,B,Unlimited,No,250,277.5,-300,277.5,,,,,,,Pro Open,29,1990-02-09
M,Yuriy Malygin,Юрій Малигін,1,93.1,,,,,,80,100,B,Single-ply,No,80,,,80,,,,,,,Pro Masters 50-54,52,1967-06-30
M,Maksim Skogorev,Максим Скогорев,1,76.6,,,,,,135,82.5,B,Raw,No,-125,125,135,135,,,,,,,Pro Open,24,1994-12-02
M,Sergey Antsyshkin,Сергей Анцышкин,1,99,230,237.5,-245,237.5,,692.5,100,SBD,Single-ply,No,-215,215,220,220,,235,-240,-245,235,,Pro Open,29,1990-02-23
M,Vadim Anishchenko,Вадим Анищенко,1,96.9,200,-215,-220,200,,500,100,SBD,Wraps,No,110,120,130,130,,155,165,170,170,,Pro Masters 45-49,48,1971-03-29
M,Aleksey Polezhaev,Алексей Полежаев,1,89.3,225,-235,,225,,590,90,SBD,Raw,No,140,150,-155,150,,200,210,215,215,,Pro Open,25,1994-05-24
M,Evgeniy Chikunov,Евгений Чикунов,1,124.9,280,-287.5,-287.5,280,,735,125,SBD,Raw,No,180,185,-187.5,185,,260,265,270,270,,Pro Open,31,1988-05-16
