Place,Name,CyrillicName,BirthDate,WeightClassKg,BodyweightKg,Best3SquatKg,Best3BenchKg,Best3DeadliftKg,TotalKg,Sex,Division,Event,Equipment
1,Olga Tarabanko,Ольга Тарабанько,1988-03-22,44,43.7,82.5,47.5,100,230,F,Open,SBD,Single-ply
DQ,Alyona Maltseva,Алёна Мальцева,1991-01-02,44,44,87.5,45,-100,,F,Open,SBD,Single-ply
1,Valentina Mikolyuk,Валентина Миколюк,1986-11-03,48,47.3,147.5,60,130,337.5,F,Open,SBD,Single-ply
2,Kseniya Shefer,Ксения Шефер,1989-11-11,48,47,130,65,115,310,F,Open,SBD,Single-ply
3,Ekaterina Kaminskaya,Екатерина Каминская,1985-01-13,48,47.45,122.5,55,122.5,300,F,Open,SBD,Single-ply
4,Anastasiya Galliulina,Анастасия Галлиулина,1991-03-18,48,48,105,57.5,115,277.5,F,Open,SBD,Single-ply
5,Natalya Nikolaeva,Наталья Николаева,1983-05-24,48,46.2,87.5,50,110,247.5,F,Open,SBD,Single-ply
1,Nina Kondrashyova,Нина Кондрашёва,1960-01-02,52,51.9,120,70,135,325,F,Open,SBD,Single-ply
2,Marina Yurina,Марина Юрина,1986-07-26,52,50.8,112.5,72.5,135,320,F,Open,SBD,Single-ply
3,Elena Zatrutina,Елена Затрутина,1986-08-23,52,51.05,115,55,127.5,297.5,F,Open,SBD,Single-ply
4,Lidiya Eliseeva,Лидия Елисеева,1969-03-17,52,49.95,115,50,125,290,F,Open,SBD,Single-ply
DQ,Viktoriya Timofeeva,Виктория Тимофеева,1988-12-01,52,51,112.5,-45,,,F,Open,SBD,Single-ply
1,Tatyana Shevlyakova,Татьяна Шевлякова,1987-07-03,56,55.7,150,70,150,370,F,Open,SBD,Single-ply
2,Natalya Chebotko,Наталья Чеботько,1984-11-20,56,55.5,145,70,132.5,347.5,F,Open,SBD,Single-ply
3,Albina Rybalkina,Альбина Рыбалкина,1984-12-28,56,55.2,147.5,85,112.5,345,F,Open,SBD,Single-ply
4,Aleksandra Megezhekskaya,Александра Мегежекская,1971-02-23,56,55.3,127.5,77.5,122.5,327.5,F,Open,SBD,Single-ply
1,Olga Osipova,Ольга Осипова,1989-10-11,60,58.85,165,82.5,140,387.5,F,Open,SBD,Single-ply
2,Yuliya Klimova,Юлия Климова,1978-06-19,60,59.85,140,80,140,360,F,Open,SBD,Single-ply
3,Dolzhit Tsybikova,Должит Цыбикова,1989-06-18,60,58.65,130,62.5,130,322.5,F,Open,SBD,Single-ply
4,Natalya Zhavora,Наталья Жавора,1979-01-17,60,59.5,130,57.5,125,312.5,F,Open,SBD,Single-ply
1,Nina Kalinina,Нина Калинина,1986-02-25,67.5,66.65,192.5,90,167.5,450,F,Open,SBD,Single-ply
2,Galina Trishkina,Галина Тришкина,1991-01-16,67.5,63.7,175,95,175,445,F,Open,SBD,Single-ply
3,Natalya Chumash,Наталья Чумаш,1980-04-18,67.5,66.15,150,80,157.5,387.5,F,Open,SBD,Single-ply
4,Olga Nekipelova,Ольга Некипелова,1982-02-25,67.5,66.45,147.5,90,150,387.5,F,Open,SBD,Single-ply
DQ,Inessa Sukhanova,Инесса Суханова,1982-01-13,67.5,66.45,150,70,-140,,F,Open,SBD,Single-ply
1,Elena Kozina,Елена Козина,1987-04-14,75,69.95,180,70,170,420,F,Open,SBD,Single-ply
2,Alena Soroka,Алена Сорока,1981-11-22,75,67.7,170,95,135,400,F,Open,SBD,Single-ply
3,Svetlana Dyomina,Светлана Дёмина,1989-04-04,75,67.55,120,60,125,305,F,Open,SBD,Single-ply
1,Yana Shkarupa,Яна Шкарупа,1986-06-27,82.5,75.4,170,100,160,430,F,Open,SBD,Single-ply
1,Tatyana Grigor,Татьяна Григорь,1970-07-23,90+,99.8,220,107.5,177.5,505,F,Open,SBD,Single-ply
1,Andrey Feshchenko,Андрей Фещенко,1985-08-04,52,50.9,160,117.5,180,457.5,M,Open,SBD,Single-ply
2,Vladimir Balynets,Владимир Балынец,1985-04-25,52,45.35,172.5,112.5,127.5,412.5,M,Open,SBD,Single-ply
3,Aleksandr Kolmakov,Александр Колмаков,1988-05-25,52,51.5,160,85,157.5,402.5,M,Open,SBD,Single-ply
4,Nikolay Belous,Николай Белоус,1987-07-25,52,51.3,140,77.5,135,352.5,M,Open,SBD,Single-ply
DQ,Andrey Roslyakov,Андрей Росляков,1990-12-10,52,50.85,150,-60,,,M,Open,SBD,Single-ply
1,Aleksandr Poskachin,Александр Поскачин,1971-11-12,56,55.65,200,110,190,500,M,Open,SBD,Single-ply
2,Andrey Dolgopolov,Андрей Долгополов,1985-02-23,56,55.6,170,107.5,170,447.5,M,Open,SBD,Single-ply
3,Aleksandr Salandaev,Александр Саландаев,1988-03-11,56,55.65,175,80,155,410,M,Open,SBD,Single-ply
DQ,Yuriy Stavitskiy,Юрий Ставицкий,1986-02-07,56,54.9,-190,,,,M,Open,SBD,Single-ply
1,Matvey Semenov,Матвей Семенов,1982-06-26,60,56.05,152.5,100,177.5,430,M,Open,SBD,Single-ply
1,Denis Urmanov,Денис Урманов,1980-07-20,67.5,67.2,260,165,250,675,M,Open,SBD,Single-ply
2,Vladimir Semenov,Владимир Семенов,1968-08-30,67.5,67.05,245,180,245,670,M,Open,SBD,Single-ply
3,Ilya Khariton,Илья Харитон,1987-07-30,67.5,66.1,280,145,215,640,M,Open,SBD,Single-ply
4,Vitaliy Slobodchikov,Виталий Слободчиков,1984-05-12,67.5,67.5,245,145,215,605,M,Open,SBD,Single-ply
5,Aleksandr Shokhin,Александр Шохин,1986-02-28,67.5,66.55,245,130,225,600,M,Open,SBD,Single-ply
6,Valentin Ivantsov,Валентин Иванцов,1986-04-29,67.5,66.65,200,120,205,525,M,Open,SBD,Single-ply
7,Artyom Kryzhanovskiy,Артём Крыжановский,1988-09-30,67.5,66,190,110,160,460,M,Open,SBD,Single-ply
8,Sergey Chupakhin,Сергей Чупахин,1988-09-06,67.5,67,175,100,170,445,M,Open,SBD,Single-ply
DQ,Dmitriy Mikhaylov,Дмитрий Михайлов,1983-10-05,67.5,66.95,240,150,-195,,M,Open,SBD,Single-ply
DQ,Anton Litvintsev,Антон Литвинцев,1985-07-18,67.5,67.35,-260,,,,M,Open,SBD,Single-ply
1,Anton Pinchuk,Антон Пинчук,1984-03-26,75,75,320,220,285,825,M,Open,SBD,Single-ply
2,Ilya Zuev,Илья Зуев,1969-04-12,75,74.75,230,170,230,630,M,Open,SBD,Single-ply
3,Anton Tsarenko,Антон Царенко,1984-10-10,75,73.35,250,145,225,620,M,Open,SBD,Single-ply
4,Rinat Amanaev,Ринат Аманаев,1988-02-28,75,74.6,200,115,220,535,M,Open,SBD,Single-ply
5,Aleksandr Sosnin,Александр Соснин,1963-06-06,75,74.35,200,115,200,515,M,Open,SBD,Single-ply
6,Ruslan Guseynov,Руслан Гусейнов,1988-05-29,75,72.05,200,100,210,510,M,Open,SBD,Single-ply
7,Aleksandr Miseev,Александр Мисеев,1973-02-15,75,72.8,190,110,200,500,M,Open,SBD,Single-ply
8,Maksim Kurchenko,Максим Курченко,1989-07-20,75,72.45,175,90,160,425,M,Open,SBD,Single-ply
DQ,Vladimir Kudryashov,Владимир Кудряшов,1986-05-15,75,72.55,260,120,-245,,M,Open,SBD,Single-ply
DQ,Aleksandr Ryzhkov,Александр Рыжков,1986-05-27,75,73.8,-245,,,,M,Open,SBD,Single-ply
DQ,Roman Neofitov,Роман Неофитов,1986-01-01,75,74.05,-270,,,,M,Open,SBD,Single-ply
1,Vitaliy Plesovskikh,Виталий Плесовских,1982-10-12,82.5,81.4,280,195,270,745,M,Open,SBD,Single-ply
2,Aleksandr Podrugin,Александр Подругин,1981-01-30,82.5,75.9,295,162.5,250,707.5,M,Open,SBD,Single-ply
3,Anatoliy Barbachkov,Анатолий Барбачков,1985-06-05,82.5,81.7,285,150,240,675,M,Open,SBD,Single-ply
4,Anton Smolin,Антон Смолин,1980-06-05,82.5,82.1,270,160,245,675,M,Open,SBD,Single-ply
DQ,Andrey Andrichenko,Андрей Андриченко,1986-09-08,82.5,77.05,-220,,,,M,Open,SBD,Single-ply
DQ,Ruslan Semenchuk,Руслан Семенчук,1984-03-26,82.5,80.7,-240,,,,M,Open,SBD,Single-ply
DQ,Konstantin Ivashechkin,Константин Ивашечкин,1986-12-21,82.5,82.5,260,152.5,-270,,M,Open,SBD,Single-ply
G,Sergey Miroshnichenko,Сергей Мирошниченко,1975-12-22,75,74.2,260,160,240,660,M,Open,SBD,Single-ply
1,Valeriy Kudrich,Валерий Кудрич,1977-06-29,90,89.55,360,205,320,885,M,Open,SBD,Single-ply
2,Aleksandr Belousov,Александр Белоусов,1981-11-03,90,87.65,320,220,280,820,M,Open,SBD,Single-ply
3,Sergey Sushkov,Сергей Сушков,1983-11-21,90,87.65,260,170,290,720,M,Open,SBD,Single-ply
4,Dmitriy Nadolin,Дмитрий Надолин,1964-09-20,90,87.4,285,157.5,250,692.5,M,Open,SBD,Single-ply
5,Aleksey Khomenko,Алексей Хоменко,1984-03-26,90,88.7,285,155,250,690,M,Open,SBD,Single-ply
6,Andrey Matershev,Андрей Матершев,1987-01-28,90,89.65,255,165,240,660,M,Open,SBD,Single-ply
7,Aleksandr Tereshchenko,Александр Терещенко,1987-05-17,90,85.3,265,150,240,655,M,Open,SBD,Single-ply
8,Oleg Irich,Олег Ирич,1983-06-06,90,87.85,240,130,240,610,M,Open,SBD,Single-ply
9,Dmitriy Pyachev,Дмитрий Пьячев,1983-01-24,90,89.1,240,135,215,590,M,Open,SBD,Single-ply
10,Nikolay Khalizov,Николай Хализов,1978-04-10,90,88.35,235,120,195,550,M,Open,SBD,Single-ply
DQ,Anatoliy Petukhov,Анатолий Петухов,1968-02-14,90,87.8,255,190,-245,,M,Open,SBD,Single-ply
1,Pavel Antonov,Павел Антонов,1979-11-01,100,99.3,345,210,320,875,M,Open,SBD,Single-ply
2,Evgeniy Ivanov,Евгений Иванов,1981-11-27,100,100,325,215,310,850,M,Open,SBD,Single-ply
3,Yuriy Sergienko,Юрий Сергиенко,1983-10-31,100,97.25,355,180,285,820,M,Open,SBD,Single-ply
4,Aleksandr Kurakin,Александр Куракин,1981-11-27,100,100,287.5,195,310,792.5,M,Open,SBD,Single-ply
5,Aleksey Tumanov,Алексей Туманов,1980-06-26,100,97.9,310,190,285,785,M,Open,SBD,Single-ply
6,Vladimir Zenkov,Владимир Зенков,1965-04-26,100,99.15,300,215,260,775,M,Open,SBD,Single-ply
7,Yuriy Zayachkivskiy,Юрий Заячкивский,1978-11-08,100,99.45,295,175,305,775,M,Open,SBD,Single-ply
8,Vasiliy Boev,Василий Боев,1957-03-04,100,98.85,295,205,270,770,M,Open,SBD,Single-ply
9,Igor Anikin,Игорь Аникин,1967-06-30,100,96.05,280,200,280,760,M,Open,SBD,Single-ply
10,Dmitriy Birun,Дмитрий Бирун,1983-05-21,100,99.35,290,167.5,302.5,760,M,Open,SBD,Single-ply
11,Evgeniy Kupriyanov,Евгений Куприянов,1983-02-21,100,98.8,285,207.5,257.5,750,M,Open,SBD,Single-ply
12,Yuriy Nazaruk,Юрий Назарук,1983-03-04,100,93.8,230,135,230,595,M,Open,SBD,Single-ply
13,Andrey Pogranichnyy,Андрей Пограничный,1987-04-16,100,97.4,215,110,205,530,M,Open,SBD,Single-ply
DQ,Anton Kotelnikov,Антон Котельников,1987-04-15,100,92.3,,,,,M,Open,SBD,Single-ply
1,Boris Naboka,Борис Набока,1965-07-23,110,109.1,305,225,280,810,M,Open,SBD,Single-ply
2,Dmitriy Korbulakov,Дмитрий Корбулаков,1971-02-11,110,106.35,320,220,255,795,M,Open,SBD,Single-ply
3,Sergey Ivanov,Сергей Иванов,1972-05-15,110,108.2,300,195,285,780,M,Open,SBD,Single-ply
4,Aleksandr Zenkov,Александр Зенков,1960-12-31,110,108.05,300,195,275,770,M,Open,SBD,Single-ply
G,Roman Neofitov,Роман Неофитов,1986-01-01,75,75,270,147.5,220,637.5,M,Open,SBD,Single-ply
1,Robert Dulin,Роберт Дулин,1959-08-05,125,119.25,300,220,270,790,M,Open,SBD,Single-ply
2,Vyacheslav Eskov,Вячеслав Еськов,1977-07-24,125,114.1,320,195,250,765,M,Open,SBD,Single-ply
3,Nikolay Sluzhaev,Николай Служаев,1983-05-08,125,121.85,320,190,250,760,M,Open,SBD,Single-ply
1,Dmitriy Kashuba,Дмитрий Кашуба,1987-05-03,125+,125.05,337.5,200,290,827.5,M,Open,SBD,Single-ply
